# Alias OBJ Model File
# Exported from SketchUp, (c) 2000-2012 Trimble Navigation Limited
# File units = inches

mtllib palmera.mtl

g Mesh1 eurofan_half1 eurofan_hand1_1 eurofanPalm_hand1 eurofanPalm_hand_stem1 Group1 Model

usemtl euroFanPalm_smaller_clean2
v 16.4039 56.2833 -17.0624
vt 0.878613 0.339618
vn 0.644823 0.605084 0.466987
v 10.2009 55.3214 -7.25079
vt 0.815711 0.928186
v 14.8533 47.1317 -3.06348
vt 0.0068513 0.996922
f 1/1/1 2/2/1 3/3/1

v 22.0739 53.16 -19.5717
vt 0.506347 0.0806786
vn 0.576876 0.652966 0.490764
f 4/4/2 1/1/2 3/3/2

v 26.8453 48.9773 -18.439
vt 0 0
vn 0.509595 0.712103 0.482931
f 5/5/3 4/4/3 3/3/3

g Mesh2 eurofan_half2 eurofan_hand1_1 eurofanPalm_hand1 eurofanPalm_hand_stem1 Group1 Model

v 14.8533 47.1317 -3.06348
vn 0.304006 0.921431 0.241962
v 23.275 43.186 1.38144
v 30.4947 43.2042 -7.75885
f 6/3/4 7/2/4 8/1/4

vn 0.320232 0.891184 0.321313
v 30.1476 45.666 -14.2411
f 6/3/5 8/1/5 9/4/5

vn 0.363805 0.847426 0.386672
v 26.7346 49.0801 -18.5121
f 6/3/6 9/4/6 10/5/6

g Mesh3 EurofanPalm_stem1 eurofanPalm_hand_stem1 Group1 Model

usemtl eurofanStem
v 7.16239 41.9045 1.02204
vt 1 0.5
vn 0.416093 -0.225623 0.880887
v 8.22182 42.8649 0.767593
vt 0.868101 0.5
v 8.11423 43.1288 0.886023
vt 0.868101 -1.53317e-16
f 11/6/7 12/7/7 13/8/7

vn -0.634725 0.74975 0.18708
v 8.3531 42.9071 1.04374
vt 0.868101 1
f 11/6/8 14/9/8 12/7/8

v 7.29367 41.9467 1.29818
vt 1 1
f 11/6/8 15/10/8 14/9/8

vn -0.591426 0.790266 0.160299
v 9.76084 44.0634 0.537163
vt 0.691595 1
f 12/7/9 14/9/9 16/11/9

v 9.62957 44.0212 0.261018
vt 0.691595 0.5
f 12/7/9 16/11/9 17/12/9

vn -0.539836 0.83176 0.129428
v 11.599 45.3977 -0.371019
vt 0.459303 1
f 17/12/10 16/11/10 18/13/10

vn -0.493863 0.828199 0.264928
v 11.4707 45.3938 -0.597843
vt 0.459303 0.5
f 17/12/11 18/13/11 19/14/11

vn -0.386705 0.899569 0.203062
v 13.3957 46.4503 -1.61245
vt 0.229652 1
f 19/14/12 18/13/12 20/15/12

v 13.2674 46.4464 -1.83927
vt 0.229652 0.5
f 19/14/12 20/15/12 21/16/12

vn -0.25368 0.958945 0.126771
v 14.9812 47.0717 -3.1402
vt 0.0238095 1
f 21/16/13 20/15/13 22/17/13

vn 0.0604993 0.866174 0.496066
v 15.0433 47.231 -3.42595
vt -1.11022e-16 0.5
f 21/16/14 22/17/14 23/18/14

vn 0.422595 0.530076 0.735142
v 14.7423 47.2934 -3.29791
vt 0.0238095 4.38715e-13
f 21/16/15 23/18/15 24/19/15

vn 0.669128 0.102391 0.736059
v 13.1568 46.672 -1.77016
vt 0.229652 0
f 21/16/16 24/19/16 25/20/16

vn 0.560078 0.0207618 0.82818
f 19/14/17 21/16/17 25/20/17

v 11.3602 45.6195 -0.528735
vt 0.459303 0
f 19/14/17 25/20/17 26/21/17

vn 0.452976 -0.0506602 0.890082
f 17/12/18 19/14/18 26/21/18

vn 0.527781 -0.159206 0.834327
v 9.52197 44.2851 0.379447
vt 0.691595 0
f 17/12/19 26/21/19 27/22/19

vn 0.469829 -0.194794 0.860997
f 12/7/20 17/12/20 27/22/20

f 12/7/20 27/22/20 13/8/20

v 7.0548 42.1684 1.14047
vt 1 0
f 11/6/7 13/8/7 28/23/7

g Mesh4 eurofan_half3 eurofan_hand1_2 eurofanPalm_hand2 eurofanPalm_hand_stem2 Group1 Model

usemtl euroFanPalm_smaller_clean2
v 1.87318 35.0344 -21.0432
vn -0.149937 0.786711 -0.598836
v -1.98397 41.2163 -11.956
v 6.91156 45.3362 -8.77081
f 29/1/21 30/2/21 31/3/21

v 7.96974 34.4615 -24.315
vn -0.230751 0.789824 -0.568271
f 32/4/22 29/1/22 31/3/22

v 14.0262 36.6133 -24.7993
vn -0.317078 0.76683 -0.558062
f 33/5/23 32/4/23 31/3/23

g Mesh5 eurofan_half4 eurofan_hand1_2 eurofanPalm_hand2 eurofanPalm_hand_stem2 Group1 Model

vn -0.582443 0.506624 -0.635682
v 14.6075 51.9607 -10.5426
v 19.7549 46.6144 -19.5198
f 31/3/24 34/2/24 35/1/24

vn -0.55644 0.578911 -0.596018
v 18.2155 41.0965 -23.4421
f 31/3/25 35/1/25 36/4/25

vn -0.502089 0.647019 -0.573823
v 13.8856 36.5223 -24.8113
f 31/3/26 36/4/26 37/5/26

g Mesh6 EurofanPalm_stem2 eurofanPalm_hand_stem2 Group1 Model

usemtl eurofanStem
v 6.15607 44.9989 1.35252
vn 0.339751 0.916361 0.211781
v 6.03729 45.3665 -0.0475591
v 5.75066 45.4784 -0.0719771
f 38/6/27 39/7/27 40/8/27

vn -0.993768 0.0527879 0.0981758
v 6.0538 45.6747 -0.0461525
f 38/6/28 41/9/28 39/7/28

v 6.17259 45.3071 1.35392
f 38/6/28 42/10/28 41/9/28

vn -0.998024 0.0533122 0.0332512
v 6.00853 45.9898 -1.91003
f 39/7/29 41/9/29 43/11/29

v 5.99202 45.6816 -1.91144
f 39/7/29 43/11/29 44/12/29

vn -0.997767 0.0536318 -0.0397972
v 6.11428 46.1474 -4.34893
f 44/12/30 43/11/30 45/13/30

vn -0.981101 0.193106 -0.0123097
v 6.064 45.8917 -4.35321
f 44/12/31 45/13/31 46/14/31

vn -0.968919 0.193095 -0.154632
v 6.45402 45.9373 -6.74006
f 46/14/32 45/13/32 47/15/32

v 6.40374 45.6816 -6.74434
f 46/14/32 47/15/32 48/16/32

vn -0.930436 0.188205 -0.314433
v 7.04265 45.3071 -8.85908
f 48/16/33 47/15/33 49/17/33

vn -0.706951 0.628251 -0.32484
v 6.97983 45.1039 -9.11534
f 48/16/34 49/17/34 50/18/34

vn -0.247441 0.925825 -0.285694
v 6.73952 45.1108 -8.88491
f 48/16/35 50/18/35 51/19/35

vn 0.240635 0.946579 -0.214667
v 6.15088 45.741 -6.76588
f 48/16/36 51/19/36 52/20/36

vn 0.232577 0.971172 -0.0522737
f 46/14/37 48/16/37 52/20/37

v 5.81114 45.9511 -4.37475
f 46/14/37 52/20/37 53/21/37

vn 0.220466 0.971229 0.090054
f 44/12/38 46/14/38 53/21/38

vn 0.35707 0.931011 0.075624
v 5.7054 45.7935 -1.93586
f 44/12/39 53/21/39 54/22/39

vn 0.348739 0.925463 0.147985
f 39/7/40 44/12/40 54/22/40

f 39/7/40 54/22/40 40/8/40

v 5.86945 45.1108 1.3281
f 38/6/27 40/8/27 55/23/27

g Mesh7 eurofan_half5 eurofan_hand1_3 eurofanPalm_hand3 eurofanPalm_hand_stem3 Group1 Model

usemtl euroFanPalm_smaller_clean2
v -17.2165 47.04 -0.780578
vn -0.142296 0.361548 -0.921431
v -6.39385 51.3458 -0.762398
v -1.32298 43.2856 -4.70814
f 56/1/41 57/2/41 58/3/41

v -20.157 41.2526 -3.24247
vn -0.116672 0.438381 -0.891184
f 59/4/42 56/1/42 58/3/42

v -19.3367 35.8474 -6.65649
vn -0.121728 0.516771 -0.847426
f 60/5/43 59/4/43 58/3/43

g Mesh8 eurofan_half6 eurofan_hand1_3 eurofanPalm_hand3 eurofanPalm_hand_stem3 Group1 Model

vn -0.324939 0.726834 -0.605084
v 0.612541 37.3331 -12.8978
v -9.66524 31.9375 -13.8597
f 58/3/44 61/2/44 62/1/44

vn -0.254208 0.713452 -0.652966
v -15.8303 32.5993 -10.7365
f 58/3/45 62/1/45 63/4/45

vn -0.199857 0.673028 -0.712103
v -19.3961 35.9661 -6.5537
f 58/3/46 63/4/46 64/5/46

g Mesh9 EurofanPalm_stem3 eurofanPalm_hand_stem3 Group1 Model

usemtl eurofanStem
v 7.31432 43.1104 0.633456
vn 0.643228 -0.155347 -0.74975
v 6.26961 43.4197 -0.326927
v 6.29399 43.7245 -0.36916
f 65/6/47 66/7/47 67/8/47

vn 0.0800966 0.970917 0.225622
v 6.422 43.4685 -0.590881
f 65/6/48 68/9/48 66/7/48

v 7.46671 43.1591 0.369502
f 65/6/48 69/10/48 68/9/48

vn 0.0236146 0.98056 0.194794
v 4.94957 43.7336 -1.74717
f 66/7/49 68/9/49 70/11/49

v 4.79718 43.6849 -1.48322
f 66/7/49 70/11/49 71/12/49

vn -0.0399081 0.986439 0.159205
v 2.90357 43.8662 -3.08153
f 71/12/50 70/11/50 72/13/50

vn 0.0527523 0.997322 0.0506601
v 2.77327 43.8617 -2.85585
f 71/12/51 72/13/51 73/14/51

vn -0.0709521 0.997264 -0.0207619
v 0.726894 43.6895 -4.13411
f 73/14/52 72/13/52 74/15/52

v 0.596598 43.6849 -3.90843
f 73/14/52 74/15/52 75/16/52

vn -0.211452 0.97201 -0.102391
v -1.41005 43.1591 -4.7555
f 75/16/53 74/15/53 76/17/53

vn 0.00159297 0.847949 -0.530076
v -1.73475 43.1987 -4.69309
f 75/16/54 76/17/54 77/18/54

vn 0.195639 0.459856 -0.866174
v -1.53806 43.4151 -4.53378
f 75/16/55 77/18/55 78/19/55

vn 0.283079 -0.0170529 -0.958945
v 0.598883 43.9455 -3.91239
f 75/16/56 78/19/56 79/20/56

vn 0.436428 -0.017496 -0.899569
f 73/14/57 75/16/57 79/20/57

v 2.77555 44.1222 -2.85981
f 73/14/57 79/20/57 80/21/57

vn 0.560162 -0.017497 -0.828199
f 71/12/58 73/14/58 80/21/58

vn 0.532226 -0.15783 -0.83176
v 4.82156 43.9897 -1.52545
f 71/12/59 80/21/59 81/22/59

vn 0.592339 -0.15689 -0.790266
f 66/7/60 71/12/60 81/22/60

f 66/7/60 81/22/60 67/8/60

v 7.3387 43.4151 0.591223
f 65/6/47 67/8/47 82/23/47

g Mesh10 eurofan_half7 eurofan_hand1_4 eurofanPalm_hand4 eurofanPalm_hand_stem4 Group1 Model

usemtl euroFanPalm_smaller_clean2
v -6.64759 36.669 20.9418
vn -0.0217923 0.840264 0.54174
v 3.65668 39.798 16.5031
v 0.450573 45.0475 8.2319
f 83/1/61 84/2/61 85/3/61

v -13.2589 38.1697 19.4455
vn 0.0565504 0.818773 0.571325
f 86/4/62 83/1/62 85/3/62

v -17.2834 41.6747 15.8312
vn 0.118307 0.775435 0.620246
f 87/5/63 86/4/63 85/3/63

g Mesh11 eurofan_half8 eurofan_hand1_4 eurofanPalm_hand4 eurofanPalm_hand_stem4 Group1 Model

vn 0.182766 0.484483 0.855496
v -4.19043 53.4461 4.46709
v -15.1049 51.3785 7.96976
f 85/3/64 88/2/64 89/1/64

vn 0.210589 0.55086 0.807593
v -18.1048 46.5979 12.0129
f 85/3/65 89/1/65 90/4/65

vn 0.20581 0.623243 0.75446
v -17.217 41.5591 15.9331
f 85/3/66 90/4/66 91/5/66

g Mesh12 EurofanPalm_stem4 eurofanPalm_hand_stem4 Group1 Model

usemtl eurofanStem
v 7.16004 42.4477 1.06321
vn 0.165241 0.904366 -0.393468
v 6.49173 43.0628 2.19651
v 6.71819 43.1103 2.40079
f 92/6/67 93/7/67 94/8/67

vn 0.795944 -0.192592 0.573917
v 6.57482 43.3597 2.18088
f 92/6/68 95/9/68 93/7/68

v 7.24314 42.7445 1.04758
f 92/6/68 96/10/68 95/9/68

vn 0.758998 -0.179516 0.625856
v 5.55019 44.038 3.61804
f 93/7/69 95/9/69 97/11/69

v 5.46709 43.7411 3.63367
f 93/7/69 97/11/69 98/12/69

vn 0.713697 -0.163931 0.681002
v 4.01224 44.7199 5.39398
f 98/12/70 97/11/70 99/13/70

vn 0.761266 -0.0331359 0.647592
v 3.96784 44.4661 5.43318
f 98/12/71 99/13/71 100/14/71

vn 0.664357 -0.000762219 0.747415
v 2.22223 45.0942 6.98545
f 100/14/72 99/13/72 101/15/72

v 2.17783 44.8404 7.02466
f 100/14/72 101/15/72 102/16/72

vn 0.536108 0.0364951 0.84336
v 0.292183 45.0675 8.2135
f 102/16/73 101/15/73 103/17/73

vn 0.502415 0.507644 0.699912
v 0.116942 44.9134 8.45107
f 102/16/74 103/17/74 104/18/74

vn 0.285084 0.885639 0.366566
v 0.435554 44.8181 8.43341
f 102/16/75 104/18/75 105/19/75

vn -0.0177635 0.999823 -0.00617916
v 2.3656 44.8448 7.20536
f 102/16/76 105/19/76 106/20/76

vn 0.0960955 0.987594 -0.124196
f 100/14/77 102/16/77 106/20/77

v 4.15562 44.4705 5.61388
f 100/14/77 106/20/77 107/21/77

vn 0.192971 0.955278 -0.224069
f 98/12/78 100/14/78 107/21/78

vn 0.0729102 0.950564 -0.301848
v 5.69356 43.7886 3.83795
f 98/12/79 107/21/79 108/22/79

vn 0.122031 0.928338 -0.351137
f 93/7/80 98/12/80 108/22/80

f 93/7/80 108/22/80 94/8/80

v 7.38651 42.4951 1.26748
f 92/6/67 94/8/67 109/23/67

g Mesh13 eurofan_half9 eurofan_hand1_5 eurofanPalm_hand5 eurofanPalm_hand_stem5 Group1 Model

usemtl euroFanPalm_smaller_clean2
v 13.6888 52.6425 22.6077
vn -0.702926 0.700911 0.120912
v 12.3965 53.3397 11.0528
v 5.06547 46.2204 9.70341
f 110/1/81 111/2/81 112/3/81

v 10.3645 49.2798 27.6912
vn -0.657779 0.750299 0.0661637
f 113/4/82 110/1/82 112/3/82

v 5.36778 45.5289 29.2751
vn -0.592271 0.804862 0.037585
f 114/5/83 113/4/83 112/3/83

g Mesh14 eurofan_half10 eurofan_hand1_5 eurofanPalm_hand5 eurofanPalm_hand_stem5 Group1 Model

v 5.06547 46.2204 9.70341
vn -0.255544 0.959207 0.120912
v -4.76558 43.4312 11.0528
v -4.80789 41.9634 22.6077
f 115/3/84 116/2/84 117/1/84

vn -0.320888 0.944803 0.0661637
v -0.233592 43.161 27.6912
f 115/3/85 117/1/85 118/4/85

vn -0.400896 0.915352 0.037585
v 5.51315 45.6128 29.2751
f 115/3/86 118/4/86 119/5/86

g Mesh15 EurofanPalm_stem5 eurofanPalm_hand_stem5 Group1 Model

usemtl eurofanStem
v 7.83182 41.6157 1.08308
vn -0.893865 -0.0445578 -0.446117
v 7.29614 42.5435 2.06372
v 7.34467 42.8215 1.93872
f 120/6/87 121/7/87 122/8/87

vn 0.485521 0.751831 -0.446117
v 7.0311 42.6405 1.93872
f 120/6/88 123/9/88 121/7/88

v 7.56678 41.7127 0.958076
f 120/6/88 124/10/88 123/9/88

vn 0.473808 0.787937 -0.393271
v 6.4054 43.7243 3.35623
f 121/7/89 123/9/89 125/11/89

v 6.67043 43.6273 3.48123
f 121/7/89 125/11/89 126/12/89

vn 0.45827 0.824493 -0.331964
v 5.71444 44.921 5.37478
f 126/12/90 125/11/90 127/13/90

vn 0.339192 0.847673 -0.407921
v 5.95241 44.8709 5.46853
f 126/12/91 127/13/91 128/14/91

vn 0.303463 0.909474 -0.284196
v 5.21986 45.7777 7.58806
f 128/14/92 127/13/92 129/15/92

v 5.45783 45.7276 7.68181
f 128/14/92 129/15/92 130/16/92

vn 0.2547 0.957592 -0.134702
v 5.00428 46.1511 9.83484
f 130/16/93 129/15/93 131/17/93

vn -0.228689 0.944947 -0.234044
v 5.15269 46.2561 10.1138
f 130/16/94 131/17/94 132/18/94

vn -0.704004 0.670524 -0.234044
v 5.31784 46.3321 9.83484
f 130/16/95 132/18/95 133/19/95

vn -0.956649 0.258219 -0.134702
v 5.53342 45.9587 7.58806
f 130/16/96 133/19/96 134/20/96

vn -0.939359 0.191931 -0.284196
f 128/14/97 130/16/97 134/20/97

v 6.028 45.1021 5.37478
f 128/14/97 134/20/97 135/21/97

vn -0.903702 0.130088 -0.407921
f 126/12/98 128/14/98 135/21/98

vn -0.943167 0.0153724 -0.331964
v 6.71896 43.9053 3.35623
f 126/12/99 135/21/99 136/22/99

vn -0.919277 -0.0163616 -0.393271
f 121/7/100 126/12/100 136/22/100

f 121/7/100 136/22/100 122/8/100

v 7.88034 41.8937 0.958076
f 120/6/87 122/8/87 137/23/87

g Mesh16 eurofan_half11 eurofan_hand1_6 eurofanPalm_hand6 eurofanPalm_hand_stem6 Group1 Model

usemtl euroFanPalm_smaller_clean2
v 29.6432 53.1425 5.74101
vn -0.24675 0.700911 0.669207
v 18.9903 53.8397 1.08277
v 14.1561 46.7204 6.75693
f 138/1/101 139/2/101 140/3/101

v 32.3835 49.7798 11.1617
vn -0.27159 0.750299 0.602736
f 141/4/102 138/1/102 140/3/102

v 31.2568 46.0289 16.2809
vn -0.263586 0.804862 0.531714
f 142/5/103 141/4/103 140/3/103

g Mesh17 eurofan_half12 eurofan_hand1_6 eurofanPalm_hand6 eurofanPalm_hand_stem6 Group1 Model

v 14.1561 46.7204 6.75693
vn -0.0230591 0.959207 0.281763
v 10.4092 43.9312 15.9456
v 20.3948 42.4634 21.7596
f 143/3/104 144/2/104 145/1/104

vn -0.103145 0.944803 0.310979
v 27.0844 43.661 20.3399
f 143/3/105 145/1/105 146/4/105

vn -0.167898 0.915352 0.365978
v 31.3295 46.1129 16.1551
f 143/3/106 146/4/106 147/5/106

g Mesh18 EurofanPalm_stem6 eurofanPalm_hand_stem6 Group1 Model

usemtl eurofanStem
v 8.07385 42.1157 0.0510327
vn -0.833281 -0.0445579 0.551051
v 8.65527 43.0435 1.00527
v 8.57128 43.3215 0.900739
f 148/6/107 149/7/107 150/8/107

vn -0.143589 0.751831 -0.643532
v 8.4145 43.1405 1.17229
f 148/6/108 151/9/108 149/7/108

v 7.83308 42.2127 0.218059
f 148/6/108 152/10/108 151/9/108

vn -0.103678 0.787937 -0.606965
v 9.32925 44.2243 2.42292
f 149/7/109 151/9/109 153/11/109

v 9.57002 44.1273 2.2559
f 149/7/109 153/11/109 154/12/109

vn -0.0583543 0.824493 -0.562856
v 10.7319 45.421 4.03058
f 154/12/110 153/11/110 155/13/110

vn -0.183674 0.847673 -0.497709
v 10.9321 45.3709 3.87137
f 154/12/111 155/13/111 156/14/111

vn -0.0943897 0.909474 -0.404904
v 12.4014 46.2777 5.56555
f 156/14/112 155/13/112 157/15/112

v 12.6015 46.2276 5.40633
f 156/14/112 157/15/112 158/16/112

vn 0.0106944 0.957592 -0.287928
v 14.2393 46.6511 6.87563
f 158/16/113 157/15/113 159/17/113

vn -0.317032 0.944947 0.0810286
v 14.5552 46.7561 6.88661
f 158/16/114 159/17/114 160/18/114

vn -0.55469 0.670524 0.492663
v 14.3961 46.8321 6.60408
f 158/16/115 160/18/115 161/19/115

vn -0.594981 0.258219 0.761131
v 12.5581 46.4587 5.29399
f 158/16/116 161/19/116 162/20/116

vn -0.7158 0.191931 0.671411
f 156/14/117 158/16/117 162/20/117

v 10.8887 45.6021 3.75903
f 156/14/117 162/20/117 163/21/117

vn -0.805121 0.130088 0.578668
f 154/12/118 156/14/118 163/21/118

vn -0.759073 0.0153724 0.650824
v 9.48603 44.4053 2.15137
f 154/12/119 163/21/119 164/22/119

vn -0.800221 -0.0163617 0.599482
f 149/7/120 154/12/120 164/22/120

f 149/7/120 164/22/120 150/8/120

v 7.98986 42.3937 -0.0534931
f 148/6/107 150/8/107 165/23/107

g Mesh19 eurofan_half13 eurofan_hand1_7 eurofanPalm_hand7 eurofanPalm_hand_stem7 Group1 Model

usemtl euroFanPalm_smaller_clean2
v -13.1397 33.2651 -7.87775
vn -0.774387 0.608492 0.173383
v -7.79261 37.3624 1.62443
v -2.57554 45.1982 -2.57454
f 166/1/121 167/2/121 168/3/121

v -13.7016 35.4022 -14.4594
vn -0.777448 0.57568 0.253313
f 169/4/122 166/1/122 168/3/122

v -12.3899 40.0532 -18.7247
vn -0.79492 0.516345 0.318576
f 170/5/123 169/4/123 168/3/123

g Mesh20 eurofan_half14 eurofan_hand1_7 eurofanPalm_hand7 eurofanPalm_hand_stem7 Group1 Model

v -2.57554 45.1982 -2.57454
vn -0.903535 0.161111 0.397074
v -2.83835 54.5244 -6.95661
v -7.80012 51.7618 -17.1261
f 171/3/124 172/2/124 173/1/124

vn -0.8747 0.238789 0.421758
v -10.6422 46.0003 -19.7584
f 171/3/125 173/1/125 174/4/125

vn -0.850165 0.32497 0.414263
v -12.4319 39.9079 -18.652
f 171/3/126 174/4/126 175/5/126

g Mesh21 EurofanPalm_stem7 eurofanPalm_hand_stem7 Group1 Model

usemtl eurofanStem
v 6.33983 44.9467 2.28543
vn 0.107151 0.97804 0.178763
v 4.95099 45.1655 1.92108
v 4.79748 45.1337 2.18697
f 176/6/127 177/7/127 178/8/127

vn -0.291044 -0.401345 0.868456
v 4.888 45.4473 2.03019
f 176/6/128 179/9/128 177/7/128

v 6.27683 45.2285 2.39454
f 176/6/128 180/10/128 179/9/128

vn -0.351212 -0.405331 0.844012
v 3.1206 45.6348 1.38479
f 177/7/129 179/9/129 181/11/129

v 3.1836 45.353 1.27568
f 177/7/129 181/11/129 182/12/129

vn -0.416982 -0.407761 0.812316
v 0.927118 45.7285 0.30588
f 182/12/130 181/11/130 183/13/130

vn -0.417904 -0.275027 0.865862
v 0.963049 45.478 0.243646
f 182/12/131 183/13/131 184/14/131

vn -0.541581 -0.275011 0.794392
v -1.05291 45.6035 -1.08729
f 184/14/132 183/13/132 185/15/132

v -1.01698 45.353 -1.14952
f 184/14/132 185/15/132 186/16/132

vn -0.670164 -0.268047 0.692121
v -2.59993 45.2285 -2.73046
f 186/16/133 185/15/133 187/17/133

vn -0.697372 0.224721 0.680567
v -2.80757 45.0092 -2.87082
f 186/16/134 187/17/134 188/18/134

vn -0.560161 0.700036 0.44291
v -2.69045 44.915 -2.57368
f 186/16/135 188/18/135 189/19/135

vn -0.320477 0.943303 0.0864458
v -1.14343 45.29 -0.93051
f 186/16/136 189/19/136 190/20/136

vn -0.18281 0.967811 0.172981
f 184/14/137 186/16/137 190/20/137

v 0.8366 45.415 0.462661
f 184/14/137 190/20/137 191/21/137

vn -0.0591119 0.967867 0.244415
f 182/12/138 184/14/138 191/21/138

vn -0.0124215 0.993676 0.111597
v 3.03009 45.3212 1.54157
f 182/12/139 191/21/139 192/22/139

vn 0.0509374 0.987754 0.14747
f 177/7/140 182/12/140 192/22/140

f 177/7/140 192/22/140 178/8/140

v 6.18631 44.915 2.55132
f 176/6/127 178/8/127 193/23/127

g Mesh22 eurofan_half15 eurofan_hand1_8 eurofanPalm_hand8 eurofanPalm_hand_stem8 Group2 Model

usemtl euroFanPalm_smaller_clean2
v -15.5852 53.9152 5.02775
vn 0.360567 0.882458 0.302093
v -5.93758 48.6521 8.88701
v -0.149628 49.201 0.375357
f 194/1/141 195/2/141 196/3/141

v -17.3046 57.2844 -0.794039
vn 0.373008 0.846554 0.379751
f 197/4/142 194/1/142 196/3/142

v -15.272 59.6087 -6.45192
vn 0.352307 0.814395 0.46113
f 198/5/143 197/4/143 196/3/143

g Mesh23 eurofan_half16 eurofan_hand1_8 eurofanPalm_hand8 eurofanPalm_hand_stem8 Group2 Model

v -0.149628 49.201 0.375357
vn 0.0706097 0.715051 0.695497
v 5.1855 55.074 -6.20444
v -3.59709 60.8365 -11.2373
f 199/3/144 200/2/144 201/1/144

vn 0.154662 0.720492 0.675996
v -10.4357 61.2501 -10.1135
f 199/3/145 201/1/145 202/4/145

vn 0.228273 0.742784 0.629415
v -15.3662 59.5543 -6.32409
f 199/3/146 202/4/146 203/5/146

g Mesh24 EurofanPalm_stem8 eurofanPalm_hand_stem8 Group2 Model

usemtl eurofanStem
v 4.64837 40.2499 0.225306
vn 0.918429 0.319895 -0.232713
v 4.24444 41.6158 0.508858
v 4.30771 41.6524 0.808753
f 204/6/147 205/7/147 206/8/147

vn 0.024422 -0.19626 0.980248
v 4.51093 41.7697 0.533023
f 204/6/148 207/9/148 205/7/148

v 4.91486 40.4037 0.249471
f 204/6/148 208/10/148 207/9/148

vn -0.00840459 -0.140931 0.989984
v 3.83159 43.5175 0.776068
f 205/7/149 207/9/149 209/11/149

v 3.5651 43.3636 0.751903
f 205/7/149 209/11/149 210/12/149

vn -0.0452115 -0.0781122 0.995919
v 2.73572 45.7012 0.897591
f 210/12/150 209/11/150 211/13/150

vn 0.0896718 -0.0302289 0.995513
v 2.51045 45.5711 0.913933
f 210/12/151 211/13/151 212/14/151

vn 0.0182476 0.0934743 0.995454
v 1.36517 47.6943 0.735561
f 212/14/152 211/13/152 213/15/152

v 1.1399 47.5642 0.751903
f 212/14/152 213/15/152 214/16/152

vn -0.0643696 0.233404 0.970247
v -0.210136 49.2805 0.249471
f 214/16/153 213/15/153 215/17/153

vn 0.324028 0.491525 0.808337
v -0.519187 49.3907 0.306321
f 214/16/154 215/17/154 216/18/154

vn 0.632089 0.669384 0.39037
v -0.413361 49.1631 0.5252
f 214/16/155 216/18/155 217/19/155

vn 0.72073 0.686682 -0.0949521
v 1.16194 47.5769 1.01129
f 214/16/156 217/19/156 218/20/156

vn 0.823745 0.558528 -0.097419
f 212/14/157 214/16/157 218/20/157

v 2.53249 45.5839 1.17332
f 212/14/157 218/20/157 219/21/157

vn 0.895216 0.434852 -0.0974247
f 210/12/158 212/14/158 219/21/158

vn 0.863088 0.446295 -0.236433
v 3.62837 43.4002 1.0518
f 210/12/159 219/21/159 220/22/159

vn 0.894482 0.38035 -0.235024
f 205/7/160 210/12/160 220/22/160

f 205/7/160 220/22/160 206/8/160

v 4.71164 40.2864 0.5252
f 204/6/147 206/8/147 221/23/147

g Mesh25 eurofan_half17 eurofan_hand1_9 eurofanPalm_hand9 eurofanPalm_hand_stem9 Group2 Model

usemtl euroFanPalm_smaller_clean2
v -5.50719 57.2287 -15.9632
vn 0.258296 0.890515 0.374522
v -4.73664 52.5338 -5.33138
v 5.1719 49.694 -5.41275
f 222/1/161 223/2/161 224/3/161

v -0.94693 58.6879 -20.9906
vn 0.194504 0.880633 0.432034
f 225/4/162 222/1/162 224/3/162

v 5.25582 58.8303 -22.7373
vn 0.11049 0.8789 0.464034
f 226/5/163 225/4/163 224/3/163

g Mesh26 eurofan_half18 eurofan_hand1_9 eurofanPalm_hand9 eurofanPalm_hand_stem9 Group2 Model

v 5.1719 49.694 -5.41275
vn -0.258296 0.890515 0.374522
v 15.0804 52.5338 -5.33138
v 15.851 57.2287 -15.9632
f 227/3/164 228/2/164 229/1/164

vn -0.194504 0.880633 0.432034
v 11.2907 58.6879 -20.9906
f 227/3/165 229/1/165 230/4/165

vn -0.11049 0.8789 0.464034
v 5.08797 58.8303 -22.7373
f 227/3/166 230/4/166 231/5/166

g Mesh27 EurofanPalm_stem9 eurofanPalm_hand_stem9 Group2 Model

usemtl eurofanStem
v 5.07852 40.7325 -0.632802
vn 0.796388 0.130578 0.590521
v 5.07852 42.1506 -0.946386
v 4.89749 42.2756 -0.72988
f 232/6/167 233/7/167 234/8/167

vn -0.796388 0.130578 0.590521
v 5.25956 42.2756 -0.72988
f 232/6/168 235/9/168 233/7/168

v 5.25956 40.8575 -0.416296
f 232/6/168 236/10/168 235/9/168

vn -0.804298 0.189152 0.563317
v 5.25956 44.0681 -1.33177
f 233/7/169 235/9/169 237/11/169

v 5.07852 43.9431 -1.54828
f 233/7/169 237/11/169 238/12/169

vn -0.80912 0.25395 0.529938
v 5.25956 46.2742 -2.38893
f 238/12/170 237/11/170 239/13/170

vn -0.717585 0.28492 0.635525
v 5.07852 46.1804 -2.55131
f 238/12/171 239/13/171 240/14/171

vn -0.717543 0.408604 0.564069
v 5.25956 48.2375 -3.81111
f 240/14/172 239/13/172 241/15/172

v 5.07852 48.1437 -3.97349
f 240/14/172 241/15/172 242/16/172

vn -0.699373 0.540554 0.46763
v 5.25956 49.7342 -5.5413
f 242/16/173 241/15/173 243/17/173

vn -0.274423 0.690714 0.669034
v 5.07852 49.8882 -5.77455
f 242/16/174 243/17/174 244/18/174

vn 0.274423 0.690714 0.669034
v 4.89749 49.7342 -5.5413
f 242/16/175 244/18/175 245/19/175

vn 0.699373 0.540554 0.46763
v 4.89749 48.2375 -3.81111
f 242/16/176 245/19/176 246/20/176

vn 0.717543 0.408604 0.564069
f 240/14/177 242/16/177 246/20/177

v 4.89749 46.2742 -2.38893
f 240/14/177 246/20/177 247/21/177

vn 0.717585 0.28492 0.635525
f 238/12/178 240/14/178 247/21/178

vn 0.80912 0.25395 0.529938
v 4.89749 44.0681 -1.33177
f 238/12/179 247/21/179 248/22/179

vn 0.804298 0.189152 0.563317
f 233/7/180 238/12/180 248/22/180

f 233/7/180 248/22/180 234/8/180

v 4.89749 40.8575 -0.416296
f 232/6/167 234/8/167 249/23/167

g Mesh28 eurofan_half19 eurofan_hand1_10 eurofanPalm_hand10 eurofanPalm_hand_stem10 Group2 Model

usemtl euroFanPalm_smaller_clean2
v 26.5613 54.6416 -4.57632
vn -0.397074 0.903535 -0.161111
v 16.3918 49.6798 -7.33898
v 12.0097 49.417 1.98724
f 250/1/181 251/2/181 252/3/181

v 29.1936 57.4837 1.18513
vn -0.421758 0.8747 -0.238789
f 253/4/182 250/1/182 252/3/182

v 28.0872 59.2734 7.2776
vn -0.414263 0.850165 -0.32497
f 254/5/183 253/4/183 252/3/183

g Mesh29 eurofan_half20 eurofan_hand1_10 eurofanPalm_hand10 eurofanPalm_hand_stem10 Group2 Model

v 12.0097 49.417 1.98724
vn -0.173383 0.774387 -0.608492
v 7.81074 54.6341 9.82311
v 17.3129 59.9812 13.9204
f 255/3/184 256/2/184 257/1/184

vn -0.253312 0.777448 -0.57568
v 23.8945 60.5431 11.7832
f 255/3/185 257/1/185 258/4/185

vn -0.318576 0.79492 -0.516345
v 28.1598 59.2314 7.13223
f 255/3/186 258/4/186 259/5/186

g Mesh30 EurofanPalm_stem10 eurofanPalm_hand_stem10 Group2 Model

usemtl eurofanStem
v 7.23061 40.455 2.07699
vn -0.868456 0.291044 0.401345
v 7.59495 41.8438 1.85824
v 7.48584 41.9068 1.57646
f 260/6/187 261/7/187 262/8/187

vn -0.178763 -0.107151 -0.97804
v 7.32906 41.9973 1.89002
f 260/6/188 263/9/188 261/7/188

v 6.96472 40.6085 2.10877
f 260/6/188 264/10/188 263/9/188

vn -0.14747 -0.0509374 -0.987754
v 7.97447 43.7647 1.70252
f 261/7/189 263/9/189 265/11/189

v 8.24036 43.6112 1.67074
f 261/7/189 265/11/189 266/12/189

vn -0.111597 0.0124215 -0.993676
v 9.05338 45.9582 1.60877
f 266/12/190 265/11/190 267/13/190

vn -0.244415 0.0591119 -0.967867
v 9.27239 45.8318 1.54574
f 266/12/191 267/13/191 268/14/191

vn -0.172981 0.18281 -0.967811
v 10.4465 47.9382 1.73377
f 268/14/192 267/13/192 269/15/192

v 10.6656 47.8118 1.67074
f 268/14/192 269/15/192 270/16/192

vn -0.0864458 0.320477 -0.943303
v 12.0897 49.4853 2.10877
f 270/16/193 269/15/193 271/17/193

vn -0.44291 0.560161 -0.700036
v 12.3869 49.6024 2.01449
f 270/16/194 271/17/194 272/18/194

vn -0.680567 0.697372 -0.224721
v 12.2465 49.3947 1.79521
f 270/16/195 272/18/195 273/19/195

vn -0.692121 0.670164 0.268047
v 10.6033 47.8477 1.42021
f 270/16/196 273/19/196 274/20/196

vn -0.794392 0.541581 0.275011
f 268/14/197 270/16/197 274/20/197

v 9.21016 45.8677 1.29521
f 268/14/197 274/20/197 275/21/197

vn -0.865862 0.417904 0.275027
f 266/12/198 268/14/198 275/21/198

vn -0.812316 0.416982 0.407761
v 8.13125 43.6742 1.38896
f 266/12/199 275/21/199 276/22/199

vn -0.844012 0.351212 0.405331
f 261/7/200 266/12/200 276/22/200

f 261/7/200 276/22/200 262/8/200

v 7.1215 40.518 1.79521
f 260/6/187 262/8/187 277/23/187

g Mesh31 eurofan_half21 eurofan_hand1_11 eurofanPalm_hand11 eurofanPalm_hand_stem11 Group2 Model

usemtl euroFanPalm_smaller_clean2
v 8.74074 46.1772 23.8829
vn 0.361549 0.932066 -0.0231239
v 13.0466 44.2428 13.2345
v 4.98636 47.2282 7.54508
f 278/1/201 279/2/201 280/3/201

v 2.95338 49.1209 26.3409
vn 0.438381 0.89776 -0.0429867
f 281/4/202 278/1/202 280/3/202

v -2.4519 52.3357 24.9291
vn 0.516771 0.855589 -0.0302615
f 282/5/203 281/4/203 280/3/203

g Mesh32 eurofan_half22 eurofan_hand1_11 eurofanPalm_hand11 eurofanPalm_hand_stem11 Group2 Model

v 4.98636 47.2282 7.54508
vn 0.726834 0.653063 0.212653
v -0.966196 54.9457 4.18988
v -6.36177 57.7125 14.1349
f 283/3/204 284/2/204 285/1/204

vn 0.713452 0.687663 0.13456
v -5.69994 55.7303 20.7556
f 283/3/205 285/1/205 286/4/205

vn 0.673028 0.73624 0.0705957
v -2.3332 52.2451 25.0057
f 283/3/206 286/4/206 287/5/206

g Mesh33 EurofanPalm_stem11 eurofanPalm_hand_stem11 Group2 Model

usemtl eurofanStem
v 4.8111 40.4415 -0.00979557
vn -0.155347 0.623995 -0.765832
v 5.12045 41.5717 0.848338
v 5.42524 41.609 0.816861
f 288/6/207 289/7/207 290/8/207

vn 0.970917 -0.236241 -0.0388763
v 5.16922 41.8045 0.65161
f 288/6/208 291/9/208 289/7/208

v 4.85986 40.6743 -0.206523
f 288/6/208 292/10/208 291/9/208

vn 0.98056 -0.195897 0.0112538
v 5.43439 43.2033 1.89601
f 289/7/209 291/9/209 293/11/209

v 5.38562 42.9705 2.09273
f 289/7/209 293/11/209 294/12/209

vn 0.986439 -0.149622 0.0674703
v 5.56697 44.8789 3.67338
f 294/12/210 293/11/210 295/13/210

vn 0.997322 -0.0592011 -0.0429474
v 5.5624 44.6798 3.84158
f 294/12/211 295/13/211 296/14/211

vn 0.997264 0.0329982 0.0661542
v 5.39019 46.3003 5.62926
f 296/14/212 295/13/212 297/15/212

v 5.38562 46.1012 5.79746
f 296/14/212 297/15/212 298/16/212

vn 0.97201 0.138218 0.189979
v 4.85986 47.2903 7.62239
f 298/16/213 297/15/213 299/17/213

vn 0.847949 0.521416 -0.0954361
v 4.89948 47.2863 7.95301
f 298/16/214 299/17/214 300/18/214

vn 0.459856 0.81784 -0.345934
v 5.11588 47.0947 7.78764
f 298/16/215 300/18/215 301/19/215

vn -0.0170528 0.89366 -0.44842
v 5.64621 46.1047 5.79451
f 298/16/216 301/19/216 302/20/216

vn -0.0174959 0.808067 -0.58883
f 296/14/217 298/16/217 302/20/217

v 5.82299 44.6833 3.83863
f 296/14/217 302/20/217 303/21/217

vn -0.0174969 0.715913 -0.69797
f 294/12/218 296/14/218 303/21/218

vn -0.15783 0.724366 -0.671107
v 5.69041 43.0077 2.06126
f 294/12/219 303/21/219 304/22/219

vn -0.15689 0.672882 -0.722922
f 289/7/220 294/12/220 304/22/220

f 289/7/220 304/22/220 290/8/220

v 5.11588 40.4788 -0.041272
f 288/6/207 290/8/207 305/23/207

g Mesh34 eurofan_half23 eurofan_hand1_12 eurofanPalm_hand12 eurofanPalm_hand_stem12 Group3 Model

usemtl euroFanPalm_smaller_clean2
v 11.6463 66.4632 11.4038
vn 0.233487 0.565815 -0.790783
v 14.6109 56.9066 5.44122
v 5.51333 54.6599 1.1475
f 306/1/221 307/2/221 308/3/221

v 5.93936 70.3986 11.7828
vn 0.310456 0.526445 -0.7915
f 309/4/222 306/1/222 308/3/222

v 0.0250288 71.5158 9.47673
vn 0.394566 0.507113 -0.76626
f 310/5/223 309/4/223 308/3/223

g Mesh35 eurofan_half24 eurofan_hand1_12 eurofanPalm_hand12 eurofanPalm_hand_stem12 Group3 Model

v 5.51333 54.6599 1.1475
vn 0.660883 0.559056 -0.50069
v -1.7845 57.1659 -5.68709
v -6.02409 66.7427 -0.589921
f 311/3/224 312/2/224 313/1/224

vn 0.632297 0.521355 -0.573052
v -4.18532 70.5587 4.91075
f 311/3/225 313/1/225 314/4/225

vn 0.577392 0.504221 -0.642168
v 0.163903 71.5136 9.57099
f 311/3/226 314/4/226 315/5/226

g Mesh36 EurofanPalm_stem12 eurofanPalm_hand_stem12 Group3 Model

usemtl eurofanStem
v 5.13192 44.5219 1.63949
vn -0.340102 -0.187588 -0.921489
v 5.41385 45.8941 1.25609
v 5.7039 45.8848 1.15093
f 316/6/227 317/7/227 318/8/227

vn 0.977663 -0.208428 -0.0270624
v 5.40435 45.8896 0.947609
f 316/6/228 319/9/228 317/7/228

v 5.12242 44.5173 1.33101
f 316/6/228 320/10/228 319/9/228

vn 0.989114 -0.14439 -0.0283558
v 5.66354 47.7317 0.608662
f 317/7/229 319/9/229 321/11/229

v 5.67304 47.7362 0.917146
f 317/7/229 321/11/229 322/12/229

vn 0.996979 -0.0717771 -0.0296647
v 5.83294 50.1644 0.415758
f 322/12/230 321/11/230 323/13/230

vn 0.98056 -0.0994918 -0.169124
v 5.87752 50.1672 0.672537
f 322/12/231 323/13/231 324/14/231

vn 0.984263 0.0432853 -0.171327
v 5.75614 52.5815 0.585226
f 324/14/232 323/13/232 325/15/232

v 5.80072 52.5843 0.842005
f 324/14/232 325/15/232 326/16/232

vn 0.963664 0.206423 -0.169534
v 5.39222 54.7626 1.17222
f 326/16/233 325/15/233 327/17/233

vn 0.75285 0.234423 -0.61503
v 5.47844 55.0135 1.37342
f 326/16/234 327/17/234 328/18/234

vn 0.298769 0.241604 -0.923236
v 5.69177 54.7578 1.37554
f 326/16/235 328/18/235 329/19/235

vn -0.193573 0.224724 -0.955002
v 6.0557 52.5768 0.788547
f 326/16/236 329/19/236 330/20/236

vn -0.203039 0.062062 -0.977202
f 324/14/237 326/16/237 330/20/237

v 6.1325 50.1597 0.619079
f 324/14/237 330/20/237 331/21/237

vn -0.206811 -0.0807141 -0.975046
f 322/12/238 324/14/238 331/21/238

vn -0.341853 -0.050604 -0.93839
v 5.96309 47.7269 0.811982
f 322/12/239 331/21/239 332/22/239

vn -0.341739 -0.123343 -0.931666
f 317/7/240 322/12/240 332/22/240

f 317/7/240 332/22/240 318/8/240

v 5.42197 44.5126 1.53433
f 316/6/227 318/8/227 333/23/227

g Mesh37 eurofan_half25 eurofan_hand1_13 eurofanPalm_hand13 eurofanPalm_hand_stem13 Group3 Model

usemtl euroFanPalm_smaller_clean2
v 10.1158 54.7311 -20.8679
vn -0.592348 0.802595 0.07046
v 3.18297 48.967 -13.4935
v 7.67386 51.4978 -4.56735
f 334/1/241 335/2/241 336/3/241

v 15.33 59.2553 -20.1303
vn -0.658583 0.750827 0.050269
f 337/4/242 334/1/242 336/3/242

v 18.8167 62.8084 -16.0359
vn -0.713009 0.701154 -0.00126533
f 338/5/243 337/4/243 336/3/243

g Mesh38 eurofan_half26 eurofan_hand1_13 eurofanPalm_hand13 eurofanPalm_hand_stem13 Group3 Model

v 7.67386 51.4978 -4.56735
vn -0.763324 0.546574 -0.344375
v 9.74179 58.7882 2.42
v 17.1847 65.3161 -3.71682
f 339/3/244 340/2/244 341/1/244

vn -0.787333 0.558036 -0.262113
v 19.3803 65.3202 -10.3032
f 339/3/245 341/1/245 342/4/245

vn -0.786146 0.591637 -0.178718
v 18.7612 62.7252 -16.1707
f 339/3/246 342/4/246 343/5/246

g Mesh39 EurofanPalm_stem13 eurofanPalm_hand_stem13 Group3 Model

usemtl eurofanStem
v 7.16642 42.9069 0.827528
vn -0.293036 0.383582 0.875782
v 6.8638 44.1681 0.173881
v 6.56879 44.1394 0.0877437
f 344/6/247 345/7/247 346/8/247

vn -0.820195 -0.405793 -0.403252
v 6.68863 44.3188 0.378493
f 344/6/248 347/9/248 345/7/248

v 6.99124 43.0576 1.03214
f 344/6/248 348/10/248 347/9/248

vn -0.823146 -0.354693 -0.443423
v 6.48158 45.9552 -0.546076
f 345/7/249 347/9/249 349/11/249

v 6.65675 45.8044 -0.750688
f 345/7/249 349/11/249 350/12/249

vn -0.822306 -0.295542 -0.48628
v 6.49687 48.034 -1.83538
f 350/12/250 349/11/250 351/13/250

vn -0.894601 -0.245731 -0.373236
v 6.61327 47.8986 -2.02518
f 350/12/251 351/13/251 352/14/251

vn -0.883328 -0.126653 -0.451321
v 6.92138 49.983 -3.21318
f 352/14/252 351/13/252 353/15/252

v 7.03779 49.8475 -3.40299
f 352/14/252 353/15/252 354/16/252

vn -0.848052 0.0135158 -0.529741
v 7.79645 51.6016 -4.57276
f 354/16/253 353/15/253 355/17/253

vn -0.939724 0.30947 -0.145421
v 7.87371 51.6897 -4.88446
f 354/16/254 355/17/254 356/18/254

vn -0.758073 0.581476 0.295314
v 7.67661 51.4221 -4.86351
f 354/16/255 356/18/255 357/19/255

vn -0.385111 0.70673 0.593483
v 6.80155 49.8036 -3.50393
f 354/16/256 357/19/256 358/20/256

vn -0.40836 0.584571 0.701085
f 352/14/257 354/16/257 358/20/257

v 6.37703 47.8546 -2.12613
f 352/14/257 358/20/257 359/21/257

vn -0.419605 0.465534 0.779237
f 350/12/258 352/14/258 359/21/258

vn -0.28672 0.506452 0.813202
v 6.36175 45.7757 -0.836825
f 350/12/259 359/21/259 360/22/259

vn -0.290751 0.442522 0.848315
f 345/7/260 350/12/260 360/22/260

f 345/7/260 360/22/260 346/8/260

v 6.87141 42.8782 0.74139
f 344/6/247 346/8/247 361/23/247

g Mesh40 eurofan_half27 eurofan_hand1_14 eurofanPalm_hand14 eurofanPalm_hand_stem14 Group3 Model

usemtl euroFanPalm_smaller_clean2
v 2.56575 68.3626 4.27729
vn 0.951549 0.304118 -0.0454692
v 6.1084 57.7739 7.59391
v 7.09327 53.311 -1.64527
f 362/1/261 363/2/261 364/3/261

v 1.87065 71.5781 -1.83645
vn 0.960774 0.275059 0.0354333
f 365/4/262 362/1/262 364/3/262

v 2.79791 71.2585 -8.20696
vn 0.953581 0.273941 0.125056
f 366/5/263 365/4/263 364/3/263

g Mesh41 eurofan_half28 eurofan_hand1_14 eurofanPalm_hand14 eurofanPalm_hand_stem14 Group3 Model

v 7.09327 53.311 -1.64527
vn 0.791651 0.436393 0.427609
v 12.2423 52.6997 -10.5539
v 9.17662 62.8937 -15.2818
f 367/3/264 368/2/264 369/1/264

vn 0.840367 0.374666 0.391675
v 5.6585 68.4446 -13.0433
f 367/3/265 369/1/265 370/4/265

vn 0.885183 0.330524 0.327423
v 2.74596 71.3015 -8.05324
f 367/3/266 370/4/266 371/5/266

g Mesh42 EurofanPalm_stem14 eurofanPalm_hand_stem14 Group3 Model

usemtl eurofanStem
v 3.65003 43.8858 -0.0717647
vn 0.709924 -0.50819 -0.487597
v 4.46782 45.0847 -0.130558
v 4.63686 45.0732 0.127454
f 372/6/267 373/7/267 374/8/267

vn 0.216921 -0.100353 0.971017
v 4.74893 44.9805 -0.204117
f 372/6/268 375/9/268 373/7/268

v 3.93113 43.7817 -0.145324
f 372/6/268 376/10/268 375/9/268

vn 0.23932 -0.0392702 0.970146
v 5.65382 46.6334 -0.360433
f 373/7/269 375/9/269 377/11/269

v 5.37271 46.7376 -0.286874
f 373/7/269 377/11/269 378/12/269

vn 0.263257 0.0294961 0.964275
v 6.56921 48.8795 -0.679047
f 378/12/270 377/11/270 379/13/270

vn 0.379902 -0.0430322 0.924025
v 6.34437 48.9692 -0.582432
f 378/12/271 379/13/271 380/14/271

vn 0.423602 0.0910426 0.901262
v 7.08224 51.2006 -1.15465
f 380/14/272 379/13/272 381/15/272

v 6.8574 51.2903 -1.05803
f 380/14/272 381/15/272 382/16/272

vn 0.46317 0.242964 0.852316
v 7.0686 53.4027 -1.77496
f 382/16/273 381/15/273 383/17/273

vn 0.828303 0.104033 0.550538
v 6.97656 53.7126 -1.69503
f 382/16/274 383/17/274 384/18/274

vn 0.998184 -0.0365011 0.0479218
v 6.95653 53.4954 -1.44339
f 382/16/275 384/18/275 385/19/275

vn 0.896116 -0.115191 -0.428611
v 6.97017 51.2933 -0.823079
f 382/16/276 385/19/276 386/20/276

vn 0.867796 -0.276417 -0.412945
f 380/14/277 382/16/277 386/20/277

v 6.45714 48.9722 -0.347476
f 380/14/277 386/20/277 387/21/277

vn 0.824122 -0.410513 -0.390258
f 378/12/278 380/14/278 387/21/278

vn 0.764141 -0.384861 -0.517658
v 5.54175 46.7261 -0.0288615
f 378/12/279 387/21/279 388/22/279

vn 0.73722 -0.451158 -0.502955
f 373/7/280 378/12/280 388/22/280

f 373/7/280 388/22/280 374/8/280

v 3.81906 43.8744 0.186247
f 372/6/267 374/8/267 389/23/267

g Mesh43 eurofan_half29 eurofan_hand1_15 eurofanPalm_hand15 eurofanPalm_hand_stem15 Group3 Model

usemtl euroFanPalm_smaller_clean2
v 18.2741 62.3851 5.8754
vn -0.764018 0.569295 0.303611
v 11.0476 56.339 -0.972545
v 8.17714 48.9643 5.63225
f 390/1/281 391/2/281 392/3/281

v 19.9756 62.1259 12.6013
vn -0.781405 0.583887 0.220188
f 393/4/282 390/1/282 392/3/282

v 18.8208 59.4084 18.3308
vn -0.772709 0.619555 0.138105
f 394/5/283 393/4/283 392/3/283

g Mesh44 eurofan_half30 eurofan_hand1_15 eurofanPalm_hand15 eurofanPalm_hand_stem15 Group3 Model

v 8.17714 48.9643 5.63225
vn -0.552692 0.828499 -0.090117
v 2.94094 46.3957 14.1313
v 9.53693 51.6685 22.1539
f 395/3/284 396/2/284 397/1/284

vn -0.62227 0.779075 -0.076301
v 14.9695 55.9855 21.9284
f 395/3/285 397/1/285 398/4/285

vn -0.682311 0.730433 -0.0303183
v 18.8894 59.4926 18.2029
f 395/3/286 398/4/286 399/5/286

g Mesh45 EurofanPalm_stem15 eurofanPalm_hand_stem15 Group3 Model

usemtl eurofanStem
v 7.80003 40.6387 -0.173663
vn -0.863425 -0.381016 0.330642
v 7.50105 41.8942 0.492432
v 7.34768 42.0575 0.280067
f 400/6/287 401/7/287 402/8/287

vn -0.211857 0.418171 -0.883317
v 7.19957 41.8758 0.556023
f 400/6/288 403/9/288 401/7/288

v 7.49854 40.6203 -0.110072
f 400/6/288 404/10/288 403/9/288

vn -0.209233 0.476231 -0.854064
v 6.99093 43.495 1.51
f 401/7/289 403/9/289 405/11/289

v 7.29241 43.5134 1.44641
f 401/7/289 405/11/289 406/12/289

vn -0.205231 0.539004 -0.816918
v 6.99475 45.5373 2.85656
f 406/12/290 405/11/290 407/13/290

vn -0.341804 0.502881 -0.793902
v 7.23937 45.5738 2.77437
f 406/12/291 407/13/291 408/14/291

vn -0.331571 0.619273 -0.711731
v 7.39457 47.4303 4.31735
f 408/14/292 407/13/292 409/15/292

v 7.63919 47.4668 4.23516
f 408/14/292 409/15/292 410/16/292

vn -0.311428 0.737514 -0.599238
v 8.23136 48.9746 5.78318
f 410/16/293 409/15/293 411/17/293

vn -0.710137 0.620483 -0.332725
v 8.437 49.233 5.82613
f 410/16/294 411/17/294 412/18/294

vn -0.934657 0.345096 0.0855863
v 8.37947 49.1563 5.50722
f 410/16/295 412/18/295 413/19/295

vn -0.883623 0.0356827 0.466838
v 7.54268 47.6119 4.04139
f 410/16/296 413/19/296 414/20/296

vn -0.918632 -0.100792 0.382042
f 408/14/297 410/16/297 414/20/297

v 7.14286 45.719 2.5806
f 408/14/297 414/20/297 415/21/297

vn -0.928898 -0.217226 0.299935
f 406/12/298 408/14/298 415/21/298

vn -0.867216 -0.27296 0.416449
v 7.13905 43.6767 1.23405
f 406/12/299 415/21/299 416/22/299

vn -0.867272 -0.330893 0.371952
f 401/7/300 406/12/300 416/22/300

f 401/7/300 416/22/300 402/8/300

v 7.64666 40.8019 -0.386029
f 400/6/287 402/8/287 417/23/287

g Mesh46 euroneck1 eurofantrunck_a1 Model

usemtl _Brown_
v 7.31212 45.1726 -0.583856
vt 4.6604 -3.30323
vn 0.114513 0.993422 1.73808e-17
v 5.66014 45.363 -1.38345
vt 5.46 -1.64031
v 4.00816 45.5535 -0.583856
vt 4.6604 0.0226061
v 3.32389 45.6323 1.34655
vt 2.73 0.71141
v 4.00816 45.5535 3.27695
vt 0.799598 0.0226061
v 5.66014 45.363 4.07655
vt 3.1835e-15 -1.64031
v 7.31212 45.1726 3.27695
vt 0.799598 -3.30323
v 7.99639 45.0937 1.34655
vt 2.73 -3.99204
f 418/24/301 419/25/301 420/26/301 421/27/301 422/28/301 423/29/301 424/30/301 425/31/301 

usemtl eurofanpalm_trunck
vt -0.0981323 2.03198
vn -0.135745 0.0554444 -0.989191
vt -0.36032 2.00655
vn 0.726915 0.00306065 -0.68672
v 4.84333 30.2264 -2.08345
vt 0.0505382 0.0108549
vn 0.157469 0.0397506 -0.986723
f 419/32/302 418/33/303 426/34/304

v 6.68902 30.2264 -1.31666
vt -0.29122 0.000750437
vn 0.707878 0.00511908 -0.706316
vt -0.00570177 0.000750437
vt -0.413587 1.99698
f 427/35/305 426/36/304 418/37/303

vt 0.469567 0.0432085
vt 0.33883 2.03897
v 7.45353 30.2264 0.534545
vt 0.183445 0.0432085
vn 0.992344 -0.0321825 -0.119235
f 427/38/305 418/39/303 428/40/306

vt 0.0923247 2.02512
vn 0.989807 -0.0458167 0.134843
vt 0.227591 0.0400169
vt 0.384909 2.03565
f 425/41/307 428/42/306 418/43/303

vt 0.751929 0.0520776
vt 0.674315 2.03988
v 6.68902 30.2264 2.38575
vt 0.465807 0.0520776
vn 0.806154 -0.0662676 0.587983
f 428/44/306 425/45/307 429/46/308

vt 0.351179 2.05434
vn 0.628126 -0.0747078 0.774517
vt 0.441148 0.0554639
vt 0.643763 2.04379
f 424/47/309 429/48/308 425/49/307

vt 0.679484 0.0281986
vt 0.712842 2.0286
v 4.84333 30.2264 3.15255
vt 0.393966 0.0281986
vn 0.153136 -0.0662956 0.985979
f 429/50/308 424/51/309 430/52/310

vt 0.441379 2.0567
vn -0.143088 -0.0497701 0.988458
vt 0.392481 0.0297256
vt 0.703558 2.0312
f 423/53/311 430/54/310 424/55/309

vt 0.292679 0.0180633
vt 0.45108 2.04014
v 2.99765 30.2264 2.38575
vt 0.00716065 0.0180633
vn -0.726731 0.00778711 0.686878
f 430/56/310 423/57/311 431/58/312

vt 0.176959 2.06788
vn -0.74509 0.0103476 0.666884
vt -0.00857135 0.0211013
vt 0.439147 2.04245
f 422/59/313 431/60/312 423/61/311

vt -0.0228633 2.08221
vt -0.315447 2.09275
vn -0.989074 0.0606842 0.134352
vt -0.191245 0.0341414
f 422/62/313 421/63/314 431/64/312

v 2.23314 30.2264 0.534545
vt -0.468112 0.0349936
vn -0.990094 0.0741247 -0.119249
vt -0.181989 0.0349936
vt -0.301417 2.09385
f 432/65/315 431/66/312 421/67/314

vt -0.419326 2.07737
vt -0.711909 2.0668
vn -0.813644 0.0833621 -0.575356
vt -0.475996 0.0133024
f 421/68/314 420/69/316 432/70/315

v 2.99765 30.2264 -1.31666
vt -0.753385 0.0124843
vn -0.616286 0.0759646 -0.78385
vt -0.467263 0.0124843
vt -0.711728 2.06511
f 433/71/317 432/72/315 420/73/316

vt -0.513659 2.03498
vt -0.77584 2.0095
vt -0.428167 -0.0164524
f 420/74/316 419/75/302 433/76/317

vt -0.680943 -0.0127857
vt -0.395424 -0.0127857
vt -0.750334 2.01207
f 426/77/304 433/78/317 419/79/302

g Mesh47 euroStump1 eurofantrunck_a1 Model

v 2.81719 0.691051 2.26782
vt 0.574317 -0.0166738
vn 0.70644 -0.0563189 0.705528
v 3.54713 0.691051 0.500051
vt 0.678594 -0.0166738
vn 0.987524 -0.0788268 0.136316
v 4.0548 16.215 2.26782
vt 0.751118 2.05583
vn 0.706045 -0.056288 0.705926
f 434/80/318 435/81/319 436/82/320

v 4.7796 16.1214 0.500051
vt 0.854661 2.04333
vn 0.987572 -0.0788306 -0.135969
f 437/83/321 436/82/320 435/81/319

vn 0.69695 -0.12385 0.706344
vn 0.975716 -0.172882 0.134498
v 6.67103 30.9375 2.26782
vt 1.12487 4.02133
vn 0.698881 -0.1242 0.704372
f 436/82/322 437/83/323 438/84/324

v 7.40097 30.9375 0.500051
vt 1.22914 4.02133
vn 0.975493 -0.172843 -0.136154
f 439/85/325 438/84/324 437/83/323

v 4.0548 16.215 -1.26772
vn 0.786684 -0.139543 -0.601378
f 437/83/323 440/82/326 439/85/325

vn 0.603031 -0.0480261 -0.79627
v 2.81719 0.691051 -1.26772
vn 0.795757 -0.0634891 -0.602279
f 440/82/327 437/83/321 441/80/328

f 435/81/319 441/80/328 437/83/321

v 1.05497 0.691051 -1.99995
vt 0.322571 -0.0166738
vn 0.136807 -0.0109066 -0.990538
f 441/80/328 442/86/329 440/82/327

v 2.30497 16.4411 -1.99995
vt 0.501142 2.086
vn -0.137152 0.0108376 -0.990491
f 443/87/330 440/82/327 442/86/329

vn 0.136976 -0.0243445 -0.990275
v 6.67103 30.9375 -1.26772
vn 0.598102 -0.106547 -0.794306
f 440/82/326 443/87/331 444/84/332

v 4.9088 30.9375 -1.99995
vt 0.873119 4.02133
vn -0.135238 0.0245622 -0.990509
f 445/88/333 444/84/332 443/87/331

v 0.555141 16.6671 -1.26772
vt 0.251167 2.11618
vn -0.596524 0.108059 -0.795287
f 443/87/331 446/89/334 445/88/333

vn -0.7956 0.0628205 -0.602557
v -0.707257 0.691051 -1.26772
vt 0.0708241 -0.0166738
vn -0.603326 0.0477213 -0.796065
f 446/89/335 443/87/330 447/90/336

f 442/86/329 447/90/336 443/87/330

v -1.43719 0.691051 0.500051
vt -0.0334527 -0.0166738
vn -0.987595 0.0779453 -0.136308
f 447/90/336 448/91/337 446/89/335

v -0.169662 16.7607 0.500051
vt 0.147623 2.12868
vn -0.98764 0.0779489 0.135979
f 449/92/338 446/89/335 448/91/337

vn -0.974887 0.177579 -0.134389
v 3.14658 30.9375 -1.26772
vt 0.621372 4.02133
vn -0.787194 0.143223 -0.599844
f 446/89/334 449/92/339 450/93/340

v 2.41664 30.9375 0.500051
vt 0.517095 4.02133
vn -0.974652 0.177535 0.136144
f 451/94/341 450/93/340 449/92/339

v 0.555141 16.6671 2.26782
vn -0.698498 0.126848 0.70428
f 449/92/339 452/89/342 451/94/341

vn -0.705696 0.0557628 0.706317
v -0.707257 0.691051 2.26782
vn -0.706082 0.0557942 0.705929
f 452/89/343 449/92/338 453/90/344

f 448/91/337 453/90/344 449/92/338

v 2.30497 16.4411 3.00005
vn -0.137152 0.0108376 0.990491
f 452/89/343 453/90/344 454/87/345

v 1.05497 0.691051 3.00005
vn 0.136807 -0.0109066 0.990538
f 455/86/346 454/87/345 453/90/344

f 454/87/345 455/86/346 436/82/320

f 434/80/318 436/82/320 455/86/346

vn 0.136976 -0.0243445 0.990275
f 436/82/322 438/84/324 454/87/347

v 4.9088 30.9375 3.00005
vn -0.135238 0.0245622 0.990509
f 456/88/348 454/87/347 438/84/324

f 454/87/347 456/88/348 452/89/342

v 3.14658 30.9375 2.26782
vn -0.700475 0.127202 0.70225
f 457/93/349 452/89/342 456/88/348

f 457/93/349 451/94/341 452/89/342

f 450/93/340 445/88/333 446/89/334

f 444/84/332 439/85/325 440/82/326

g Mesh48 eurofan_half31 eurofan_hand1_16 eurofanPalm_hand16 eurofanPalm_hand_stem16 eurofanpalm_hands1 Model

usemtl euroFanPalm_smaller_clean2
v 15.7763 33.3696 23.7822
vn -0.0503069 0.810231 0.583948
v 16.8075 40.1953 14.4005
v 6.85081 41.3202 11.9818
f 458/1/350 459/2/350 460/3/350

v 10.4334 31.0491 27.5597
vn 0.0229235 0.837058 0.546633
f 461/4/351 458/1/351 460/3/351

v 4.06888 31.2622 28.5564
vn 0.111023 0.841245 0.529133
f 462/5/352 461/4/352 460/3/352

g Mesh49 eurofan_half32 eurofan_hand1_16 eurofanPalm_hand16 eurofanPalm_hand_stem16 eurofanpalm_hands1 Model

v 6.85081 41.3202 11.9818
vn 0.448683 0.676527 0.583948
v -2.33437 45.3243 14.4005
v -4.85415 38.8975 23.7822
f 463/3/353 464/2/353 465/1/353

vn 0.398677 0.736375 0.546633
v -1.38731 34.2165 27.5597
f 463/3/354 465/1/354 466/4/354

vn 0.324474 0.784051 0.529133
v 4.23101 31.2187 28.5564
f 463/3/355 466/4/355 467/5/355

g Mesh50 EurofanPalm_stem16 eurofanPalm_hand_stem16 eurofanpalm_hands1 Model

usemtl eurofanStem
v 6.85269 40.9664 1.83091
vn -0.619992 0.763165 -0.182177
v 6.96592 41.389 3.21585
v 7.20549 41.5837 3.21585
f 468/6/356 469/7/356 470/8/356

vn 0.918512 0.350924 -0.182177
v 6.85576 41.6774 3.21585
f 468/6/357 471/9/357 469/7/357

v 6.74252 41.2548 1.83091
f 468/6/357 472/10/357 471/9/357

vn 0.927634 0.35441 -0.117848
v 6.95282 42.0396 5.06916
f 469/7/358 471/9/358 473/11/358

v 7.06298 41.7513 5.06916
f 469/7/358 473/11/358 474/12/358

vn 0.933196 0.356534 -0.0450414
v 7.00134 42.2207 7.50823
f 474/12/359 473/11/359 475/13/359

vn 0.872454 0.483508 -0.0710149
v 7.12768 41.9927 7.50823
f 474/12/360 475/13/360 476/14/360

vn 0.872404 0.48348 0.0718273
v 6.93664 41.9792 9.91957
f 476/14/361 475/13/361 477/15/361

v 7.06298 41.7513 9.91957
f 476/14/361 477/15/361 478/16/361

vn 0.850312 0.471237 0.234319
v 6.74252 41.2548 12.0809
f 478/16/362 477/15/362 479/17/362

vn 0.504417 0.822221 0.263659
v 6.88504 41.0872 12.3309
f 478/16/363 479/17/363 480/18/363

vn -0.0257275 0.964273 0.263659
v 7.09226 41.1611 12.0809
f 478/16/364 480/18/364 481/19/364

vn -0.500773 0.833259 0.234319
v 7.28637 41.8855 9.91957
f 478/16/365 481/19/365 482/20/365

vn -0.513784 0.854908 0.0718273
f 476/14/366 478/16/366 482/20/366

v 7.35108 42.127 7.50823
f 476/14/366 482/20/366 483/21/366

vn -0.513814 0.854958 -0.0710149
f 474/12/367 476/14/367 483/21/367

vn -0.629904 0.775366 -0.0450414
v 7.30255 41.9459 5.06916
f 474/12/368 483/21/368 484/22/368

vn -0.62615 0.770745 -0.117848
f 469/7/369 474/12/369 484/22/369

f 469/7/369 484/22/369 470/8/369

v 7.09226 41.1611 1.83091
f 468/6/356 470/8/356 485/23/356

g Mesh51 eurofan_half33 eurofan_hand1_17 eurofanPalm_hand17 eurofanPalm_hand_stem17 eurofanpalm_hands1 Model

usemtl euroFanPalm_smaller_clean2
v 27.6625 26.8498 -4.19306
vn 0.760408 0.256008 0.596858
v 23.5082 37.7131 -3.5599
v 17.3771 36.7393 4.66884
f 486/1/370 487/2/370 488/3/370

v 27.1903 21.2075 -0.175298
vn 0.776253 0.321274 0.542415
f 489/4/371 486/1/371 488/3/371

v 25.0675 18.7404 5.38819
vn 0.805587 0.362917 0.468316
f 490/5/372 489/4/372 488/3/372

g Mesh52 eurofan_half34 eurofan_hand1_17 eurofanPalm_hand17 eurofanPalm_hand_stem17 eurofanpalm_hands1 Model

v 17.3771 36.7393 4.66884
vn 0.94136 0.316545 0.116796
v 16.5667 35.3908 14.8558
v 20.1812 24.3469 15.6548
f 491/3/373 492/2/373 493/1/373

vn 0.912515 0.36686 0.180915
v 22.9037 19.7735 11.197
f 491/3/374 493/1/374 494/4/374

vn 0.882992 0.388813 0.262962
v 25.1263 18.7601 5.2322
f 491/3/375 494/4/375 495/5/375

g Mesh53 EurofanPalm_stem17 eurofanPalm_hand_stem17 eurofanpalm_hands1 Model

usemtl eurofanStem
v 9.25501 42.321 2.21071
vn -0.128636 0.478162 0.8688
v 10.5666 41.8772 2.64914
v 10.7573 42.1007 2.55439
f 496/6/376 497/7/376 498/8/376

vn 0.429281 0.664812 -0.611344
v 10.6305 42.0583 2.89085
f 496/6/377 499/9/377 497/7/377

v 9.31885 42.502 2.45242
f 496/6/377 500/10/377 499/9/377

vn 0.485546 0.633321 -0.602619
v 12.2785 41.2942 3.4157
f 497/7/378 499/9/378 501/11/378

v 12.2147 41.1131 3.174
f 497/7/378 501/11/378 502/12/378

vn 0.546257 0.594775 -0.589785
v 14.2917 40.041 4.0165
f 502/12/379 501/11/379 503/13/379

vn 0.548202 0.685514 -0.479109
v 14.2596 39.9105 3.79316
f 502/12/380 503/13/380 504/14/380

vn 0.660476 0.603202 -0.447124
v 16.0603 38.4498 4.48252
f 504/14/381 503/13/381 505/15/381

v 16.0283 38.3194 4.25918
f 504/14/381 505/15/381 506/16/381

vn 0.772939 0.493287 -0.39904
v 17.3779 36.5982 4.74565
f 506/16/382 505/15/382 507/17/382

vn 0.774161 0.628439 0.0757502
v 17.5742 36.3743 4.59662
f 506/16/383 507/17/383 508/18/383

vn 0.581912 0.564123 0.585785
v 17.5047 36.6406 4.40919
f 506/16/384 508/18/384 509/19/384

vn 0.282987 0.329374 0.900795
v 16.1871 38.4923 4.14605
f 506/16/385 509/19/385 510/20/385

vn 0.157794 0.43503 0.886482
f 504/14/386 506/16/386 510/20/386

v 14.4185 40.0834 3.68003
f 504/14/386 510/20/386 511/21/386

vn 0.045491 0.517333 0.854574
f 502/12/387 504/14/387 511/21/387

vn -0.0205796 0.405141 0.914023
v 12.4053 41.3366 3.07924
f 502/12/388 511/21/388 512/22/388

vn -0.077912 0.444817 0.892226
f 497/7/389 502/12/389 512/22/389

f 497/7/389 512/22/389 498/8/389

v 9.44568 42.5444 2.11595
f 496/6/376 498/8/376 513/23/376

g Mesh54 eurofan_half35 eurofan_hand1_18 eurofanPalm_hand18 eurofanPalm_hand_stem18 eurofanpalm_hands1 Model

usemtl euroFanPalm_smaller_clean2
v 22.5011 36.0915 -20.7057
vn 0.634861 0.769603 -0.0682829
v 14.7615 42.9515 -15.3475
v 17.6212 41.4611 -5.55715
f 514/1/390 515/2/390 516/3/390

v 28.0526 32.4672 -18.6451
vn 0.57065 0.814469 -0.104871
f 517/4/391 514/1/391 516/3/391

v 32.0171 31.0258 -13.7717
vn 0.513488 0.841315 -0.168879
f 518/5/392 517/4/392 516/3/392

g Mesh55 eurofan_half36 eurofan_hand1_18 eurofanPalm_hand18 eurofanPalm_hand_stem18 eurofanpalm_hands1 Model

vn 0.376565 0.769603 -0.515665
v 24.67 42.9515 1.81458
v 33.1802 36.0915 -2.20899
f 516/3/393 519/2/393 520/1/393

vn 0.376146 0.814469 -0.441762
v 34.1714 32.4672 -8.04703
f 516/3/394 520/1/394 521/4/394

vn 0.402997 0.841315 -0.360254
v 31.9332 31.0258 -13.9171
f 516/3/395 521/4/395 522/5/395

g Mesh56 EurofanPalm_stem18 eurofanPalm_hand_stem18 eurofanpalm_hands1 Model

usemtl eurofanStem
v 8.78352 41.1199 -0.562555
vn 0.240424 0.576695 0.780781
v 9.98291 41.5574 -1.25503
v 9.89239 41.8074 -1.41181
f 523/6/396 524/7/396 525/8/396

vn -0.555964 0.576695 -0.598604
v 10.0734 41.8074 -1.09824
f 523/6/397 526/9/397 524/7/397

v 8.87403 41.3699 -0.405775
f 523/6/397 527/10/397 526/9/397

vn -0.504208 0.582423 -0.637619
v 11.6784 42.1824 -2.0249
f 524/7/398 526/9/398 528/11/398

v 11.5879 41.9324 -2.18168
f 524/7/398 528/11/398 529/12/398

vn -0.443567 0.585915 -0.678198
v 13.7907 42.3699 -3.24443
f 529/12/399 528/11/399 530/13/399

vn -0.420293 0.692841 -0.58594
v 13.7002 42.1824 -3.40121
f 529/12/400 530/13/400 531/14/400

vn -0.296567 0.6928 -0.657324
v 15.879 42.1199 -4.4501
f 531/14/401 530/13/401 532/15/401

v 15.7885 41.9324 -4.60688
f 531/14/401 532/15/401 533/16/401

vn -0.146761 0.675257 -0.722834
v 17.7508 41.3699 -5.53077
f 533/16/402 532/15/402 534/17/402

vn 0.0911234 0.924757 -0.369487
v 17.8768 41.2449 -5.81256
f 533/16/403 534/17/403 535/18/403

vn 0.365547 0.924757 0.105828
v 17.5698 41.3699 -5.84434
f 533/16/404 535/18/404 536/19/404

vn 0.552613 0.675257 0.488516
v 15.698 42.1199 -4.76366
f 533/16/405 536/19/405 537/20/405

vn 0.420976 0.6928 0.585497
f 531/14/406 533/16/406 537/20/406

v 13.6097 42.3699 -3.55799
f 531/14/406 537/20/406 538/21/406

vn 0.297292 0.692841 0.656954
f 529/12/407 531/14/407 538/21/407

vn 0.365553 0.585915 0.723239
v 11.4974 42.1824 -2.33846
f 529/12/408 538/21/408 539/22/408

vn 0.30009 0.582423 0.755467
f 524/7/409 529/12/409 539/22/409

f 524/7/409 539/22/409 525/8/409

v 8.693 41.3699 -0.719336
f 523/6/396 525/8/396 540/23/396

g Mesh57 eurofan_half37 eurofan_hand1_19 eurofanPalm_hand19 eurofanPalm_hand_stem19 eurofanpalm_hands1 Model

usemtl euroFanPalm_smaller_clean2
v -0.792805 28.7523 -23.2575
vn 0.694564 0.333067 -0.637689
v 1.06958 37.9861 -16.4062
v 8.47372 34.1663 -10.3367
f 541/1/410 542/2/410 543/3/410

v 2.28242 22.5803 -24.0638
vn 0.652084 0.40836 -0.638772
f 544/4/411 541/1/411 543/3/411

v 7.20245 18.7723 -22.3794
vn 0.587957 0.467725 -0.659955
f 545/5/412 544/4/412 543/3/412

g Mesh58 eurofan_half38 eurofan_hand1_19 eurofanPalm_hand19 eurofanPalm_hand_stem19 eurofanpalm_hands1 Model

v 8.47372 34.1663 -10.3367
vn 0.247182 0.51571 -0.820332
v 18.2317 30.9797 -9.39979
v 17.7039 21.2011 -15.7062
f 546/3/413 547/2/413 548/1/413

vn 0.315193 0.545895 -0.776307
v 12.8805 18.2537 -19.7372
f 546/3/414 548/1/414 549/4/414

vn 0.396582 0.545854 -0.738083
v 7.05708 18.8316 -22.4388
f 546/3/415 549/4/415 550/5/415

g Mesh59 EurofanPalm_stem19 eurofanPalm_hand_stem19 eurofanpalm_hands1 Model

usemtl eurofanStem
v 6.14821 37.8924 -1.17843
vn 0.914986 0.279613 0.290891
v 6.6326 37.7205 -2.53684
v 6.58974 37.9968 -2.66761
f 551/6/416 552/7/416 553/8/416

vn -0.464399 0.842744 -0.272241
v 6.9033 37.8688 -2.5396
f 551/6/417 554/9/417 552/7/417

v 6.41891 38.0407 -1.18118
f 551/6/417 555/10/417 554/9/417

vn -0.4554 0.825165 -0.334237
v 7.45561 37.46 -4.3012
f 552/7/418 554/9/418 556/11/418

v 7.18491 37.3118 -4.29845
f 552/7/418 556/11/418 557/12/418

vn -0.443 0.801268 -0.402145
v 8.04303 36.6623 -6.53787
f 557/12/419 556/11/419 558/13/419

vn -0.32035 0.869893 -0.37505
v 7.80081 36.5671 -6.55181
f 557/12/420 558/13/420 559/14/420

vn -0.290934 0.813798 -0.503081
v 8.42539 35.5039 -8.63286
f 559/14/421 558/13/421 560/15/421

v 8.18317 35.4086 -8.6468
f 559/14/421 560/15/421 561/16/421

vn -0.24975 0.728721 -0.637644
v 8.52846 34.019 -10.3702
f 561/16/422 560/15/422 562/17/422

vn 0.237998 0.77883 -0.580329
v 8.36617 33.8787 -10.625
f 561/16/423 562/17/423 563/18/423

vn 0.713312 0.584783 -0.386282
v 8.2149 34.147 -10.4982
f 561/16/424 563/18/424 564/19/424

vn 0.9616 0.23419 -0.143113
v 8.11183 35.6319 -8.76087
f 561/16/425 564/19/425 565/20/425

vn 0.951887 0.306418 0.00429869
f 559/14/426 561/16/426 565/20/426

v 7.72947 36.7903 -6.66589
f 559/14/426 565/20/426 566/21/426

vn 0.922544 0.362483 0.132359
f 557/12/427 559/14/427 566/21/427

vn 0.958437 0.229134 0.169989
v 7.14205 37.5881 -4.42922
f 557/12/428 566/21/428 567/22/428

vn 0.937686 0.25644 0.234487
f 552/7/429 557/12/429 567/22/429

f 552/7/429 567/22/429 553/8/429

v 6.10535 38.1687 -1.3092
f 551/6/416 553/8/416 568/23/416

g Mesh60 eurofan_half39 eurofan_hand1_20 eurofanPalm_hand20 eurofanPalm_hand_stem20 eurofanpalm_hands1 Model

usemtl euroFanPalm_smaller_clean2
v -16.9977 32.017 -3.48065
vn -0.537186 0.809347 -0.237462
v -9.85842 38.6327 2.91725
v -2.91223 41.1324 -4.27663
f 569/1/430 570/2/430 571/3/430

v -17.4622 30.4627 -10.2311
vn -0.542997 0.825722 -0.152769
f 572/4/431 569/1/431 571/3/431

v -15.1889 31.5594 -16.162
vn -0.571753 0.817606 -0.0679604
f 573/5/432 572/4/432 571/3/432

g Mesh61 eurofan_half40 eurofan_hand1_20 eurofanPalm_hand20 eurofanPalm_hand_stem20 eurofanpalm_hands1 Model

v -2.91223 41.1324 -4.27663
vn -0.774949 0.607499 0.174355
v -0.737567 46.3758 -12.8805
v -7.16758 40.3623 -20.507
f 574/3/433 575/2/433 576/1/433

vn -0.722039 0.673724 0.157341
v -11.8298 35.2443 -19.9868
f 574/3/434 576/1/434 577/4/434

vn -0.67346 0.731262 0.108201
v -15.2661 31.4938 -16.0282
f 574/3/435 577/4/435 578/5/435

g Mesh62 EurofanPalm_stem20 eurofanPalm_hand_stem20 eurofanpalm_hands1 Model

usemtl eurofanStem
v 5.90241 40.7818 0.757795
vn 0.411643 0.842024 -0.348633
v 4.61754 41.1845 0.213367
v 4.48538 41.3439 0.44228
f 579/6/436 580/7/436 581/8/436

vn -0.321436 0.219677 0.921098
v 4.65202 41.4854 0.153646
f 579/6/437 582/9/437 580/7/437

v 5.93689 41.0827 0.698073
f 579/6/437 583/10/437 582/9/437

vn -0.381906 0.221859 0.897177
v 2.97375 41.8306 -0.646115
f 580/7/438 582/9/438 584/11/438

v 2.93927 41.5297 -0.586393
f 580/7/438 584/11/438 585/12/438

vn -0.44786 0.223189 0.865799
v 0.824822 42.0032 -1.8022
f 585/12/439 584/11/439 586/13/439

vn -0.404127 0.35738 0.841998
v 0.778131 41.7598 -1.72133
f 585/12/440 586/13/440 587/14/440

vn -0.527805 0.35736 0.77053
v -1.21462 41.773 -3.09247
f 587/14/441 586/13/441 588/15/441

v -1.26131 41.5297 -3.0116
f 587/14/441 588/15/441 589/16/441

vn -0.656736 0.34831 0.668863
v -2.93987 41.0827 -4.42693
f 589/16/442 588/15/442 590/17/442

vn -0.535305 0.744018 0.399858
v -3.21528 40.8969 -4.44991
f 589/16/443 590/17/443 591/18/443

vn -0.282697 0.958469 -0.0376718
v -3.10652 40.9412 -4.13829
f 589/16/444 591/18/444 592/19/444

vn -0.0129597 0.894844 -0.446191
v -1.38126 41.6316 -2.80383
f 589/16/445 592/19/445 593/20/445

vn 0.132697 0.918093 -0.373493
f 587/14/446 589/16/446 593/20/446

v 0.658178 41.8617 -1.51357
f 587/14/446 593/20/446 594/21/446

vn 0.256414 0.918146 -0.302092
f 585/12/447 587/14/447 594/21/447

vn 0.296939 0.855486 -0.424231
v 2.80711 41.6891 -0.35748
f 585/12/448 594/21/448 595/22/448

vn 0.358454 0.850387 -0.385165
f 580/7/449 585/12/449 595/22/449

f 580/7/449 595/22/449 581/8/449

v 5.77024 40.9412 0.986708
f 579/6/436 581/8/436 596/23/436

g Mesh63 eurofan_half41 eurofan_hand1_21 eurofanPalm_hand21 eurofanPalm_hand_stem21 eurofanpalm_hands1 Model

usemtl euroFanPalm_smaller_clean2
v -6.68732 36.6883 23.0872
vn -0.913171 0.367901 -0.175407
v -2.13322 44.4828 15.7268
v -2.62816 39.0767 6.96443
f 597/1/450 598/2/450 599/3/450

v -9.7012 30.4764 22.3595
vn -0.881409 0.445899 -0.155856
f 600/4/451 597/1/451 599/3/451

v -11.8855 26.017 18.2501
vn -0.851729 0.513461 -0.104478
f 601/5/452 600/4/452 599/3/452

g Mesh64 eurofan_half42 eurofan_hand1_21 eurofanPalm_hand21 eurofanPalm_hand_stem21 eurofanpalm_hands1 Model

v -2.62816 39.0767 6.96443
vn -0.747376 0.617396 0.245463
v -8.49332 34.9119 -0.418304
v -13.542 26.3731 5.68661
f 602/3/453 603/2/453 604/1/453

vn -0.756561 0.633776 0.161071
v -13.6288 24.5661 12.3894
f 602/3/454 604/1/454 605/4/454

vn -0.780807 0.620187 0.0755563
v -11.8316 26.098 18.3868
f 602/3/455 605/4/455 606/5/455

g Mesh65 EurofanPalm_stem21 eurofanPalm_hand_stem21 eurofanpalm_hands1 Model

usemtl eurofanStem
v 6.04476 41.4636 2.2475
vn -0.359318 0.14494 -0.921891
v 4.69194 41.4711 2.77597
v 4.63901 41.7676 2.84322
f 607/6/456 608/7/456 609/8/456

vn 0.151869 0.914192 0.375752
v 4.52281 41.5928 2.54824
f 607/6/457 610/9/457 608/7/457

v 5.87563 41.5853 2.01978
f 607/6/457 611/10/457 610/9/457

vn 0.0980515 0.906154 0.411426
v 2.80594 41.4268 3.32297
f 608/7/458 610/9/458 612/11/458

v 2.97507 41.3051 3.55069
f 608/7/458 612/11/458 613/12/458

vn 0.0371444 0.89256 0.449397
v 0.682351 40.9524 4.44077
f 613/12/459 612/11/459 614/13/459

vn -0.0179931 0.94452 0.327962
v 0.823724 40.883 4.64844
f 613/12/460 614/13/460 615/14/460

vn -0.137478 0.907495 0.396928
v -1.22375 40.1191 5.68559
f 615/14/461 614/13/461 616/15/461

v -1.08237 40.0497 5.89326
f 615/14/461 616/15/461 617/16/461

vn -0.271445 0.841989 0.466232
v -2.69866 38.9324 6.97015
f 617/16/462 616/15/462 618/17/462

vn -0.543179 0.837871 0.0541187
v -2.79417 38.8505 7.2785
f 617/16/463 618/17/463 619/18/463

vn -0.719326 0.572799 -0.393029
v -2.58246 39.1072 7.26513
f 617/16/464 619/18/464 620/19/464

vn -0.72036 0.166446 -0.673333
v -1.10754 40.294 5.98057
f 617/16/465 620/19/465 621/20/465

vn -0.598056 0.214402 -0.772244
f 615/14/466 617/16/466 621/20/466

v 0.798554 41.1272 4.73575
f 615/14/466 621/20/466 622/21/466

vn -0.478598 0.251386 -0.841278
f 613/12/467 615/14/467 622/21/467

vn -0.482215 0.11101 -0.868991
v 2.92215 41.6017 3.61795
f 613/12/468 622/21/468 623/22/468

vn -0.418213 0.129261 -0.899105
f 608/7/469 613/12/469 623/22/469

f 608/7/469 623/22/469 609/8/469

v 5.99184 41.7601 2.31476
f 607/6/456 609/8/456 624/23/456

g Mesh66 eurofan_half43 eurofan_hand1_22 eurofanPalm_hand22 eurofanPalm_hand_stem22 eurofanpalm_hands1 Model

usemtl euroFanPalm_smaller_clean2
v 19.1517 22.8689 15.7523
vn -0.0269265 0.374522 0.926827
v 17.2294 33.5006 11.4003
v 6.92536 33.4193 11.1338
f 625/1/470 626/2/470 627/3/470

v 15.1025 17.8414 18.3076
vn 0.0323543 0.432034 0.901277
f 628/4/471 625/1/471 627/3/471

v 9.13333 16.0947 19.9997
vn 0.113254 0.464034 0.878548
f 629/5/472 628/4/472 627/3/472

g Mesh67 eurofan_half44 eurofan_hand1_22 eurofanPalm_hand22 eurofanPalm_hand_stem22 eurofanpalm_hands1 Model

vn 0.473186 0.374522 0.797388
v -1.95555 33.5006 16.3657
v -1.52516 22.8689 21.1039
f 627/3/473 630/2/473 631/1/473

vn 0.408953 0.432034 0.803806
v 3.25526 17.8414 21.3739
f 627/3/474 631/1/474 632/4/474

vn 0.327185 0.464034 0.823178
v 9.29583 16.0947 19.9576
f 627/3/475 632/4/475 633/5/475

g Mesh68 EurofanPalm_stem22 eurofanPalm_hand_stem22 eurofanpalm_hands1 Model

usemtl eurofanStem
v 4.77032 38.1992 2.43468
vn -0.738266 0.590521 0.325958
v 5.12565 37.8856 3.80759
v 5.33223 38.1021 3.88324
f 634/6/476 635/7/476 636/8/476

vn 0.803702 0.590521 -0.073133
v 4.98172 38.1021 3.97396
f 634/6/477 637/9/477 635/7/477

v 4.62638 38.4157 2.60106
f 634/6/477 638/10/477 637/9/477

vn 0.826036 0.563317 -0.018409
v 5.43085 37.5002 5.70929
f 635/7/478 637/9/478 639/11/478

v 5.57479 37.2837 5.54292
f 635/7/478 639/11/478 640/12/478

vn 0.84694 0.529938 0.043114
v 5.98361 36.4431 7.84497
f 640/12/479 639/11/479 641/13/479

vn 0.766085 0.635525 0.0960307
v 6.13537 36.2807 7.70885
f 640/12/480 641/13/480 642/14/480

vn 0.797035 0.564069 0.21578
v 6.47553 35.0209 9.74562
f 642/14/481 641/13/481 643/15/481

v 6.6273 34.8585 9.6095
f 642/14/481 643/15/481 644/16/481

vn 0.812506 0.46763 0.348074
v 6.85057 33.2907 11.1947
f 644/16/482 643/15/482 645/17/482

vn 0.438736 0.669034 0.59992
v 7.06442 33.0575 11.2984
f 644/16/483 645/17/483 646/18/483

vn -0.0926019 0.669034 0.73744
v 7.20109 33.2907 11.1039
f 644/16/484 646/18/484 647/19/484

vn -0.541621 0.46763 0.698548
v 6.82605 35.0209 9.6549
f 644/16/485 647/19/485 648/20/485

vn -0.592273 0.564069 0.57536
f 642/14/486 644/16/486 648/20/486

v 6.33412 36.4431 7.75425
f 642/14/486 648/20/486 649/21/486

vn -0.623304 0.635525 0.455631
f 640/12/487 642/14/487 649/21/487

vn -0.719679 0.529938 0.448585
v 5.78137 37.5002 5.61857
f 640/12/488 649/21/488 650/22/488

vn -0.731247 0.563317 0.384645
f 635/7/489 640/12/489 650/22/489

f 635/7/489 650/22/489 636/8/489

v 4.9769 38.4157 2.51034
f 634/6/476 636/8/476 651/23/476

g Mesh69 eurofan_half45 eurofan_hand1_23 eurofanPalm_hand23 eurofanPalm_hand_stem23 eurofanpalm_hands1 Model

usemtl euroFanPalm_smaller_clean2
v -13.798 19.7033 1.59837
vn -0.792979 0.526333 -0.306852
v -8.33194 29.5908 4.43222
v -3.57366 31.553 -4.49854
f 652/1/490 653/2/490 654/3/490

v -14.6509 16.1177 -4.28521
vn -0.792212 0.565362 -0.22971
f 655/4/491 652/1/491 654/3/491

v -13.6641 15.9346 -10.6522
vn -0.805202 0.575905 -0.141362
f 656/5/492 655/4/492 654/3/492

g Mesh70 eurofan_half46 eurofan_hand1_23 eurofanPalm_hand23 eurofanPalm_hand_stem23 eurofanpalm_hands1 Model

vn -0.896653 0.402732 0.183904
v -4.35488 34.3322 -14.3938
v -9.51171 24.8135 -18.6916
f 654/3/493 657/2/493 658/1/493

vn -0.870281 0.472287 0.139843
v -12.195 19.0457 -15.9108
f 654/3/494 658/1/494 659/4/494

vn -0.84955 0.523033 0.0685668
v -13.6978 15.8944 -10.4927
f 654/3/495 659/4/495 660/5/495

g Mesh71 EurofanPalm_stem23 eurofanPalm_hand_stem23 eurofanpalm_hands1 Model

usemtl eurofanStem
v 5.4908 35.0968 -1.59281
vn 0.0723822 0.774969 -0.627841
v 4.08353 34.9593 -1.92472
v 3.93976 35.1393 -1.71921
f 661/6/496 662/7/496 663/8/496

vn -0.24727 0.393877 0.885279
v 4.01243 35.2259 -2.06318
f 661/6/497 664/9/497 662/7/497

v 5.4197 35.3634 -1.73127
f 661/6/497 665/10/497 664/9/497

vn -0.307952 0.372569 0.875419
v 2.21968 34.854 -2.53556
f 662/7/498 664/9/498 666/11/498

v 2.29078 34.5875 -2.39711
f 662/7/498 666/11/498 667/12/498

vn -0.374517 0.34677 0.859935
v -0.0081792 34.0914 -3.19828
f 667/12/499 666/11/499 668/13/499

vn -0.37923 0.474054 0.794643
v 0.0360648 33.8806 -3.05145
f 667/12/500 668/13/500 669/14/500

vn -0.504959 0.419558 0.754313
v -2.02362 32.9486 -3.91186
f 669/14/501 668/13/501 670/15/501

v -1.97937 32.7379 -3.76503
f 669/14/501 670/15/501 671/16/501

vn -0.636825 0.346277 0.688873
v -3.60409 31.4547 -4.62199
f 671/16/502 670/15/502 672/17/502

vn -0.684592 0.659552 0.310361
v -3.8068 31.2045 -4.53728
f 671/16/503 672/17/503 673/18/503

vn -0.574445 0.790871 -0.211036
v -3.67676 31.3681 -4.27803
f 671/16/504 673/18/504 674/19/504

vn -0.356113 0.680945 -0.63992
v -2.09628 32.862 -3.5679
f 671/16/505 674/19/505 675/20/505

vn -0.216953 0.76292 -0.609002
f 669/14/506 671/16/506 675/20/506

v -0.0808422 34.0047 -2.85432
f 669/14/506 675/20/506 676/21/506

vn -0.0912084 0.817436 -0.568752
f 667/12/507 669/14/507 676/21/507

vn -0.0497546 0.733954 -0.677374
v 2.14702 34.7674 -2.1916
f 667/12/508 676/21/508 677/22/508

vn 0.0148749 0.757446 -0.652729
f 662/7/509 667/12/509 677/22/509

f 662/7/509 677/22/509 663/8/509

v 5.34703 35.2767 -1.3873
f 661/6/496 663/8/496 678/23/496

