#
## Alias OBJ Material File
# Exported from SketchUp, (c) 2000-2012 Trimble Navigation Limited

newmtl euroFanPalm_smaller_clean2
Ka 0.000000 0.000000 0.000000
Kd 0.125490 0.141176 0.086275
Ks 0.330000 0.330000 0.330000
map_Kd palmera/euroFanPalm_smaller_clean2.png

newmtl eurofanStem
Ka 0.000000 0.000000 0.000000
Kd 0.462745 0.549020 0.372549
Ks 0.330000 0.330000 0.330000
map_Kd palmera/eurofanStem.jpg

newmtl _Brown_
Ka 0.000000 0.000000 0.000000
Kd 0.239216 0.094118 0.047059
Ks 0.330000 0.330000 0.330000

newmtl eurofanpalm_trunck
Ka 0.000000 0.000000 0.000000
Kd 0.368627 0.270588 0.219608
Ks 0.330000 0.330000 0.330000
map_Kd palmera/eurofanpalm_trunck.jpg

