#
## Alias OBJ Material File
# Exported from SketchUp, (c) 2000-2012 Trimble Navigation Limited

newmtl Vegetation_Grass1
Ka 0.000000 0.000000 0.000000
Kd 0.564706 0.627451 0.356863
Ks 0.330000 0.330000 0.330000

newmtl Material3
Ka 0.000000 0.000000 0.000000
Kd 0.266667 0.431373 0.227451
Ks 0.330000 0.330000 0.330000

newmtl Material8
Ka 0.000000 0.000000 0.000000
Kd 0.227451 0.352941 0.149020
Ks 0.330000 0.330000 0.330000

newmtl Material6
Ka 0.000000 0.000000 0.000000
Kd 0.188235 0.352941 0.188235
Ks 0.330000 0.330000 0.330000

newmtl Material10
Ka 0.000000 0.000000 0.000000
Kd 0.188235 0.392157 0.149020
Ks 0.330000 0.330000 0.330000

newmtl Material4
Ka 0.000000 0.000000 0.000000
Kd 0.188235 0.352941 0.149020
Ks 0.330000 0.330000 0.330000

newmtl _2
Ka 0.000000 0.000000 0.000000
Kd 0.227451 0.392157 0.188235
Ks 0.330000 0.330000 0.330000

newmtl Material9
Ka 0.000000 0.000000 0.000000
Kd 0.266667 0.392157 0.227451
Ks 0.330000 0.330000 0.330000

newmtl Material5
Ka 0.000000 0.000000 0.000000
Kd 0.266667 0.431373 0.188235
Ks 0.330000 0.330000 0.330000

newmtl Material7
Ka 0.000000 0.000000 0.000000
Kd 0.227451 0.431373 0.227451
Ks 0.330000 0.330000 0.330000

