#
## Alias OBJ Material File
# Exported from SketchUp, (c) 2000-2012 Trimble Navigation Limited

newmtl FrontColor
Ka 0.000000 0.000000 0.000000
Kd 1.000000 1.000000 1.000000
Ks 0.330000 0.330000 0.330000

newmtl Stone_Masonry_Multi
Ka 0.000000 0.000000 0.000000
Kd 0.984314 0.980392 0.972549
Ks 0.330000 0.330000 0.330000
map_Kd iglesiacompañia/Stone_Masonry_Multi.jpg

newmtl Color_G16
Ka 0.000000 0.000000 0.000000
Kd 0.000000 0.400000 0.000000
Ks 0.330000 0.330000 0.330000

newmtl Google_Earth_Snapshot1
Ka 0.000000 0.000000 0.000000
Kd 0.498039 0.498039 0.498039
Ks 0.330000 0.330000 0.330000
map_Kd iglesiacompañia/Google_Earth_Snapshot1.jpg

newmtl Wood_Cherry_Original
Ka 0.000000 0.000000 0.000000
Kd 0.435294 0.247059 0.117647
Ks 0.330000 0.330000 0.330000
map_Kd iglesiacompañia/Wood_Cherry_Original.jpg

newmtl Brick_Pavers_Modular
Ka 0.000000 0.000000 0.000000
Kd 0.901961 0.901961 0.913725
Ks 0.330000 0.330000 0.330000
map_Kd iglesiacompañia/Brick_Pavers_Modular.jpg

newmtl Translucent_Glass_Gray
Ka 0.000000 0.000000 0.000000
Kd 0.298039 0.298039 0.298039
Ks 0.330000 0.330000 0.330000
d 0.630000

newmtl Tile_Travertine_2inch
Ka 0.000000 0.000000 0.000000
Kd 0.709804 0.698039 0.674510
Ks 0.330000 0.330000 0.330000
map_Kd iglesiacompañia/Tile_Travertine_2inch.jpg

newmtl Metal_Aluminum_Anodized
Ka 0.000000 0.000000 0.000000
Kd 0.792157 0.819608 0.858824
Ks 0.330000 0.330000 0.330000
map_Kd iglesiacompañia/Metal_Aluminum_Anodized.jpg

newmtl fachada2
Ka 0.000000 0.000000 0.000000
Kd 0.443137 0.419608 0.403922
Ks 0.330000 0.330000 0.330000
map_Kd iglesiacompañia/fachada2.jpg

newmtl Water_Sparkling
Ka 0.000000 0.000000 0.000000
Kd 0.176471 0.713725 0.847059
Ks 0.330000 0.330000 0.330000
map_Kd iglesiacompañia/Water_Sparkling.jpg

