%YAML 1.1
%TAG !u! tag:unity3d.com,2011:
--- !u!74 &7400000
AnimationClip:
  m_ObjectHideFlags: 0
  m_CorrespondingSourceObject: {fileID: 0}
  m_PrefabInstance: {fileID: 0}
  m_PrefabAsset: {fileID: 0}
  m_Name: paso_derecho
  serializedVersion: 6
  m_Legacy: 1
  m_Compressed: 0
  m_UseHighQualityCurve: 1
  m_RotationCurves:
  - curve:
      serializedVersion: 2
      m_Curve:
      - serializedVersion: 3
        time: 0
        value: {x: 0, y: 0, z: 0, w: 1}
        inSlope: {x: 0.0017065443, y: -0.000000048538226, z: 0.0017065443, w: 0}
        outSlope: {x: 0.0017065443, y: -0.000000048538226, z: 0.0017065443, w: 0}
        tangentMode: 0
        weightedMode: 0
        inWeight: {x: 0.33333334, y: 0.33333334, z: 0.33333334, w: 0.33333334}
        outWeight: {x: 0.33333334, y: 0.33333334, z: 0.33333334, w: 0.33333334}
      - serializedVersion: 3
        time: 0.016666668
        value: {x: 0.000028442406, y: -8.0897045e-10, z: 0.000028442406, w: 1}
        inSlope: {x: 0.003335518, y: -0.00000037085607, z: 0.003335518, w: 0}
        outSlope: {x: 0.003335518, y: -0.00000037085607, z: 0.003335518, w: 0}
        tangentMode: 0
        weightedMode: 0
        inWeight: {x: 0.33333334, y: 0.33333334, z: 0.33333334, w: 0.33333334}
        outWeight: {x: 0.33333334, y: 0.33333334, z: 0.33333334, w: 0.33333334}
      - serializedVersion: 3
        time: 0.033333335
        value: {x: 0.000111183945, y: -0.00000001236187, z: 0.000111183945, w: 1}
        inSlope: {x: 0.006477111, y: -0.000001766882, z: 0.006477111, w: -0.000003576278}
        outSlope: {x: 0.006477111, y: -0.000001766882, z: 0.006477111, w: -0.000003576278}
        tangentMode: 0
        weightedMode: 0
        inWeight: {x: 0.33333334, y: 0.33333334, z: 0.33333334, w: 0.33333334}
        outWeight: {x: 0.33333334, y: 0.33333334, z: 0.33333334, w: 0.33333334}
      - serializedVersion: 3
        time: 0.050000004
        value: {x: 0.00024434613, y: -0.000000059705044, z: 0.00024434613, w: 0.9999999}
        inSlope: {x: 0.009385992, y: -0.0000050237063, z: 0.009385992, w: -0.000007152557}
        outSlope: {x: 0.009385992, y: -0.0000050237063, z: 0.009385992, w: -0.000007152557}
        tangentMode: 0
        weightedMode: 0
        inWeight: {x: 0.33333334, y: 0.33333334, z: 0.33333334, w: 0.33333334}
        outWeight: {x: 0.33333334, y: 0.33333334, z: 0.33333334, w: 0.33333334}
      - serializedVersion: 3
        time: 0.06666667
        value: {x: 0.00042405035, y: -0.00000017981874, z: 0.00042405035, w: 0.99999976}
        inSlope: {x: 0.012062159, y: -0.000010744547, z: 0.012062159, w: -0.000010728837}
        outSlope: {x: 0.012062159, y: -0.000010744547, z: 0.012062159, w: -0.000010728837}
        tangentMode: 0
        weightedMode: 0
        inWeight: {x: 0.33333334, y: 0.33333334, z: 0.33333334, w: 0.33333334}
        outWeight: {x: 0.33333334, y: 0.33333334, z: 0.33333334, w: 0.33333334}
      - serializedVersion: 3
        time: 0.083333336
        value: {x: 0.0006464181, y: -0.00000041785657, z: 0.0006464181, w: 0.9999995}
        inSlope: {x: 0.01450561, y: -0.000019315996, z: 0.01450561, w: -0.000017881395}
        outSlope: {x: 0.01450561, y: -0.000019315996, z: 0.01450561, w: -0.000017881395}
        tangentMode: 0
        weightedMode: 0
        inWeight: {x: 0.33333334, y: 0.33333334, z: 0.33333334, w: 0.33333334}
        outWeight: {x: 0.33333334, y: 0.33333334, z: 0.33333334, w: 0.33333334}
      - serializedVersion: 3
        time: 0.1
        value: {x: 0.00090757065, y: -0.00000082368524, z: 0.00090757065, w: 0.99999917}
        inSlope: {x: 0.01671635, y: -0.000030926094, z: 0.01671635, w: -0.000028610233}
        outSlope: {x: 0.01671635, y: -0.000030926094, z: 0.01671635, w: -0.000028610233}
        tangentMode: 0
        weightedMode: 0
        inWeight: {x: 0.33333334, y: 0.33333334, z: 0.33333334, w: 0.33333334}
        outWeight: {x: 0.33333334, y: 0.33333334, z: 0.33333334, w: 0.33333334}
      - serializedVersion: 3
        time: 0.11666667
        value: {x: 0.0012036297, y: -0.0000014487263, z: 0.0012036297, w: 0.99999857}
        inSlope: {x: 0.018694364, y: -0.00004558237, z: 0.018694364, w: -0.000046491616}
        outSlope: {x: 0.018694364, y: -0.00004558237, z: 0.018694364, w: -0.000046491616}
        tangentMode: 0
        weightedMode: 0
        inWeight: {x: 0.33333334, y: 0.33333334, z: 0.33333334, w: 0.33333334}
        outWeight: {x: 0.33333334, y: 0.33333334, z: 0.33333334, w: 0.33333334}
      - serializedVersion: 3
        time: 0.13333334
        value: {x: 0.0015307162, y: -0.0000023430978, z: 0.0015307162, w: 0.9999976}
        inSlope: {x: 0.020439645, y: -0.000063129824, z: 0.020439645, w: -0.00006437301}
        outSlope: {x: 0.020439645, y: -0.000063129824, z: 0.020439645, w: -0.00006437301}
        tangentMode: 0
        weightedMode: 0
        inWeight: {x: 0.33333334, y: 0.33333334, z: 0.33333334, w: 0.33333334}
        outWeight: {x: 0.33333334, y: 0.33333334, z: 0.33333334, w: 0.33333334}
      - serializedVersion: 3
        time: 0.15
        value: {x: 0.0018849513, y: -0.000003553054, z: 0.0018849513, w: 0.9999964}
        inSlope: {x: 0.021952206, y: -0.000083269115, z: 0.021952206, w: -0.00008225442}
        outSlope: {x: 0.021952206, y: -0.000083269115, z: 0.021952206, w: -0.00008225442}
        tangentMode: 0
        weightedMode: 0
        inWeight: {x: 0.33333334, y: 0.33333334, z: 0.33333334, w: 0.33333334}
        outWeight: {x: 0.33333334, y: 0.33333334, z: 0.33333334, w: 0.33333334}
      - serializedVersion: 3
        time: 0.16666667
        value: {x: 0.0022624563, y: -0.000005118735, z: 0.0022624563, w: 0.9999949}
        inSlope: {x: 0.023232039, y: -0.000105574545, z: 0.023232039, w: -0.00010371209}
        outSlope: {x: 0.023232039, y: -0.000105574545, z: 0.023232039, w: -0.00010371209}
        tangentMode: 0
        weightedMode: 0
        inWeight: {x: 0.33333334, y: 0.33333334, z: 0.33333334, w: 0.33333334}
        outWeight: {x: 0.33333334, y: 0.33333334, z: 0.33333334, w: 0.33333334}
      - serializedVersion: 3
        time: 0.18333334
        value: {x: 0.0026593525, y: -0.0000070722053, z: 0.0026593525, w: 0.99999297}
        inSlope: {x: 0.024279121, y: -0.00012951197, z: 0.024279121, w: -0.00012874605}
        outSlope: {x: 0.024279121, y: -0.00012951197, z: 0.024279121, w: -0.00012874605}
        tangentMode: 0
        weightedMode: 0
        inWeight: {x: 0.33333334, y: 0.33333334, z: 0.33333334, w: 0.33333334}
        outWeight: {x: 0.33333334, y: 0.33333334, z: 0.33333334, w: 0.33333334}
      - serializedVersion: 3
        time: 0.2
        value: {x: 0.0030717603, y: -0.0000094358, z: 0.0030717603, w: 0.9999906}
        inSlope: {x: 0.025093457, y: -0.0001544571, z: 0.025093457, w: -0.00015735628}
        outSlope: {x: 0.025093457, y: -0.0001544571, z: 0.025093457, w: -0.00015735628}
        tangentMode: 0
        weightedMode: 0
        inWeight: {x: 0.33333334, y: 0.33333334, z: 0.33333334, w: 0.33333334}
        outWeight: {x: 0.33333334, y: 0.33333334, z: 0.33333334, w: 0.33333334}
      - serializedVersion: 3
        time: 0.21666667
        value: {x: 0.003495801, y: -0.000012220775, z: 0.003495801, w: 0.9999877}
        inSlope: {x: 0.025675084, y: -0.00017971353, z: 0.025675084, w: -0.00017881395}
        outSlope: {x: 0.025675084, y: -0.00017971353, z: 0.025675084, w: -0.00017881395}
        tangentMode: 0
        weightedMode: 0
        inWeight: {x: 0.33333334, y: 0.33333334, z: 0.33333334, w: 0.33333334}
        outWeight: {x: 0.33333334, y: 0.33333334, z: 0.33333334, w: 0.33333334}
      - serializedVersion: 3
        time: 0.23333333
        value: {x: 0.0039275964, y: -0.00001542625, z: 0.0039275964, w: 0.9999846}
        inSlope: {x: 0.026024003, y: -0.00020453078, z: 0.026024003, w: -0.0002038479}
        outSlope: {x: 0.026024003, y: -0.00020453078, z: 0.026024003, w: -0.0002038479}
        tangentMode: 0
        weightedMode: 0
        inWeight: {x: 0.33333334, y: 0.33333334, z: 0.33333334, w: 0.33333334}
        outWeight: {x: 0.33333334, y: 0.33333334, z: 0.33333334, w: 0.33333334}
      - serializedVersion: 3
        time: 0.25
        value: {x: 0.0043632677, y: -0.000019038467, z: 0.0043632677, w: 0.9999809}
        inSlope: {x: 0.026140157, y: -0.00022812175, z: 0.026140157, w: -0.00022888175}
        outSlope: {x: 0.026140157, y: -0.00022812175, z: 0.026140157, w: -0.00022888175}
        tangentMode: 0
        weightedMode: 0
        inWeight: {x: 0.33333334, y: 0.33333334, z: 0.33333334, w: 0.33333334}
        outWeight: {x: 0.33333334, y: 0.33333334, z: 0.33333334, w: 0.33333334}
      - serializedVersion: 3
        time: 0.26666668
        value: {x: 0.0047989353, y: -0.000023030312, z: 0.0047989353, w: 0.999977}
        inSlope: {x: 0.02602358, y: -0.0002496816, z: 0.02602358, w: -0.00025033928}
        outSlope: {x: 0.02602358, y: -0.0002496816, z: 0.02602358, w: -0.00025033928}
        tangentMode: 0
        weightedMode: 0
        inWeight: {x: 0.33333334, y: 0.33333334, z: 0.33333334, w: 0.33333334}
        outWeight: {x: 0.33333334, y: 0.33333334, z: 0.33333334, w: 0.33333334}
      - serializedVersion: 3
        time: 0.28333336
        value: {x: 0.005230721, y: -0.000027361193, z: 0.005230721, w: 0.9999726}
        inSlope: {x: 0.025674336, y: -0.000268406, z: 0.025674336, w: -0.00026822067}
        outSlope: {x: 0.025674336, y: -0.000268406, z: 0.025674336, w: -0.00026822067}
        tangentMode: 0
        weightedMode: 0
        inWeight: {x: 0.33333334, y: 0.33333334, z: 0.33333334, w: 0.33333334}
        outWeight: {x: 0.33333334, y: 0.33333334, z: 0.33333334, w: 0.33333334}
      - serializedVersion: 3
        time: 0.30000004
        value: {x: 0.005654747, y: -0.000031977186, z: 0.005654747, w: 0.99996805}
        inSlope: {x: 0.02509238, y: -0.00028350833, z: 0.02509238, w: -0.00028252578}
        outSlope: {x: 0.02509238, y: -0.00028350833, z: 0.02509238, w: -0.00028252578}
        tangentMode: 0
        weightedMode: 0
        inWeight: {x: 0.33333334, y: 0.33333334, z: 0.33333334, w: 0.33333334}
        outWeight: {x: 0.33333334, y: 0.33333334, z: 0.33333334, w: 0.33333334}
      - serializedVersion: 3
        time: 0.31666672
        value: {x: 0.0060671344, y: -0.000036811478, z: 0.0060671344, w: 0.99996316}
        inSlope: {x: 0.024277687, y: -0.000294237, z: 0.024277687, w: -0.0002968309}
        outSlope: {x: 0.024277687, y: -0.000294237, z: 0.024277687, w: -0.0002968309}
        tangentMode: 0
        weightedMode: 0
        inWeight: {x: 0.33333334, y: 0.33333334, z: 0.33333334, w: 0.33333334}
        outWeight: {x: 0.33333334, y: 0.33333334, z: 0.33333334, w: 0.33333334}
      - serializedVersion: 3
        time: 0.3333334
        value: {x: 0.006464004, y: -0.000041785093, z: 0.006464004, w: 0.99995816}
        inSlope: {x: 0.023230314, y: -0.00029989617, z: 0.023230314, w: -0.00030040715}
        outSlope: {x: 0.023230314, y: -0.00029989617, z: 0.023230314, w: -0.00030040715}
        tangentMode: 0
        weightedMode: 0
        inWeight: {x: 0.33333334, y: 0.33333334, z: 0.33333334, w: 0.33333334}
        outWeight: {x: 0.33333334, y: 0.33333334, z: 0.33333334, w: 0.33333334}
      - serializedVersion: 3
        time: 0.35000008
        value: {x: 0.006841479, y: -0.000046808025, z: 0.006841479, w: 0.99995315}
        inSlope: {x: 0.021950314, y: -0.00029986244, z: 0.021950314, w: -0.0002968309}
        outSlope: {x: 0.021950314, y: -0.00029986244, z: 0.021950314, w: -0.0002968309}
        tangentMode: 0
        weightedMode: 0
        inWeight: {x: 0.33333334, y: 0.33333334, z: 0.33333334, w: 0.33333334}
        outWeight: {x: 0.33333334, y: 0.33333334, z: 0.33333334, w: 0.33333334}
      - serializedVersion: 3
        time: 0.36666676
        value: {x: 0.007195682, y: -0.000051780517, z: 0.007195682, w: 0.99994826}
        inSlope: {x: 0.020437647, y: -0.000293601, z: 0.020437647, w: -0.00029325462}
        outSlope: {x: 0.020437647, y: -0.000293601, z: 0.020437647, w: -0.00029325462}
        tangentMode: 0
        weightedMode: 0
        inWeight: {x: 0.33333334, y: 0.33333334, z: 0.33333334, w: 0.33333334}
        outWeight: {x: 0.33333334, y: 0.33333334, z: 0.33333334, w: 0.33333334}
      - serializedVersion: 3
        time: 0.38333344
        value: {x: 0.0075227343, y: -0.000056594734, z: 0.0075227343, w: 0.9999434}
        inSlope: {x: 0.018692257, y: -0.0002806857, z: 0.018692257, w: -0.00028252578}
        outSlope: {x: 0.018692257, y: -0.0002806857, z: 0.018692257, w: -0.00028252578}
        tangentMode: 0
        weightedMode: 0
        inWeight: {x: 0.33333334, y: 0.33333334, z: 0.33333334, w: 0.33333334}
        outWeight: {x: 0.33333334, y: 0.33333334, z: 0.33333334, w: 0.33333334}
      - serializedVersion: 3
        time: 0.40000013
        value: {x: 0.007818758, y: -0.000061136714, z: 0.007818758, w: 0.99993885}
        inSlope: {x: 0.016714325, y: -0.00026081887, z: 0.016714325, w: -0.0002610681}
        outSlope: {x: 0.016714325, y: -0.00026081887, z: 0.016714325, w: -0.0002610681}
        tangentMode: 0
        weightedMode: 0
        inWeight: {x: 0.33333334, y: 0.33333334, z: 0.33333334, w: 0.33333334}
        outWeight: {x: 0.33333334, y: 0.33333334, z: 0.33333334, w: 0.33333334}
      - serializedVersion: 3
        time: 0.4166668
        value: {x: 0.008079879, y: -0.0000652887, z: 0.008079879, w: 0.9999347}
        inSlope: {x: 0.014503754, y: -0.00023384465, z: 0.014503754, w: -0.00023245793}
        outSlope: {x: 0.014503754, y: -0.00023384465, z: 0.014503754, w: -0.00023245793}
        tangentMode: 0
        weightedMode: 0
        inWeight: {x: 0.33333334, y: 0.33333334, z: 0.33333334, w: 0.33333334}
        outWeight: {x: 0.33333334, y: 0.33333334, z: 0.33333334, w: 0.33333334}
      - serializedVersion: 3
        time: 0.4333335
        value: {x: 0.008302216, y: -0.00006893154, z: 0.008302216, w: 0.9999311}
        inSlope: {x: 0.012060459, y: -0.00019977026, z: 0.012060459, w: -0.00020027143}
        outSlope: {x: 0.012060459, y: -0.00019977026, z: 0.012060459, w: -0.00020027143}
        tangentMode: 0
        weightedMode: 0
        inWeight: {x: 0.33333334, y: 0.33333334, z: 0.33333334, w: 0.33333334}
        outWeight: {x: 0.33333334, y: 0.33333334, z: 0.33333334, w: 0.33333334}
      - serializedVersion: 3
        time: 0.45000017
        value: {x: 0.008481895, y: -0.00007194772, z: 0.008481895, w: 0.999928}
        inSlope: {x: 0.009384595, y: -0.00015878477, z: 0.009384595, w: -0.0001609324}
        outSlope: {x: 0.009384595, y: -0.00015878477, z: 0.009384595, w: -0.0001609324}
        tangentMode: 0
        weightedMode: 0
        inWeight: {x: 0.33333334, y: 0.33333334, z: 0.33333334, w: 0.33333334}
        outWeight: {x: 0.33333334, y: 0.33333334, z: 0.33333334, w: 0.33333334}
      - serializedVersion: 3
        time: 0.46666685
        value: {x: 0.0086150365, y: -0.00007422437, z: 0.0086150365, w: 0.99992573}
        inSlope: {x: 0.006476132, y: -0.00011127382, z: 0.006476132, w: -0.000110864545}
        outSlope: {x: 0.006476132, y: -0.00011127382, z: 0.006476132, w: -0.000110864545}
        tangentMode: 0
        weightedMode: 0
        inWeight: {x: 0.33333334, y: 0.33333334, z: 0.33333334, w: 0.33333334}
        outWeight: {x: 0.33333334, y: 0.33333334, z: 0.33333334, w: 0.33333334}
      - serializedVersion: 3
        time: 0.48333353
        value: {x: 0.008697766, y: -0.00007565685, z: 0.008697766, w: 0.9999243}
        inSlope: {x: 0.0033349902, y: -0.00005784144, z: 0.0033349902, w: -0.000057220437}
        outSlope: {x: 0.0033349902, y: -0.00005784144, z: 0.0033349902, w: -0.000057220437}
        tangentMode: 0
        weightedMode: 0
        inWeight: {x: 0.33333334, y: 0.33333334, z: 0.33333334, w: 0.33333334}
        outWeight: {x: 0.33333334, y: 0.33333334, z: 0.33333334, w: 0.33333334}
      - serializedVersion: 3
        time: 0.5000002
        value: {x: 0.008726203, y: -0.00007615242, z: 0.008726203, w: 0.9999238}
        inSlope: {x: -0.000000027939677, y: 4.3655746e-10, z: -0.000000027939677, w: 0}
        outSlope: {x: -0.000000027939677, y: 4.3655746e-10, z: -0.000000027939677, w: 0}
        tangentMode: 0
        weightedMode: 0
        inWeight: {x: 0.33333334, y: 0.33333334, z: 0.33333334, w: 0.33333334}
        outWeight: {x: 0.33333334, y: 0.33333334, z: 0.33333334, w: 0.33333334}
      - serializedVersion: 3
        time: 0.5166668
        value: {x: 0.008697765, y: -0.00007565683, z: 0.008697765, w: 0.9999243}
        inSlope: {x: -0.0033350508, y: 0.00005784239, z: -0.0033350508, w: 0.000057220514}
        outSlope: {x: -0.0033350508, y: 0.00005784239, z: -0.0033350508, w: 0.000057220514}
        tangentMode: 0
        weightedMode: 0
        inWeight: {x: 0.33333334, y: 0.33333334, z: 0.33333334, w: 0.33333334}
        outWeight: {x: 0.33333334, y: 0.33333334, z: 0.33333334, w: 0.33333334}
      - serializedVersion: 3
        time: 0.5333335
        value: {x: 0.008615035, y: -0.00007422434, z: 0.008615035, w: 0.99992573}
        inSlope: {x: -0.0064761997, y: 0.00011127489, z: -0.0064761997, w: 0.00011086474}
        outSlope: {x: -0.0064761997, y: 0.00011127489, z: -0.0064761997, w: 0.00011086474}
        tangentMode: 0
        weightedMode: 0
        inWeight: {x: 0.33333334, y: 0.33333334, z: 0.33333334, w: 0.33333334}
        outWeight: {x: 0.33333334, y: 0.33333334, z: 0.33333334, w: 0.33333334}
      - serializedVersion: 3
        time: 0.55000013
        value: {x: 0.008481892, y: -0.000071947674, z: 0.008481892, w: 0.999928}
        inSlope: {x: -0.00938464, y: 0.0001587855, z: -0.00938464, w: 0.00016093269}
        outSlope: {x: -0.00938464, y: 0.0001587855, z: -0.00938464, w: 0.00016093269}
        tangentMode: 0
        weightedMode: 0
        inWeight: {x: 0.33333334, y: 0.33333334, z: 0.33333334, w: 0.33333334}
        outWeight: {x: 0.33333334, y: 0.33333334, z: 0.33333334, w: 0.33333334}
      - serializedVersion: 3
        time: 0.5666668
        value: {x: 0.008302214, y: -0.0000689315, z: 0.008302214, w: 0.9999311}
        inSlope: {x: -0.012060508, y: 0.00019977106, z: -0.012060508, w: 0.0002002718}
        outSlope: {x: -0.012060508, y: 0.00019977106, z: -0.012060508, w: 0.0002002718}
        tangentMode: 0
        weightedMode: 0
        inWeight: {x: 0.33333334, y: 0.33333334, z: 0.33333334, w: 0.33333334}
        outWeight: {x: 0.33333334, y: 0.33333334, z: 0.33333334, w: 0.33333334}
      - serializedVersion: 3
        time: 0.58333343
        value: {x: 0.008079875, y: -0.000065288645, z: 0.008079875, w: 0.9999347}
        inSlope: {x: -0.014503808, y: 0.0002338455, z: -0.014503808, w: 0.00023245833}
        outSlope: {x: -0.014503808, y: 0.0002338455, z: -0.014503808, w: 0.00023245833}
        tangentMode: 0
        weightedMode: 0
        inWeight: {x: 0.33333334, y: 0.33333334, z: 0.33333334, w: 0.33333334}
        outWeight: {x: 0.33333334, y: 0.33333334, z: 0.33333334, w: 0.33333334}
      - serializedVersion: 3
        time: 0.6000001
        value: {x: 0.007818754, y: -0.000061136656, z: 0.007818754, w: 0.99993885}
        inSlope: {x: -0.016714355, y: 0.00026081922, z: -0.016714355, w: 0.00026106858}
        outSlope: {x: -0.016714355, y: 0.00026081922, z: -0.016714355, w: 0.00026106858}
        tangentMode: 0
        weightedMode: 0
        inWeight: {x: 0.33333334, y: 0.33333334, z: 0.33333334, w: 0.33333334}
        outWeight: {x: 0.33333334, y: 0.33333334, z: 0.33333334, w: 0.33333334}
      - serializedVersion: 3
        time: 0.61666673
        value: {x: 0.0075227306, y: -0.00005659468, z: 0.0075227306, w: 0.9999434}
        inSlope: {x: -0.018692277, y: 0.00028068584, z: -0.018692277, w: 0.0002825263}
        outSlope: {x: -0.018692277, y: 0.00028068584, z: -0.018692277, w: 0.0002825263}
        tangentMode: 0
        weightedMode: 0
        inWeight: {x: 0.33333334, y: 0.33333334, z: 0.33333334, w: 0.33333334}
        outWeight: {x: 0.33333334, y: 0.33333334, z: 0.33333334, w: 0.33333334}
      - serializedVersion: 3
        time: 0.6333334
        value: {x: 0.0071956785, y: -0.00005178047, z: 0.0071956785, w: 0.99994826}
        inSlope: {x: -0.020437656, y: 0.0002936011, z: -0.020437656, w: 0.00029325514}
        outSlope: {x: -0.020437656, y: 0.0002936011, z: -0.020437656, w: 0.00029325514}
        tangentMode: 0
        weightedMode: 0
        inWeight: {x: 0.33333334, y: 0.33333334, z: 0.33333334, w: 0.33333334}
        outWeight: {x: 0.33333334, y: 0.33333334, z: 0.33333334, w: 0.33333334}
      - serializedVersion: 3
        time: 0.65000004
        value: {x: 0.006841476, y: -0.000046807985, z: 0.006841476, w: 0.99995315}
        inSlope: {x: -0.02195034, y: 0.00029986264, z: -0.02195034, w: 0.00029683142}
        outSlope: {x: -0.02195034, y: 0.00029986264, z: -0.02195034, w: 0.00029683142}
        tangentMode: 0
        weightedMode: 0
        inWeight: {x: 0.33333334, y: 0.33333334, z: 0.33333334, w: 0.33333334}
        outWeight: {x: 0.33333334, y: 0.33333334, z: 0.33333334, w: 0.33333334}
      - serializedVersion: 3
        time: 0.6666667
        value: {x: 0.0064640013, y: -0.000041785057, z: 0.0064640013, w: 0.99995816}
        inSlope: {x: -0.02323034, y: 0.00029989638, z: -0.02323034, w: 0.0003004077}
        outSlope: {x: -0.02323034, y: 0.00029989638, z: -0.02323034, w: 0.0003004077}
        tangentMode: 0
        weightedMode: 0
        inWeight: {x: 0.33333334, y: 0.33333334, z: 0.33333334, w: 0.33333334}
        outWeight: {x: 0.33333334, y: 0.33333334, z: 0.33333334, w: 0.33333334}
      - serializedVersion: 3
        time: 0.68333334
        value: {x: 0.006067132, y: -0.00003681145, z: 0.006067132, w: 0.99996316}
        inSlope: {x: -0.024277676, y: 0.00029423673, z: -0.024277676, w: 0.00029683142}
        outSlope: {x: -0.024277676, y: 0.00029423673, z: -0.024277676, w: 0.00029683142}
        tangentMode: 0
        weightedMode: 0
        inWeight: {x: 0.33333334, y: 0.33333334, z: 0.33333334, w: 0.33333334}
        outWeight: {x: 0.33333334, y: 0.33333334, z: 0.33333334, w: 0.33333334}
      - serializedVersion: 3
        time: 0.7
        value: {x: 0.005654746, y: -0.000031977175, z: 0.005654746, w: 0.99996805}
        inSlope: {x: -0.025092341, y: 0.00028350778, z: -0.025092341, w: 0.0002825263}
        outSlope: {x: -0.025092341, y: 0.00028350778, z: -0.025092341, w: 0.0002825263}
        tangentMode: 0
        weightedMode: 0
        inWeight: {x: 0.33333334, y: 0.33333334, z: 0.33333334, w: 0.33333334}
        outWeight: {x: 0.33333334, y: 0.33333334, z: 0.33333334, w: 0.33333334}
      - serializedVersion: 3
        time: 0.71666664
        value: {x: 0.0052307216, y: -0.000027361199, z: 0.0052307216, w: 0.9999726}
        inSlope: {x: -0.025674324, y: 0.00026840589, z: -0.025674324, w: 0.00026822116}
        outSlope: {x: -0.025674324, y: 0.00026840589, z: -0.025674324, w: 0.00026822116}
        tangentMode: 0
        weightedMode: 0
        inWeight: {x: 0.33333334, y: 0.33333334, z: 0.33333334, w: 0.33333334}
        outWeight: {x: 0.33333334, y: 0.33333334, z: 0.33333334, w: 0.33333334}
      - serializedVersion: 3
        time: 0.7333333
        value: {x: 0.004798936, y: -0.000023030321, z: 0.004798936, w: 0.999977}
        inSlope: {x: -0.026023598, y: 0.00024968185, z: -0.026023598, w: 0.00025033974}
        outSlope: {x: -0.026023598, y: 0.00024968185, z: -0.026023598, w: 0.00025033974}
        tangentMode: 0
        weightedMode: 0
        inWeight: {x: 0.33333334, y: 0.33333334, z: 0.33333334, w: 0.33333334}
        outWeight: {x: 0.33333334, y: 0.33333334, z: 0.33333334, w: 0.33333334}
      - serializedVersion: 3
        time: 0.74999994
        value: {x: 0.004363269, y: -0.000019038478, z: 0.004363269, w: 0.9999809}
        inSlope: {x: -0.02614015, y: 0.00022812179, z: -0.02614015, w: 0.00022888205}
        outSlope: {x: -0.02614015, y: 0.00022812179, z: -0.02614015, w: 0.00022888205}
        tangentMode: 0
        weightedMode: 0
        inWeight: {x: 0.33333334, y: 0.33333334, z: 0.33333334, w: 0.33333334}
        outWeight: {x: 0.33333334, y: 0.33333334, z: 0.33333334, w: 0.33333334}
      - serializedVersion: 3
        time: 0.7666666
        value: {x: 0.0039275987, y: -0.000015426269, z: 0.0039275987, w: 0.9999846}
        inSlope: {x: -0.02602399, y: 0.00020453078, z: -0.02602399, w: 0.00020384809}
        outSlope: {x: -0.02602399, y: 0.00020453078, z: -0.02602399, w: 0.00020384809}
        tangentMode: 0
        weightedMode: 0
        inWeight: {x: 0.33333334, y: 0.33333334, z: 0.33333334, w: 0.33333334}
        outWeight: {x: 0.33333334, y: 0.33333334, z: 0.33333334, w: 0.33333334}
      - serializedVersion: 3
        time: 0.78333324
        value: {x: 0.0034958036, y: -0.000012220792, z: 0.0034958036, w: 0.9999877}
        inSlope: {x: -0.025675107, y: 0.0001797138, z: -0.025675107, w: 0.00017881411}
        outSlope: {x: -0.025675107, y: 0.0001797138, z: -0.025675107, w: 0.00017881411}
        tangentMode: 0
        weightedMode: 0
        inWeight: {x: 0.33333334, y: 0.33333334, z: 0.33333334, w: 0.33333334}
        outWeight: {x: 0.33333334, y: 0.33333334, z: 0.33333334, w: 0.33333334}
      - serializedVersion: 3
        time: 0.7999999
        value: {x: 0.0030717626, y: -0.000009435815, z: 0.0030717626, w: 0.9999906}
        inSlope: {x: -0.025093459, y: 0.00015445723, z: -0.025093459, w: 0.00015735641}
        outSlope: {x: -0.025093459, y: 0.00015445723, z: -0.025093459, w: 0.00015735641}
        tangentMode: 0
        weightedMode: 0
        inWeight: {x: 0.33333334, y: 0.33333334, z: 0.33333334, w: 0.33333334}
        outWeight: {x: 0.33333334, y: 0.33333334, z: 0.33333334, w: 0.33333334}
      - serializedVersion: 3
        time: 0.81666654
        value: {x: 0.0026593558, y: -0.0000070722226, z: 0.0026593558, w: 0.99999297}
        inSlope: {x: -0.024279121, y: 0.0001295121, z: -0.024279121, w: 0.00012874615}
        outSlope: {x: -0.024279121, y: 0.0001295121, z: -0.024279121, w: 0.00012874615}
        tangentMode: 0
        weightedMode: 0
        inWeight: {x: 0.33333334, y: 0.33333334, z: 0.33333334, w: 0.33333334}
        outWeight: {x: 0.33333334, y: 0.33333334, z: 0.33333334, w: 0.33333334}
      - serializedVersion: 3
        time: 0.8333332
        value: {x: 0.0022624594, y: -0.000005118749, z: 0.0022624594, w: 0.9999949}
        inSlope: {x: -0.02323205, y: 0.000105574756, z: -0.02323205, w: 0.000103712184}
        outSlope: {x: -0.02323205, y: 0.000105574756, z: -0.02323205, w: 0.000103712184}
        tangentMode: 0
        weightedMode: 0
        inWeight: {x: 0.33333334, y: 0.33333334, z: 0.33333334, w: 0.33333334}
        outWeight: {x: 0.33333334, y: 0.33333334, z: 0.33333334, w: 0.33333334}
      - serializedVersion: 3
        time: 0.84999985
        value: {x: 0.0018849549, y: -0.0000035530675, z: 0.0018849549, w: 0.9999964}
        inSlope: {x: -0.021952216, y: 0.000083269304, z: -0.021952216, w: 0.00008225448}
        outSlope: {x: -0.021952216, y: 0.000083269304, z: -0.021952216, w: 0.00008225448}
        tangentMode: 0
        weightedMode: 0
        inWeight: {x: 0.33333334, y: 0.33333334, z: 0.33333334, w: 0.33333334}
        outWeight: {x: 0.33333334, y: 0.33333334, z: 0.33333334, w: 0.33333334}
      - serializedVersion: 3
        time: 0.8666665
        value: {x: 0.0015307196, y: -0.000002343108, z: 0.0015307196, w: 0.9999976}
        inSlope: {x: -0.020439664, y: 0.00006313003, z: -0.020439664, w: 0.000064373075}
        outSlope: {x: -0.020439664, y: 0.00006313003, z: -0.020439664, w: 0.000064373075}
        tangentMode: 0
        weightedMode: 0
        inWeight: {x: 0.33333334, y: 0.33333334, z: 0.33333334, w: 0.33333334}
        outWeight: {x: 0.33333334, y: 0.33333334, z: 0.33333334, w: 0.33333334}
      - serializedVersion: 3
        time: 0.88333315
        value: {x: 0.0012036334, y: -0.0000014487352, z: 0.0012036334, w: 0.99999857}
        inSlope: {x: -0.018694397, y: 0.00004558257, z: -0.018694397, w: 0.000046491667}
        outSlope: {x: -0.018694397, y: 0.00004558257, z: -0.018694397, w: 0.000046491667}
        tangentMode: 0
        weightedMode: 0
        inWeight: {x: 0.33333334, y: 0.33333334, z: 0.33333334, w: 0.33333334}
        outWeight: {x: 0.33333334, y: 0.33333334, z: 0.33333334, w: 0.33333334}
      - serializedVersion: 3
        time: 0.8999998
        value: {x: 0.00090757356, y: -0.0000008236905, z: 0.00090757356, w: 0.99999917}
        inSlope: {x: -0.016716395, y: 0.000030926287, z: -0.016716395, w: 0.000028610255}
        outSlope: {x: -0.016716395, y: 0.000030926287, z: -0.016716395, w: 0.000028610255}
        tangentMode: 0
        weightedMode: 0
        inWeight: {x: 0.33333334, y: 0.33333334, z: 0.33333334, w: 0.33333334}
        outWeight: {x: 0.33333334, y: 0.33333334, z: 0.33333334, w: 0.33333334}
      - serializedVersion: 3
        time: 0.91666645
        value: {x: 0.00064642075, y: -0.00000041786, z: 0.00064642075, w: 0.9999995}
        inSlope: {x: -0.014505625, y: 0.0000193161, z: -0.014505625, w: 0.00001788141}
        outSlope: {x: -0.014505625, y: 0.0000193161, z: -0.014505625, w: 0.00001788141}
        tangentMode: 0
        weightedMode: 0
        inWeight: {x: 0.33333334, y: 0.33333334, z: 0.33333334, w: 0.33333334}
        outWeight: {x: 0.33333334, y: 0.33333334, z: 0.33333334, w: 0.33333334}
      - serializedVersion: 3
        time: 0.9333331
        value: {x: 0.0004240532, y: -0.00000017982117, z: 0.0004240532, w: 0.99999976}
        inSlope: {x: -0.012062175, y: 0.000010744622, z: -0.012062175, w: 0.000010728846}
        outSlope: {x: -0.012062175, y: 0.000010744622, z: -0.012062175, w: 0.000010728846}
        tangentMode: 0
        weightedMode: 0
        inWeight: {x: 0.33333334, y: 0.33333334, z: 0.33333334, w: 0.33333334}
        outWeight: {x: 0.33333334, y: 0.33333334, z: 0.33333334, w: 0.33333334}
      - serializedVersion: 3
        time: 0.94999975
        value: {x: 0.00024434863, y: -0.00000005970627, z: 0.00024434863, w: 0.9999999}
        inSlope: {x: -0.009386027, y: 0.0000050237704, z: -0.009386027, w: 0.000007152564}
        outSlope: {x: -0.009386027, y: 0.0000050237704, z: -0.009386027, w: 0.000007152564}
        tangentMode: 0
        weightedMode: 0
        inWeight: {x: 0.33333334, y: 0.33333334, z: 0.33333334, w: 0.33333334}
        outWeight: {x: 0.33333334, y: 0.33333334, z: 0.33333334, w: 0.33333334}
      - serializedVersion: 3
        time: 0.9666664
        value: {x: 0.00011118593, y: -0.000000012362311, z: 0.00011118593, w: 1}
        inSlope: {x: -0.0064771664, y: 0.000001766919, z: -0.0064771664, w: 0.000003576282}
        outSlope: {x: -0.0064771664, y: 0.000001766919, z: -0.0064771664, w: 0.000003576282}
        tangentMode: 0
        weightedMode: 0
        inWeight: {x: 0.33333334, y: 0.33333334, z: 0.33333334, w: 0.33333334}
        outWeight: {x: 0.33333334, y: 0.33333334, z: 0.33333334, w: 0.33333334}
      - serializedVersion: 3
        time: 0.98333305
        value: {x: 0.000028443288, y: -8.0902063e-10, z: 0.000028443288, w: 1}
        inSlope: {x: -0.0033355658, y: 0.00000037086926, z: -0.0033355658, w: 0}
        outSlope: {x: -0.0033355658, y: 0.00000037086926, z: -0.0033355658, w: 0}
        tangentMode: 0
        weightedMode: 0
        inWeight: {x: 0.33333334, y: 0.33333334, z: 0.33333334, w: 0.33333334}
        outWeight: {x: 0.33333334, y: 0.33333334, z: 0.33333334, w: 0.33333334}
      - serializedVersion: 3
        time: 1
        value: {x: 0, y: 0, z: 0, w: 1}
        inSlope: {x: -0.0017065684, y: 0.000000048540414, z: -0.0017065684, w: 0}
        outSlope: {x: -0.0017065684, y: 0.000000048540414, z: -0.0017065684, w: 0}
        tangentMode: 0
        weightedMode: 0
        inWeight: {x: 0.33333334, y: 0.33333334, z: 0.33333334, w: 0.33333334}
        outWeight: {x: 0.33333334, y: 0.33333334, z: 0.33333334, w: 0.33333334}
      m_PreInfinity: 2
      m_PostInfinity: 2
      m_RotationOrder: 4
    path: 
  m_CompressedRotationCurves: []
  m_EulerCurves: []
  m_PositionCurves: []
  m_ScaleCurves: []
  m_FloatCurves: []
  m_PPtrCurves: []
  m_SampleRate: 60
  m_WrapMode: 0
  m_Bounds:
    m_Center: {x: 0, y: 0, z: 0}
    m_Extent: {x: 0, y: 0, z: 0}
  m_ClipBindingConstant:
    genericBindings: []
    pptrCurveMapping: []
  m_AnimationClipSettings:
    serializedVersion: 2
    m_AdditiveReferencePoseClip: {fileID: 0}
    m_AdditiveReferencePoseTime: 0
    m_StartTime: 0
    m_StopTime: 1
    m_OrientationOffsetY: 0
    m_Level: 0
    m_CycleOffset: 0
    m_HasAdditiveReferencePose: 0
    m_LoopTime: 1
    m_LoopBlend: 0
    m_LoopBlendOrientation: 0
    m_LoopBlendPositionY: 0
    m_LoopBlendPositionXZ: 0
    m_KeepOriginalOrientation: 0
    m_KeepOriginalPositionY: 1
    m_KeepOriginalPositionXZ: 0
    m_HeightFromFeet: 0
    m_Mirror: 0
  m_EditorCurves:
  - curve:
      serializedVersion: 2
      m_Curve:
      - serializedVersion: 3
        time: 0
        value: 0
        inSlope: 0.0017065443
        outSlope: 0.0017065443
        tangentMode: 0
        weightedMode: 0
        inWeight: 0.33333334
        outWeight: 0.33333334
      - serializedVersion: 3
        time: 0.016666668
        value: 0.000028442406
        inSlope: 0.003335518
        outSlope: 0.003335518
        tangentMode: 0
        weightedMode: 0
        inWeight: 0.33333334
        outWeight: 0.33333334
      - serializedVersion: 3
        time: 0.033333335
        value: 0.000111183945
        inSlope: 0.006477111
        outSlope: 0.006477111
        tangentMode: 0
        weightedMode: 0
        inWeight: 0.33333334
        outWeight: 0.33333334
      - serializedVersion: 3
        time: 0.050000004
        value: 0.00024434613
        inSlope: 0.009385992
        outSlope: 0.009385992
        tangentMode: 0
        weightedMode: 0
        inWeight: 0.33333334
        outWeight: 0.33333334
      - serializedVersion: 3
        time: 0.06666667
        value: 0.00042405035
        inSlope: 0.012062159
        outSlope: 0.012062159
        tangentMode: 0
        weightedMode: 0
        inWeight: 0.33333334
        outWeight: 0.33333334
      - serializedVersion: 3
        time: 0.083333336
        value: 0.0006464181
        inSlope: 0.01450561
        outSlope: 0.01450561
        tangentMode: 0
        weightedMode: 0
        inWeight: 0.33333334
        outWeight: 0.33333334
      - serializedVersion: 3
        time: 0.1
        value: 0.00090757065
        inSlope: 0.01671635
        outSlope: 0.01671635
        tangentMode: 0
        weightedMode: 0
        inWeight: 0.33333334
        outWeight: 0.33333334
      - serializedVersion: 3
        time: 0.11666667
        value: 0.0012036297
        inSlope: 0.018694364
        outSlope: 0.018694364
        tangentMode: 0
        weightedMode: 0
        inWeight: 0.33333334
        outWeight: 0.33333334
      - serializedVersion: 3
        time: 0.13333334
        value: 0.0015307162
        inSlope: 0.020439645
        outSlope: 0.020439645
        tangentMode: 0
        weightedMode: 0
        inWeight: 0.33333334
        outWeight: 0.33333334
      - serializedVersion: 3
        time: 0.15
        value: 0.0018849513
        inSlope: 0.021952206
        outSlope: 0.021952206
        tangentMode: 0
        weightedMode: 0
        inWeight: 0.33333334
        outWeight: 0.33333334
      - serializedVersion: 3
        time: 0.16666667
        value: 0.0022624563
        inSlope: 0.023232039
        outSlope: 0.023232039
        tangentMode: 0
        weightedMode: 0
        inWeight: 0.33333334
        outWeight: 0.33333334
      - serializedVersion: 3
        time: 0.18333334
        value: 0.0026593525
        inSlope: 0.024279121
        outSlope: 0.024279121
        tangentMode: 0
        weightedMode: 0
        inWeight: 0.33333334
        outWeight: 0.33333334
      - serializedVersion: 3
        time: 0.2
        value: 0.0030717603
        inSlope: 0.025093457
        outSlope: 0.025093457
        tangentMode: 0
        weightedMode: 0
        inWeight: 0.33333334
        outWeight: 0.33333334
      - serializedVersion: 3
        time: 0.21666667
        value: 0.003495801
        inSlope: 0.025675084
        outSlope: 0.025675084
        tangentMode: 0
        weightedMode: 0
        inWeight: 0.33333334
        outWeight: 0.33333334
      - serializedVersion: 3
        time: 0.23333333
        value: 0.0039275964
        inSlope: 0.026024003
        outSlope: 0.026024003
        tangentMode: 0
        weightedMode: 0
        inWeight: 0.33333334
        outWeight: 0.33333334
      - serializedVersion: 3
        time: 0.25
        value: 0.0043632677
        inSlope: 0.026140157
        outSlope: 0.026140157
        tangentMode: 0
        weightedMode: 0
        inWeight: 0.33333334
        outWeight: 0.33333334
      - serializedVersion: 3
        time: 0.26666668
        value: 0.0047989353
        inSlope: 0.02602358
        outSlope: 0.02602358
        tangentMode: 0
        weightedMode: 0
        inWeight: 0.33333334
        outWeight: 0.33333334
      - serializedVersion: 3
        time: 0.28333336
        value: 0.005230721
        inSlope: 0.025674336
        outSlope: 0.025674336
        tangentMode: 0
        weightedMode: 0
        inWeight: 0.33333334
        outWeight: 0.33333334
      - serializedVersion: 3
        time: 0.30000004
        value: 0.005654747
        inSlope: 0.02509238
        outSlope: 0.02509238
        tangentMode: 0
        weightedMode: 0
        inWeight: 0.33333334
        outWeight: 0.33333334
      - serializedVersion: 3
        time: 0.31666672
        value: 0.0060671344
        inSlope: 0.024277687
        outSlope: 0.024277687
        tangentMode: 0
        weightedMode: 0
        inWeight: 0.33333334
        outWeight: 0.33333334
      - serializedVersion: 3
        time: 0.3333334
        value: 0.006464004
        inSlope: 0.023230314
        outSlope: 0.023230314
        tangentMode: 0
        weightedMode: 0
        inWeight: 0.33333334
        outWeight: 0.33333334
      - serializedVersion: 3
        time: 0.35000008
        value: 0.006841479
        inSlope: 0.021950314
        outSlope: 0.021950314
        tangentMode: 0
        weightedMode: 0
        inWeight: 0.33333334
        outWeight: 0.33333334
      - serializedVersion: 3
        time: 0.36666676
        value: 0.007195682
        inSlope: 0.020437647
        outSlope: 0.020437647
        tangentMode: 0
        weightedMode: 0
        inWeight: 0.33333334
        outWeight: 0.33333334
      - serializedVersion: 3
        time: 0.38333344
        value: 0.0075227343
        inSlope: 0.018692257
        outSlope: 0.018692257
        tangentMode: 0
        weightedMode: 0
        inWeight: 0.33333334
        outWeight: 0.33333334
      - serializedVersion: 3
        time: 0.40000013
        value: 0.007818758
        inSlope: 0.016714325
        outSlope: 0.016714325
        tangentMode: 0
        weightedMode: 0
        inWeight: 0.33333334
        outWeight: 0.33333334
      - serializedVersion: 3
        time: 0.4166668
        value: 0.008079879
        inSlope: 0.014503754
        outSlope: 0.014503754
        tangentMode: 0
        weightedMode: 0
        inWeight: 0.33333334
        outWeight: 0.33333334
      - serializedVersion: 3
        time: 0.4333335
        value: 0.008302216
        inSlope: 0.012060459
        outSlope: 0.012060459
        tangentMode: 0
        weightedMode: 0
        inWeight: 0.33333334
        outWeight: 0.33333334
      - serializedVersion: 3
        time: 0.45000017
        value: 0.008481895
        inSlope: 0.009384595
        outSlope: 0.009384595
        tangentMode: 0
        weightedMode: 0
        inWeight: 0.33333334
        outWeight: 0.33333334
      - serializedVersion: 3
        time: 0.46666685
        value: 0.0086150365
        inSlope: 0.006476132
        outSlope: 0.006476132
        tangentMode: 0
        weightedMode: 0
        inWeight: 0.33333334
        outWeight: 0.33333334
      - serializedVersion: 3
        time: 0.48333353
        value: 0.008697766
        inSlope: 0.0033349902
        outSlope: 0.0033349902
        tangentMode: 0
        weightedMode: 0
        inWeight: 0.33333334
        outWeight: 0.33333334
      - serializedVersion: 3
        time: 0.5000002
        value: 0.008726203
        inSlope: -0.000000027939677
        outSlope: -0.000000027939677
        tangentMode: 0
        weightedMode: 0
        inWeight: 0.33333334
        outWeight: 0.33333334
      - serializedVersion: 3
        time: 0.5166668
        value: 0.008697765
        inSlope: -0.0033350508
        outSlope: -0.0033350508
        tangentMode: 0
        weightedMode: 0
        inWeight: 0.33333334
        outWeight: 0.33333334
      - serializedVersion: 3
        time: 0.5333335
        value: 0.008615035
        inSlope: -0.0064761997
        outSlope: -0.0064761997
        tangentMode: 0
        weightedMode: 0
        inWeight: 0.33333334
        outWeight: 0.33333334
      - serializedVersion: 3
        time: 0.55000013
        value: 0.008481892
        inSlope: -0.00938464
        outSlope: -0.00938464
        tangentMode: 0
        weightedMode: 0
        inWeight: 0.33333334
        outWeight: 0.33333334
      - serializedVersion: 3
        time: 0.5666668
        value: 0.008302214
        inSlope: -0.012060508
        outSlope: -0.012060508
        tangentMode: 0
        weightedMode: 0
        inWeight: 0.33333334
        outWeight: 0.33333334
      - serializedVersion: 3
        time: 0.58333343
        value: 0.008079875
        inSlope: -0.014503808
        outSlope: -0.014503808
        tangentMode: 0
        weightedMode: 0
        inWeight: 0.33333334
        outWeight: 0.33333334
      - serializedVersion: 3
        time: 0.6000001
        value: 0.007818754
        inSlope: -0.016714355
        outSlope: -0.016714355
        tangentMode: 0
        weightedMode: 0
        inWeight: 0.33333334
        outWeight: 0.33333334
      - serializedVersion: 3
        time: 0.61666673
        value: 0.0075227306
        inSlope: -0.018692277
        outSlope: -0.018692277
        tangentMode: 0
        weightedMode: 0
        inWeight: 0.33333334
        outWeight: 0.33333334
      - serializedVersion: 3
        time: 0.6333334
        value: 0.0071956785
        inSlope: -0.020437656
        outSlope: -0.020437656
        tangentMode: 0
        weightedMode: 0
        inWeight: 0.33333334
        outWeight: 0.33333334
      - serializedVersion: 3
        time: 0.65000004
        value: 0.006841476
        inSlope: -0.02195034
        outSlope: -0.02195034
        tangentMode: 0
        weightedMode: 0
        inWeight: 0.33333334
        outWeight: 0.33333334
      - serializedVersion: 3
        time: 0.6666667
        value: 0.0064640013
        inSlope: -0.02323034
        outSlope: -0.02323034
        tangentMode: 0
        weightedMode: 0
        inWeight: 0.33333334
        outWeight: 0.33333334
      - serializedVersion: 3
        time: 0.68333334
        value: 0.006067132
        inSlope: -0.024277676
        outSlope: -0.024277676
        tangentMode: 0
        weightedMode: 0
        inWeight: 0.33333334
        outWeight: 0.33333334
      - serializedVersion: 3
        time: 0.7
        value: 0.005654746
        inSlope: -0.025092341
        outSlope: -0.025092341
        tangentMode: 0
        weightedMode: 0
        inWeight: 0.33333334
        outWeight: 0.33333334
      - serializedVersion: 3
        time: 0.71666664
        value: 0.0052307216
        inSlope: -0.025674324
        outSlope: -0.025674324
        tangentMode: 0
        weightedMode: 0
        inWeight: 0.33333334
        outWeight: 0.33333334
      - serializedVersion: 3
        time: 0.7333333
        value: 0.004798936
        inSlope: -0.026023598
        outSlope: -0.026023598
        tangentMode: 0
        weightedMode: 0
        inWeight: 0.33333334
        outWeight: 0.33333334
      - serializedVersion: 3
        time: 0.74999994
        value: 0.004363269
        inSlope: -0.02614015
        outSlope: -0.02614015
        tangentMode: 0
        weightedMode: 0
        inWeight: 0.33333334
        outWeight: 0.33333334
      - serializedVersion: 3
        time: 0.7666666
        value: 0.0039275987
        inSlope: -0.02602399
        outSlope: -0.02602399
        tangentMode: 0
        weightedMode: 0
        inWeight: 0.33333334
        outWeight: 0.33333334
      - serializedVersion: 3
        time: 0.78333324
        value: 0.0034958036
        inSlope: -0.025675107
        outSlope: -0.025675107
        tangentMode: 0
        weightedMode: 0
        inWeight: 0.33333334
        outWeight: 0.33333334
      - serializedVersion: 3
        time: 0.7999999
        value: 0.0030717626
        inSlope: -0.025093459
        outSlope: -0.025093459
        tangentMode: 0
        weightedMode: 0
        inWeight: 0.33333334
        outWeight: 0.33333334
      - serializedVersion: 3
        time: 0.81666654
        value: 0.0026593558
        inSlope: -0.024279121
        outSlope: -0.024279121
        tangentMode: 0
        weightedMode: 0
        inWeight: 0.33333334
        outWeight: 0.33333334
      - serializedVersion: 3
        time: 0.8333332
        value: 0.0022624594
        inSlope: -0.02323205
        outSlope: -0.02323205
        tangentMode: 0
        weightedMode: 0
        inWeight: 0.33333334
        outWeight: 0.33333334
      - serializedVersion: 3
        time: 0.84999985
        value: 0.0018849549
        inSlope: -0.021952216
        outSlope: -0.021952216
        tangentMode: 0
        weightedMode: 0
        inWeight: 0.33333334
        outWeight: 0.33333334
      - serializedVersion: 3
        time: 0.8666665
        value: 0.0015307196
        inSlope: -0.020439664
        outSlope: -0.020439664
        tangentMode: 0
        weightedMode: 0
        inWeight: 0.33333334
        outWeight: 0.33333334
      - serializedVersion: 3
        time: 0.88333315
        value: 0.0012036334
        inSlope: -0.018694397
        outSlope: -0.018694397
        tangentMode: 0
        weightedMode: 0
        inWeight: 0.33333334
        outWeight: 0.33333334
      - serializedVersion: 3
        time: 0.8999998
        value: 0.00090757356
        inSlope: -0.016716395
        outSlope: -0.016716395
        tangentMode: 0
        weightedMode: 0
        inWeight: 0.33333334
        outWeight: 0.33333334
      - serializedVersion: 3
        time: 0.91666645
        value: 0.00064642075
        inSlope: -0.014505625
        outSlope: -0.014505625
        tangentMode: 0
        weightedMode: 0
        inWeight: 0.33333334
        outWeight: 0.33333334
      - serializedVersion: 3
        time: 0.9333331
        value: 0.0004240532
        inSlope: -0.012062175
        outSlope: -0.012062175
        tangentMode: 0
        weightedMode: 0
        inWeight: 0.33333334
        outWeight: 0.33333334
      - serializedVersion: 3
        time: 0.94999975
        value: 0.00024434863
        inSlope: -0.009386027
        outSlope: -0.009386027
        tangentMode: 0
        weightedMode: 0
        inWeight: 0.33333334
        outWeight: 0.33333334
      - serializedVersion: 3
        time: 0.9666664
        value: 0.00011118593
        inSlope: -0.0064771664
        outSlope: -0.0064771664
        tangentMode: 0
        weightedMode: 0
        inWeight: 0.33333334
        outWeight: 0.33333334
      - serializedVersion: 3
        time: 0.98333305
        value: 0.000028443288
        inSlope: -0.0033355658
        outSlope: -0.0033355658
        tangentMode: 0
        weightedMode: 0
        inWeight: 0.33333334
        outWeight: 0.33333334
      - serializedVersion: 3
        time: 1
        value: 0
        inSlope: -0.0017065684
        outSlope: -0.0017065684
        tangentMode: 0
        weightedMode: 0
        inWeight: 0.33333334
        outWeight: 0.33333334
      m_PreInfinity: 2
      m_PostInfinity: 2
      m_RotationOrder: 4
    attribute: m_LocalRotation.x
    path: 
    classID: 4
    script: {fileID: 0}
  - curve:
      serializedVersion: 2
      m_Curve:
      - serializedVersion: 3
        time: 0
        value: 0
        inSlope: -0.000000048538226
        outSlope: -0.000000048538226
        tangentMode: 0
        weightedMode: 0
        inWeight: 0.33333334
        outWeight: 0.33333334
      - serializedVersion: 3
        time: 0.016666668
        value: -8.0897045e-10
        inSlope: -0.00000037085607
        outSlope: -0.00000037085607
        tangentMode: 0
        weightedMode: 0
        inWeight: 0.33333334
        outWeight: 0.33333334
      - serializedVersion: 3
        time: 0.033333335
        value: -0.00000001236187
        inSlope: -0.000001766882
        outSlope: -0.000001766882
        tangentMode: 0
        weightedMode: 0
        inWeight: 0.33333334
        outWeight: 0.33333334
      - serializedVersion: 3
        time: 0.050000004
        value: -0.000000059705044
        inSlope: -0.0000050237063
        outSlope: -0.0000050237063
        tangentMode: 0
        weightedMode: 0
        inWeight: 0.33333334
        outWeight: 0.33333334
      - serializedVersion: 3
        time: 0.06666667
        value: -0.00000017981874
        inSlope: -0.000010744547
        outSlope: -0.000010744547
        tangentMode: 0
        weightedMode: 0
        inWeight: 0.33333334
        outWeight: 0.33333334
      - serializedVersion: 3
        time: 0.083333336
        value: -0.00000041785657
        inSlope: -0.000019315996
        outSlope: -0.000019315996
        tangentMode: 0
        weightedMode: 0
        inWeight: 0.33333334
        outWeight: 0.33333334
      - serializedVersion: 3
        time: 0.1
        value: -0.00000082368524
        inSlope: -0.000030926094
        outSlope: -0.000030926094
        tangentMode: 0
        weightedMode: 0
        inWeight: 0.33333334
        outWeight: 0.33333334
      - serializedVersion: 3
        time: 0.11666667
        value: -0.0000014487263
        inSlope: -0.00004558237
        outSlope: -0.00004558237
        tangentMode: 0
        weightedMode: 0
        inWeight: 0.33333334
        outWeight: 0.33333334
      - serializedVersion: 3
        time: 0.13333334
        value: -0.0000023430978
        inSlope: -0.000063129824
        outSlope: -0.000063129824
        tangentMode: 0
        weightedMode: 0
        inWeight: 0.33333334
        outWeight: 0.33333334
      - serializedVersion: 3
        time: 0.15
        value: -0.000003553054
        inSlope: -0.000083269115
        outSlope: -0.000083269115
        tangentMode: 0
        weightedMode: 0
        inWeight: 0.33333334
        outWeight: 0.33333334
      - serializedVersion: 3
        time: 0.16666667
        value: -0.000005118735
        inSlope: -0.000105574545
        outSlope: -0.000105574545
        tangentMode: 0
        weightedMode: 0
        inWeight: 0.33333334
        outWeight: 0.33333334
      - serializedVersion: 3
        time: 0.18333334
        value: -0.0000070722053
        inSlope: -0.00012951197
        outSlope: -0.00012951197
        tangentMode: 0
        weightedMode: 0
        inWeight: 0.33333334
        outWeight: 0.33333334
      - serializedVersion: 3
        time: 0.2
        value: -0.0000094358
        inSlope: -0.0001544571
        outSlope: -0.0001544571
        tangentMode: 0
        weightedMode: 0
        inWeight: 0.33333334
        outWeight: 0.33333334
      - serializedVersion: 3
        time: 0.21666667
        value: -0.000012220775
        inSlope: -0.00017971353
        outSlope: -0.00017971353
        tangentMode: 0
        weightedMode: 0
        inWeight: 0.33333334
        outWeight: 0.33333334
      - serializedVersion: 3
        time: 0.23333333
        value: -0.00001542625
        inSlope: -0.00020453078
        outSlope: -0.00020453078
        tangentMode: 0
        weightedMode: 0
        inWeight: 0.33333334
        outWeight: 0.33333334
      - serializedVersion: 3
        time: 0.25
        value: -0.000019038467
        inSlope: -0.00022812175
        outSlope: -0.00022812175
        tangentMode: 0
        weightedMode: 0
        inWeight: 0.33333334
        outWeight: 0.33333334
      - serializedVersion: 3
        time: 0.26666668
        value: -0.000023030312
        inSlope: -0.0002496816
        outSlope: -0.0002496816
        tangentMode: 0
        weightedMode: 0
        inWeight: 0.33333334
        outWeight: 0.33333334
      - serializedVersion: 3
        time: 0.28333336
        value: -0.000027361193
        inSlope: -0.000268406
        outSlope: -0.000268406
        tangentMode: 0
        weightedMode: 0
        inWeight: 0.33333334
        outWeight: 0.33333334
      - serializedVersion: 3
        time: 0.30000004
        value: -0.000031977186
        inSlope: -0.00028350833
        outSlope: -0.00028350833
        tangentMode: 0
        weightedMode: 0
        inWeight: 0.33333334
        outWeight: 0.33333334
      - serializedVersion: 3
        time: 0.31666672
        value: -0.000036811478
        inSlope: -0.000294237
        outSlope: -0.000294237
        tangentMode: 0
        weightedMode: 0
        inWeight: 0.33333334
        outWeight: 0.33333334
      - serializedVersion: 3
        time: 0.3333334
        value: -0.000041785093
        inSlope: -0.00029989617
        outSlope: -0.00029989617
        tangentMode: 0
        weightedMode: 0
        inWeight: 0.33333334
        outWeight: 0.33333334
      - serializedVersion: 3
        time: 0.35000008
        value: -0.000046808025
        inSlope: -0.00029986244
        outSlope: -0.00029986244
        tangentMode: 0
        weightedMode: 0
        inWeight: 0.33333334
        outWeight: 0.33333334
      - serializedVersion: 3
        time: 0.36666676
        value: -0.000051780517
        inSlope: -0.000293601
        outSlope: -0.000293601
        tangentMode: 0
        weightedMode: 0
        inWeight: 0.33333334
        outWeight: 0.33333334
      - serializedVersion: 3
        time: 0.38333344
        value: -0.000056594734
        inSlope: -0.0002806857
        outSlope: -0.0002806857
        tangentMode: 0
        weightedMode: 0
        inWeight: 0.33333334
        outWeight: 0.33333334
      - serializedVersion: 3
        time: 0.40000013
        value: -0.000061136714
        inSlope: -0.00026081887
        outSlope: -0.00026081887
        tangentMode: 0
        weightedMode: 0
        inWeight: 0.33333334
        outWeight: 0.33333334
      - serializedVersion: 3
        time: 0.4166668
        value: -0.0000652887
        inSlope: -0.00023384465
        outSlope: -0.00023384465
        tangentMode: 0
        weightedMode: 0
        inWeight: 0.33333334
        outWeight: 0.33333334
      - serializedVersion: 3
        time: 0.4333335
        value: -0.00006893154
        inSlope: -0.00019977026
        outSlope: -0.00019977026
        tangentMode: 0
        weightedMode: 0
        inWeight: 0.33333334
        outWeight: 0.33333334
      - serializedVersion: 3
        time: 0.45000017
        value: -0.00007194772
        inSlope: -0.00015878477
        outSlope: -0.00015878477
        tangentMode: 0
        weightedMode: 0
        inWeight: 0.33333334
        outWeight: 0.33333334
      - serializedVersion: 3
        time: 0.46666685
        value: -0.00007422437
        inSlope: -0.00011127382
        outSlope: -0.00011127382
        tangentMode: 0
        weightedMode: 0
        inWeight: 0.33333334
        outWeight: 0.33333334
      - serializedVersion: 3
        time: 0.48333353
        value: -0.00007565685
        inSlope: -0.00005784144
        outSlope: -0.00005784144
        tangentMode: 0
        weightedMode: 0
        inWeight: 0.33333334
        outWeight: 0.33333334
      - serializedVersion: 3
        time: 0.5000002
        value: -0.00007615242
        inSlope: 4.3655746e-10
        outSlope: 4.3655746e-10
        tangentMode: 0
        weightedMode: 0
        inWeight: 0.33333334
        outWeight: 0.33333334
      - serializedVersion: 3
        time: 0.5166668
        value: -0.00007565683
        inSlope: 0.00005784239
        outSlope: 0.00005784239
        tangentMode: 0
        weightedMode: 0
        inWeight: 0.33333334
        outWeight: 0.33333334
      - serializedVersion: 3
        time: 0.5333335
        value: -0.00007422434
        inSlope: 0.00011127489
        outSlope: 0.00011127489
        tangentMode: 0
        weightedMode: 0
        inWeight: 0.33333334
        outWeight: 0.33333334
      - serializedVersion: 3
        time: 0.55000013
        value: -0.000071947674
        inSlope: 0.0001587855
        outSlope: 0.0001587855
        tangentMode: 0
        weightedMode: 0
        inWeight: 0.33333334
        outWeight: 0.33333334
      - serializedVersion: 3
        time: 0.5666668
        value: -0.0000689315
        inSlope: 0.00019977106
        outSlope: 0.00019977106
        tangentMode: 0
        weightedMode: 0
        inWeight: 0.33333334
        outWeight: 0.33333334
      - serializedVersion: 3
        time: 0.58333343
        value: -0.000065288645
        inSlope: 0.0002338455
        outSlope: 0.0002338455
        tangentMode: 0
        weightedMode: 0
        inWeight: 0.33333334
        outWeight: 0.33333334
      - serializedVersion: 3
        time: 0.6000001
        value: -0.000061136656
        inSlope: 0.00026081922
        outSlope: 0.00026081922
        tangentMode: 0
        weightedMode: 0
        inWeight: 0.33333334
        outWeight: 0.33333334
      - serializedVersion: 3
        time: 0.61666673
        value: -0.00005659468
        inSlope: 0.00028068584
        outSlope: 0.00028068584
        tangentMode: 0
        weightedMode: 0
        inWeight: 0.33333334
        outWeight: 0.33333334
      - serializedVersion: 3
        time: 0.6333334
        value: -0.00005178047
        inSlope: 0.0002936011
        outSlope: 0.0002936011
        tangentMode: 0
        weightedMode: 0
        inWeight: 0.33333334
        outWeight: 0.33333334
      - serializedVersion: 3
        time: 0.65000004
        value: -0.000046807985
        inSlope: 0.00029986264
        outSlope: 0.00029986264
        tangentMode: 0
        weightedMode: 0
        inWeight: 0.33333334
        outWeight: 0.33333334
      - serializedVersion: 3
        time: 0.6666667
        value: -0.000041785057
        inSlope: 0.00029989638
        outSlope: 0.00029989638
        tangentMode: 0
        weightedMode: 0
        inWeight: 0.33333334
        outWeight: 0.33333334
      - serializedVersion: 3
        time: 0.68333334
        value: -0.00003681145
        inSlope: 0.00029423673
        outSlope: 0.00029423673
        tangentMode: 0
        weightedMode: 0
        inWeight: 0.33333334
        outWeight: 0.33333334
      - serializedVersion: 3
        time: 0.7
        value: -0.000031977175
        inSlope: 0.00028350778
        outSlope: 0.00028350778
        tangentMode: 0
        weightedMode: 0
        inWeight: 0.33333334
        outWeight: 0.33333334
      - serializedVersion: 3
        time: 0.71666664
        value: -0.000027361199
        inSlope: 0.00026840589
        outSlope: 0.00026840589
        tangentMode: 0
        weightedMode: 0
        inWeight: 0.33333334
        outWeight: 0.33333334
      - serializedVersion: 3
        time: 0.7333333
        value: -0.000023030321
        inSlope: 0.00024968185
        outSlope: 0.00024968185
        tangentMode: 0
        weightedMode: 0
        inWeight: 0.33333334
        outWeight: 0.33333334
      - serializedVersion: 3
        time: 0.74999994
        value: -0.000019038478
        inSlope: 0.00022812179
        outSlope: 0.00022812179
        tangentMode: 0
        weightedMode: 0
        inWeight: 0.33333334
        outWeight: 0.33333334
      - serializedVersion: 3
        time: 0.7666666
        value: -0.000015426269
        inSlope: 0.00020453078
        outSlope: 0.00020453078
        tangentMode: 0
        weightedMode: 0
        inWeight: 0.33333334
        outWeight: 0.33333334
      - serializedVersion: 3
        time: 0.78333324
        value: -0.000012220792
        inSlope: 0.0001797138
        outSlope: 0.0001797138
        tangentMode: 0
        weightedMode: 0
        inWeight: 0.33333334
        outWeight: 0.33333334
      - serializedVersion: 3
        time: 0.7999999
        value: -0.000009435815
        inSlope: 0.00015445723
        outSlope: 0.00015445723
        tangentMode: 0
        weightedMode: 0
        inWeight: 0.33333334
        outWeight: 0.33333334
      - serializedVersion: 3
        time: 0.81666654
        value: -0.0000070722226
        inSlope: 0.0001295121
        outSlope: 0.0001295121
        tangentMode: 0
        weightedMode: 0
        inWeight: 0.33333334
        outWeight: 0.33333334
      - serializedVersion: 3
        time: 0.8333332
        value: -0.000005118749
        inSlope: 0.000105574756
        outSlope: 0.000105574756
        tangentMode: 0
        weightedMode: 0
        inWeight: 0.33333334
        outWeight: 0.33333334
      - serializedVersion: 3
        time: 0.84999985
        value: -0.0000035530675
        inSlope: 0.000083269304
        outSlope: 0.000083269304
        tangentMode: 0
        weightedMode: 0
        inWeight: 0.33333334
        outWeight: 0.33333334
      - serializedVersion: 3
        time: 0.8666665
        value: -0.000002343108
        inSlope: 0.00006313003
        outSlope: 0.00006313003
        tangentMode: 0
        weightedMode: 0
        inWeight: 0.33333334
        outWeight: 0.33333334
      - serializedVersion: 3
        time: 0.88333315
        value: -0.0000014487352
        inSlope: 0.00004558257
        outSlope: 0.00004558257
        tangentMode: 0
        weightedMode: 0
        inWeight: 0.33333334
        outWeight: 0.33333334
      - serializedVersion: 3
        time: 0.8999998
        value: -0.0000008236905
        inSlope: 0.000030926287
        outSlope: 0.000030926287
        tangentMode: 0
        weightedMode: 0
        inWeight: 0.33333334
        outWeight: 0.33333334
      - serializedVersion: 3
        time: 0.91666645
        value: -0.00000041786
        inSlope: 0.0000193161
        outSlope: 0.0000193161
        tangentMode: 0
        weightedMode: 0
        inWeight: 0.33333334
        outWeight: 0.33333334
      - serializedVersion: 3
        time: 0.9333331
        value: -0.00000017982117
        inSlope: 0.000010744622
        outSlope: 0.000010744622
        tangentMode: 0
        weightedMode: 0
        inWeight: 0.33333334
        outWeight: 0.33333334
      - serializedVersion: 3
        time: 0.94999975
        value: -0.00000005970627
        inSlope: 0.0000050237704
        outSlope: 0.0000050237704
        tangentMode: 0
        weightedMode: 0
        inWeight: 0.33333334
        outWeight: 0.33333334
      - serializedVersion: 3
        time: 0.9666664
        value: -0.000000012362311
        inSlope: 0.000001766919
        outSlope: 0.000001766919
        tangentMode: 0
        weightedMode: 0
        inWeight: 0.33333334
        outWeight: 0.33333334
      - serializedVersion: 3
        time: 0.98333305
        value: -8.0902063e-10
        inSlope: 0.00000037086926
        outSlope: 0.00000037086926
        tangentMode: 0
        weightedMode: 0
        inWeight: 0.33333334
        outWeight: 0.33333334
      - serializedVersion: 3
        time: 1
        value: 0
        inSlope: 0.000000048540414
        outSlope: 0.000000048540414
        tangentMode: 0
        weightedMode: 0
        inWeight: 0.33333334
        outWeight: 0.33333334
      m_PreInfinity: 2
      m_PostInfinity: 2
      m_RotationOrder: 4
    attribute: m_LocalRotation.y
    path: 
    classID: 4
    script: {fileID: 0}
  - curve:
      serializedVersion: 2
      m_Curve:
      - serializedVersion: 3
        time: 0
        value: 0
        inSlope: 0.0017065443
        outSlope: 0.0017065443
        tangentMode: 0
        weightedMode: 0
        inWeight: 0.33333334
        outWeight: 0.33333334
      - serializedVersion: 3
        time: 0.016666668
        value: 0.000028442406
        inSlope: 0.003335518
        outSlope: 0.003335518
        tangentMode: 0
        weightedMode: 0
        inWeight: 0.33333334
        outWeight: 0.33333334
      - serializedVersion: 3
        time: 0.033333335
        value: 0.000111183945
        inSlope: 0.006477111
        outSlope: 0.006477111
        tangentMode: 0
        weightedMode: 0
        inWeight: 0.33333334
        outWeight: 0.33333334
      - serializedVersion: 3
        time: 0.050000004
        value: 0.00024434613
        inSlope: 0.009385992
        outSlope: 0.009385992
        tangentMode: 0
        weightedMode: 0
        inWeight: 0.33333334
        outWeight: 0.33333334
      - serializedVersion: 3
        time: 0.06666667
        value: 0.00042405035
        inSlope: 0.012062159
        outSlope: 0.012062159
        tangentMode: 0
        weightedMode: 0
        inWeight: 0.33333334
        outWeight: 0.33333334
      - serializedVersion: 3
        time: 0.083333336
        value: 0.0006464181
        inSlope: 0.01450561
        outSlope: 0.01450561
        tangentMode: 0
        weightedMode: 0
        inWeight: 0.33333334
        outWeight: 0.33333334
      - serializedVersion: 3
        time: 0.1
        value: 0.00090757065
        inSlope: 0.01671635
        outSlope: 0.01671635
        tangentMode: 0
        weightedMode: 0
        inWeight: 0.33333334
        outWeight: 0.33333334
      - serializedVersion: 3
        time: 0.11666667
        value: 0.0012036297
        inSlope: 0.018694364
        outSlope: 0.018694364
        tangentMode: 0
        weightedMode: 0
        inWeight: 0.33333334
        outWeight: 0.33333334
      - serializedVersion: 3
        time: 0.13333334
        value: 0.0015307162
        inSlope: 0.020439645
        outSlope: 0.020439645
        tangentMode: 0
        weightedMode: 0
        inWeight: 0.33333334
        outWeight: 0.33333334
      - serializedVersion: 3
        time: 0.15
        value: 0.0018849513
        inSlope: 0.021952206
        outSlope: 0.021952206
        tangentMode: 0
        weightedMode: 0
        inWeight: 0.33333334
        outWeight: 0.33333334
      - serializedVersion: 3
        time: 0.16666667
        value: 0.0022624563
        inSlope: 0.023232039
        outSlope: 0.023232039
        tangentMode: 0
        weightedMode: 0
        inWeight: 0.33333334
        outWeight: 0.33333334
      - serializedVersion: 3
        time: 0.18333334
        value: 0.0026593525
        inSlope: 0.024279121
        outSlope: 0.024279121
        tangentMode: 0
        weightedMode: 0
        inWeight: 0.33333334
        outWeight: 0.33333334
      - serializedVersion: 3
        time: 0.2
        value: 0.0030717603
        inSlope: 0.025093457
        outSlope: 0.025093457
        tangentMode: 0
        weightedMode: 0
        inWeight: 0.33333334
        outWeight: 0.33333334
      - serializedVersion: 3
        time: 0.21666667
        value: 0.003495801
        inSlope: 0.025675084
        outSlope: 0.025675084
        tangentMode: 0
        weightedMode: 0
        inWeight: 0.33333334
        outWeight: 0.33333334
      - serializedVersion: 3
        time: 0.23333333
        value: 0.0039275964
        inSlope: 0.026024003
        outSlope: 0.026024003
        tangentMode: 0
        weightedMode: 0
        inWeight: 0.33333334
        outWeight: 0.33333334
      - serializedVersion: 3
        time: 0.25
        value: 0.0043632677
        inSlope: 0.026140157
        outSlope: 0.026140157
        tangentMode: 0
        weightedMode: 0
        inWeight: 0.33333334
        outWeight: 0.33333334
      - serializedVersion: 3
        time: 0.26666668
        value: 0.0047989353
        inSlope: 0.02602358
        outSlope: 0.02602358
        tangentMode: 0
        weightedMode: 0
        inWeight: 0.33333334
        outWeight: 0.33333334
      - serializedVersion: 3
        time: 0.28333336
        value: 0.005230721
        inSlope: 0.025674336
        outSlope: 0.025674336
        tangentMode: 0
        weightedMode: 0
        inWeight: 0.33333334
        outWeight: 0.33333334
      - serializedVersion: 3
        time: 0.30000004
        value: 0.005654747
        inSlope: 0.02509238
        outSlope: 0.02509238
        tangentMode: 0
        weightedMode: 0
        inWeight: 0.33333334
        outWeight: 0.33333334
      - serializedVersion: 3
        time: 0.31666672
        value: 0.0060671344
        inSlope: 0.024277687
        outSlope: 0.024277687
        tangentMode: 0
        weightedMode: 0
        inWeight: 0.33333334
        outWeight: 0.33333334
      - serializedVersion: 3
        time: 0.3333334
        value: 0.006464004
        inSlope: 0.023230314
        outSlope: 0.023230314
        tangentMode: 0
        weightedMode: 0
        inWeight: 0.33333334
        outWeight: 0.33333334
      - serializedVersion: 3
        time: 0.35000008
        value: 0.006841479
        inSlope: 0.021950314
        outSlope: 0.021950314
        tangentMode: 0
        weightedMode: 0
        inWeight: 0.33333334
        outWeight: 0.33333334
      - serializedVersion: 3
        time: 0.36666676
        value: 0.007195682
        inSlope: 0.020437647
        outSlope: 0.020437647
        tangentMode: 0
        weightedMode: 0
        inWeight: 0.33333334
        outWeight: 0.33333334
      - serializedVersion: 3
        time: 0.38333344
        value: 0.0075227343
        inSlope: 0.018692257
        outSlope: 0.018692257
        tangentMode: 0
        weightedMode: 0
        inWeight: 0.33333334
        outWeight: 0.33333334
      - serializedVersion: 3
        time: 0.40000013
        value: 0.007818758
        inSlope: 0.016714325
        outSlope: 0.016714325
        tangentMode: 0
        weightedMode: 0
        inWeight: 0.33333334
        outWeight: 0.33333334
      - serializedVersion: 3
        time: 0.4166668
        value: 0.008079879
        inSlope: 0.014503754
        outSlope: 0.014503754
        tangentMode: 0
        weightedMode: 0
        inWeight: 0.33333334
        outWeight: 0.33333334
      - serializedVersion: 3
        time: 0.4333335
        value: 0.008302216
        inSlope: 0.012060459
        outSlope: 0.012060459
        tangentMode: 0
        weightedMode: 0
        inWeight: 0.33333334
        outWeight: 0.33333334
      - serializedVersion: 3
        time: 0.45000017
        value: 0.008481895
        inSlope: 0.009384595
        outSlope: 0.009384595
        tangentMode: 0
        weightedMode: 0
        inWeight: 0.33333334
        outWeight: 0.33333334
      - serializedVersion: 3
        time: 0.46666685
        value: 0.0086150365
        inSlope: 0.006476132
        outSlope: 0.006476132
        tangentMode: 0
        weightedMode: 0
        inWeight: 0.33333334
        outWeight: 0.33333334
      - serializedVersion: 3
        time: 0.48333353
        value: 0.008697766
        inSlope: 0.0033349902
        outSlope: 0.0033349902
        tangentMode: 0
        weightedMode: 0
        inWeight: 0.33333334
        outWeight: 0.33333334
      - serializedVersion: 3
        time: 0.5000002
        value: 0.008726203
        inSlope: -0.000000027939677
        outSlope: -0.000000027939677
        tangentMode: 0
        weightedMode: 0
        inWeight: 0.33333334
        outWeight: 0.33333334
      - serializedVersion: 3
        time: 0.5166668
        value: 0.008697765
        inSlope: -0.0033350508
        outSlope: -0.0033350508
        tangentMode: 0
        weightedMode: 0
        inWeight: 0.33333334
        outWeight: 0.33333334
      - serializedVersion: 3
        time: 0.5333335
        value: 0.008615035
        inSlope: -0.0064761997
        outSlope: -0.0064761997
        tangentMode: 0
        weightedMode: 0
        inWeight: 0.33333334
        outWeight: 0.33333334
      - serializedVersion: 3
        time: 0.55000013
        value: 0.008481892
        inSlope: -0.00938464
        outSlope: -0.00938464
        tangentMode: 0
        weightedMode: 0
        inWeight: 0.33333334
        outWeight: 0.33333334
      - serializedVersion: 3
        time: 0.5666668
        value: 0.008302214
        inSlope: -0.012060508
        outSlope: -0.012060508
        tangentMode: 0
        weightedMode: 0
        inWeight: 0.33333334
        outWeight: 0.33333334
      - serializedVersion: 3
        time: 0.58333343
        value: 0.008079875
        inSlope: -0.014503808
        outSlope: -0.014503808
        tangentMode: 0
        weightedMode: 0
        inWeight: 0.33333334
        outWeight: 0.33333334
      - serializedVersion: 3
        time: 0.6000001
        value: 0.007818754
        inSlope: -0.016714355
        outSlope: -0.016714355
        tangentMode: 0
        weightedMode: 0
        inWeight: 0.33333334
        outWeight: 0.33333334
      - serializedVersion: 3
        time: 0.61666673
        value: 0.0075227306
        inSlope: -0.018692277
        outSlope: -0.018692277
        tangentMode: 0
        weightedMode: 0
        inWeight: 0.33333334
        outWeight: 0.33333334
      - serializedVersion: 3
        time: 0.6333334
        value: 0.0071956785
        inSlope: -0.020437656
        outSlope: -0.020437656
        tangentMode: 0
        weightedMode: 0
        inWeight: 0.33333334
        outWeight: 0.33333334
      - serializedVersion: 3
        time: 0.65000004
        value: 0.006841476
        inSlope: -0.02195034
        outSlope: -0.02195034
        tangentMode: 0
        weightedMode: 0
        inWeight: 0.33333334
        outWeight: 0.33333334
      - serializedVersion: 3
        time: 0.6666667
        value: 0.0064640013
        inSlope: -0.02323034
        outSlope: -0.02323034
        tangentMode: 0
        weightedMode: 0
        inWeight: 0.33333334
        outWeight: 0.33333334
      - serializedVersion: 3
        time: 0.68333334
        value: 0.006067132
        inSlope: -0.024277676
        outSlope: -0.024277676
        tangentMode: 0
        weightedMode: 0
        inWeight: 0.33333334
        outWeight: 0.33333334
      - serializedVersion: 3
        time: 0.7
        value: 0.005654746
        inSlope: -0.025092341
        outSlope: -0.025092341
        tangentMode: 0
        weightedMode: 0
        inWeight: 0.33333334
        outWeight: 0.33333334
      - serializedVersion: 3
        time: 0.71666664
        value: 0.0052307216
        inSlope: -0.025674324
        outSlope: -0.025674324
        tangentMode: 0
        weightedMode: 0
        inWeight: 0.33333334
        outWeight: 0.33333334
      - serializedVersion: 3
        time: 0.7333333
        value: 0.004798936
        inSlope: -0.026023598
        outSlope: -0.026023598
        tangentMode: 0
        weightedMode: 0
        inWeight: 0.33333334
        outWeight: 0.33333334
      - serializedVersion: 3
        time: 0.74999994
        value: 0.004363269
        inSlope: -0.02614015
        outSlope: -0.02614015
        tangentMode: 0
        weightedMode: 0
        inWeight: 0.33333334
        outWeight: 0.33333334
      - serializedVersion: 3
        time: 0.7666666
        value: 0.0039275987
        inSlope: -0.02602399
        outSlope: -0.02602399
        tangentMode: 0
        weightedMode: 0
        inWeight: 0.33333334
        outWeight: 0.33333334
      - serializedVersion: 3
        time: 0.78333324
        value: 0.0034958036
        inSlope: -0.025675107
        outSlope: -0.025675107
        tangentMode: 0
        weightedMode: 0
        inWeight: 0.33333334
        outWeight: 0.33333334
      - serializedVersion: 3
        time: 0.7999999
        value: 0.0030717626
        inSlope: -0.025093459
        outSlope: -0.025093459
        tangentMode: 0
        weightedMode: 0
        inWeight: 0.33333334
        outWeight: 0.33333334
      - serializedVersion: 3
        time: 0.81666654
        value: 0.0026593558
        inSlope: -0.024279121
        outSlope: -0.024279121
        tangentMode: 0
        weightedMode: 0
        inWeight: 0.33333334
        outWeight: 0.33333334
      - serializedVersion: 3
        time: 0.8333332
        value: 0.0022624594
        inSlope: -0.02323205
        outSlope: -0.02323205
        tangentMode: 0
        weightedMode: 0
        inWeight: 0.33333334
        outWeight: 0.33333334
      - serializedVersion: 3
        time: 0.84999985
        value: 0.0018849549
        inSlope: -0.021952216
        outSlope: -0.021952216
        tangentMode: 0
        weightedMode: 0
        inWeight: 0.33333334
        outWeight: 0.33333334
      - serializedVersion: 3
        time: 0.8666665
        value: 0.0015307196
        inSlope: -0.020439664
        outSlope: -0.020439664
        tangentMode: 0
        weightedMode: 0
        inWeight: 0.33333334
        outWeight: 0.33333334
      - serializedVersion: 3
        time: 0.88333315
        value: 0.0012036334
        inSlope: -0.018694397
        outSlope: -0.018694397
        tangentMode: 0
        weightedMode: 0
        inWeight: 0.33333334
        outWeight: 0.33333334
      - serializedVersion: 3
        time: 0.8999998
        value: 0.00090757356
        inSlope: -0.016716395
        outSlope: -0.016716395
        tangentMode: 0
        weightedMode: 0
        inWeight: 0.33333334
        outWeight: 0.33333334
      - serializedVersion: 3
        time: 0.91666645
        value: 0.00064642075
        inSlope: -0.014505625
        outSlope: -0.014505625
        tangentMode: 0
        weightedMode: 0
        inWeight: 0.33333334
        outWeight: 0.33333334
      - serializedVersion: 3
        time: 0.9333331
        value: 0.0004240532
        inSlope: -0.012062175
        outSlope: -0.012062175
        tangentMode: 0
        weightedMode: 0
        inWeight: 0.33333334
        outWeight: 0.33333334
      - serializedVersion: 3
        time: 0.94999975
        value: 0.00024434863
        inSlope: -0.009386027
        outSlope: -0.009386027
        tangentMode: 0
        weightedMode: 0
        inWeight: 0.33333334
        outWeight: 0.33333334
      - serializedVersion: 3
        time: 0.9666664
        value: 0.00011118593
        inSlope: -0.0064771664
        outSlope: -0.0064771664
        tangentMode: 0
        weightedMode: 0
        inWeight: 0.33333334
        outWeight: 0.33333334
      - serializedVersion: 3
        time: 0.98333305
        value: 0.000028443288
        inSlope: -0.0033355658
        outSlope: -0.0033355658
        tangentMode: 0
        weightedMode: 0
        inWeight: 0.33333334
        outWeight: 0.33333334
      - serializedVersion: 3
        time: 1
        value: 0
        inSlope: -0.0017065684
        outSlope: -0.0017065684
        tangentMode: 0
        weightedMode: 0
        inWeight: 0.33333334
        outWeight: 0.33333334
      m_PreInfinity: 2
      m_PostInfinity: 2
      m_RotationOrder: 4
    attribute: m_LocalRotation.z
    path: 
    classID: 4
    script: {fileID: 0}
  - curve:
      serializedVersion: 2
      m_Curve:
      - serializedVersion: 3
        time: 0
        value: 1
        inSlope: 0
        outSlope: 0
        tangentMode: 0
        weightedMode: 0
        inWeight: 0.33333334
        outWeight: 0.33333334
      - serializedVersion: 3
        time: 0.016666668
        value: 1
        inSlope: 0
        outSlope: 0
        tangentMode: 0
        weightedMode: 0
        inWeight: 0.33333334
        outWeight: 0.33333334
      - serializedVersion: 3
        time: 0.033333335
        value: 1
        inSlope: -0.000003576278
        outSlope: -0.000003576278
        tangentMode: 0
        weightedMode: 0
        inWeight: 0.33333334
        outWeight: 0.33333334
      - serializedVersion: 3
        time: 0.050000004
        value: 0.9999999
        inSlope: -0.000007152557
        outSlope: -0.000007152557
        tangentMode: 0
        weightedMode: 0
        inWeight: 0.33333334
        outWeight: 0.33333334
      - serializedVersion: 3
        time: 0.06666667
        value: 0.99999976
        inSlope: -0.000010728837
        outSlope: -0.000010728837
        tangentMode: 0
        weightedMode: 0
        inWeight: 0.33333334
        outWeight: 0.33333334
      - serializedVersion: 3
        time: 0.083333336
        value: 0.9999995
        inSlope: -0.000017881395
        outSlope: -0.000017881395
        tangentMode: 0
        weightedMode: 0
        inWeight: 0.33333334
        outWeight: 0.33333334
      - serializedVersion: 3
        time: 0.1
        value: 0.99999917
        inSlope: -0.000028610233
        outSlope: -0.000028610233
        tangentMode: 0
        weightedMode: 0
        inWeight: 0.33333334
        outWeight: 0.33333334
      - serializedVersion: 3
        time: 0.11666667
        value: 0.99999857
        inSlope: -0.000046491616
        outSlope: -0.000046491616
        tangentMode: 0
        weightedMode: 0
        inWeight: 0.33333334
        outWeight: 0.33333334
      - serializedVersion: 3
        time: 0.13333334
        value: 0.9999976
        inSlope: -0.00006437301
        outSlope: -0.00006437301
        tangentMode: 0
        weightedMode: 0
        inWeight: 0.33333334
        outWeight: 0.33333334
      - serializedVersion: 3
        time: 0.15
        value: 0.9999964
        inSlope: -0.00008225442
        outSlope: -0.00008225442
        tangentMode: 0
        weightedMode: 0
        inWeight: 0.33333334
        outWeight: 0.33333334
      - serializedVersion: 3
        time: 0.16666667
        value: 0.9999949
        inSlope: -0.00010371209
        outSlope: -0.00010371209
        tangentMode: 0
        weightedMode: 0
        inWeight: 0.33333334
        outWeight: 0.33333334
      - serializedVersion: 3
        time: 0.18333334
        value: 0.99999297
        inSlope: -0.00012874605
        outSlope: -0.00012874605
        tangentMode: 0
        weightedMode: 0
        inWeight: 0.33333334
        outWeight: 0.33333334
      - serializedVersion: 3
        time: 0.2
        value: 0.9999906
        inSlope: -0.00015735628
        outSlope: -0.00015735628
        tangentMode: 0
        weightedMode: 0
        inWeight: 0.33333334
        outWeight: 0.33333334
      - serializedVersion: 3
        time: 0.21666667
        value: 0.9999877
        inSlope: -0.00017881395
        outSlope: -0.00017881395
        tangentMode: 0
        weightedMode: 0
        inWeight: 0.33333334
        outWeight: 0.33333334
      - serializedVersion: 3
        time: 0.23333333
        value: 0.9999846
        inSlope: -0.0002038479
        outSlope: -0.0002038479
        tangentMode: 0
        weightedMode: 0
        inWeight: 0.33333334
        outWeight: 0.33333334
      - serializedVersion: 3
        time: 0.25
        value: 0.9999809
        inSlope: -0.00022888175
        outSlope: -0.00022888175
        tangentMode: 0
        weightedMode: 0
        inWeight: 0.33333334
        outWeight: 0.33333334
      - serializedVersion: 3
        time: 0.26666668
        value: 0.999977
        inSlope: -0.00025033928
        outSlope: -0.00025033928
        tangentMode: 0
        weightedMode: 0
        inWeight: 0.33333334
        outWeight: 0.33333334
      - serializedVersion: 3
        time: 0.28333336
        value: 0.9999726
        inSlope: -0.00026822067
        outSlope: -0.00026822067
        tangentMode: 0
        weightedMode: 0
        inWeight: 0.33333334
        outWeight: 0.33333334
      - serializedVersion: 3
        time: 0.30000004
        value: 0.99996805
        inSlope: -0.00028252578
        outSlope: -0.00028252578
        tangentMode: 0
        weightedMode: 0
        inWeight: 0.33333334
        outWeight: 0.33333334
      - serializedVersion: 3
        time: 0.31666672
        value: 0.99996316
        inSlope: -0.0002968309
        outSlope: -0.0002968309
        tangentMode: 0
        weightedMode: 0
        inWeight: 0.33333334
        outWeight: 0.33333334
      - serializedVersion: 3
        time: 0.3333334
        value: 0.99995816
        inSlope: -0.00030040715
        outSlope: -0.00030040715
        tangentMode: 0
        weightedMode: 0
        inWeight: 0.33333334
        outWeight: 0.33333334
      - serializedVersion: 3
        time: 0.35000008
        value: 0.99995315
        inSlope: -0.0002968309
        outSlope: -0.0002968309
        tangentMode: 0
        weightedMode: 0
        inWeight: 0.33333334
        outWeight: 0.33333334
      - serializedVersion: 3
        time: 0.36666676
        value: 0.99994826
        inSlope: -0.00029325462
        outSlope: -0.00029325462
        tangentMode: 0
        weightedMode: 0
        inWeight: 0.33333334
        outWeight: 0.33333334
      - serializedVersion: 3
        time: 0.38333344
        value: 0.9999434
        inSlope: -0.00028252578
        outSlope: -0.00028252578
        tangentMode: 0
        weightedMode: 0
        inWeight: 0.33333334
        outWeight: 0.33333334
      - serializedVersion: 3
        time: 0.40000013
        value: 0.99993885
        inSlope: -0.0002610681
        outSlope: -0.0002610681
        tangentMode: 0
        weightedMode: 0
        inWeight: 0.33333334
        outWeight: 0.33333334
      - serializedVersion: 3
        time: 0.4166668
        value: 0.9999347
        inSlope: -0.00023245793
        outSlope: -0.00023245793
        tangentMode: 0
        weightedMode: 0
        inWeight: 0.33333334
        outWeight: 0.33333334
      - serializedVersion: 3
        time: 0.4333335
        value: 0.9999311
        inSlope: -0.00020027143
        outSlope: -0.00020027143
        tangentMode: 0
        weightedMode: 0
        inWeight: 0.33333334
        outWeight: 0.33333334
      - serializedVersion: 3
        time: 0.45000017
        value: 0.999928
        inSlope: -0.0001609324
        outSlope: -0.0001609324
        tangentMode: 0
        weightedMode: 0
        inWeight: 0.33333334
        outWeight: 0.33333334
      - serializedVersion: 3
        time: 0.46666685
        value: 0.99992573
        inSlope: -0.000110864545
        outSlope: -0.000110864545
        tangentMode: 0
        weightedMode: 0
        inWeight: 0.33333334
        outWeight: 0.33333334
      - serializedVersion: 3
        time: 0.48333353
        value: 0.9999243
        inSlope: -0.000057220437
        outSlope: -0.000057220437
        tangentMode: 0
        weightedMode: 0
        inWeight: 0.33333334
        outWeight: 0.33333334
      - serializedVersion: 3
        time: 0.5000002
        value: 0.9999238
        inSlope: 0
        outSlope: 0
        tangentMode: 0
        weightedMode: 0
        inWeight: 0.33333334
        outWeight: 0.33333334
      - serializedVersion: 3
        time: 0.5166668
        value: 0.9999243
        inSlope: 0.000057220514
        outSlope: 0.000057220514
        tangentMode: 0
        weightedMode: 0
        inWeight: 0.33333334
        outWeight: 0.33333334
      - serializedVersion: 3
        time: 0.5333335
        value: 0.99992573
        inSlope: 0.00011086474
        outSlope: 0.00011086474
        tangentMode: 0
        weightedMode: 0
        inWeight: 0.33333334
        outWeight: 0.33333334
      - serializedVersion: 3
        time: 0.55000013
        value: 0.999928
        inSlope: 0.00016093269
        outSlope: 0.00016093269
        tangentMode: 0
        weightedMode: 0
        inWeight: 0.33333334
        outWeight: 0.33333334
      - serializedVersion: 3
        time: 0.5666668
        value: 0.9999311
        inSlope: 0.0002002718
        outSlope: 0.0002002718
        tangentMode: 0
        weightedMode: 0
        inWeight: 0.33333334
        outWeight: 0.33333334
      - serializedVersion: 3
        time: 0.58333343
        value: 0.9999347
        inSlope: 0.00023245833
        outSlope: 0.00023245833
        tangentMode: 0
        weightedMode: 0
        inWeight: 0.33333334
        outWeight: 0.33333334
      - serializedVersion: 3
        time: 0.6000001
        value: 0.99993885
        inSlope: 0.00026106858
        outSlope: 0.00026106858
        tangentMode: 0
        weightedMode: 0
        inWeight: 0.33333334
        outWeight: 0.33333334
      - serializedVersion: 3
        time: 0.61666673
        value: 0.9999434
        inSlope: 0.0002825263
        outSlope: 0.0002825263
        tangentMode: 0
        weightedMode: 0
        inWeight: 0.33333334
        outWeight: 0.33333334
      - serializedVersion: 3
        time: 0.6333334
        value: 0.99994826
        inSlope: 0.00029325514
        outSlope: 0.00029325514
        tangentMode: 0
        weightedMode: 0
        inWeight: 0.33333334
        outWeight: 0.33333334
      - serializedVersion: 3
        time: 0.65000004
        value: 0.99995315
        inSlope: 0.00029683142
        outSlope: 0.00029683142
        tangentMode: 0
        weightedMode: 0
        inWeight: 0.33333334
        outWeight: 0.33333334
      - serializedVersion: 3
        time: 0.6666667
        value: 0.99995816
        inSlope: 0.0003004077
        outSlope: 0.0003004077
        tangentMode: 0
        weightedMode: 0
        inWeight: 0.33333334
        outWeight: 0.33333334
      - serializedVersion: 3
        time: 0.68333334
        value: 0.99996316
        inSlope: 0.00029683142
        outSlope: 0.00029683142
        tangentMode: 0
        weightedMode: 0
        inWeight: 0.33333334
        outWeight: 0.33333334
      - serializedVersion: 3
        time: 0.7
        value: 0.99996805
        inSlope: 0.0002825263
        outSlope: 0.0002825263
        tangentMode: 0
        weightedMode: 0
        inWeight: 0.33333334
        outWeight: 0.33333334
      - serializedVersion: 3
        time: 0.71666664
        value: 0.9999726
        inSlope: 0.00026822116
        outSlope: 0.00026822116
        tangentMode: 0
        weightedMode: 0
        inWeight: 0.33333334
        outWeight: 0.33333334
      - serializedVersion: 3
        time: 0.7333333
        value: 0.999977
        inSlope: 0.00025033974
        outSlope: 0.00025033974
        tangentMode: 0
        weightedMode: 0
        inWeight: 0.33333334
        outWeight: 0.33333334
      - serializedVersion: 3
        time: 0.74999994
        value: 0.9999809
        inSlope: 0.00022888205
        outSlope: 0.00022888205
        tangentMode: 0
        weightedMode: 0
        inWeight: 0.33333334
        outWeight: 0.33333334
      - serializedVersion: 3
        time: 0.7666666
        value: 0.9999846
        inSlope: 0.00020384809
        outSlope: 0.00020384809
        tangentMode: 0
        weightedMode: 0
        inWeight: 0.33333334
        outWeight: 0.33333334
      - serializedVersion: 3
        time: 0.78333324
        value: 0.9999877
        inSlope: 0.00017881411
        outSlope: 0.00017881411
        tangentMode: 0
        weightedMode: 0
        inWeight: 0.33333334
        outWeight: 0.33333334
      - serializedVersion: 3
        time: 0.7999999
        value: 0.9999906
        inSlope: 0.00015735641
        outSlope: 0.00015735641
        tangentMode: 0
        weightedMode: 0
        inWeight: 0.33333334
        outWeight: 0.33333334
      - serializedVersion: 3
        time: 0.81666654
        value: 0.99999297
        inSlope: 0.00012874615
        outSlope: 0.00012874615
        tangentMode: 0
        weightedMode: 0
        inWeight: 0.33333334
        outWeight: 0.33333334
      - serializedVersion: 3
        time: 0.8333332
        value: 0.9999949
        inSlope: 0.000103712184
        outSlope: 0.000103712184
        tangentMode: 0
        weightedMode: 0
        inWeight: 0.33333334
        outWeight: 0.33333334
      - serializedVersion: 3
        time: 0.84999985
        value: 0.9999964
        inSlope: 0.00008225448
        outSlope: 0.00008225448
        tangentMode: 0
        weightedMode: 0
        inWeight: 0.33333334
        outWeight: 0.33333334
      - serializedVersion: 3
        time: 0.8666665
        value: 0.9999976
        inSlope: 0.000064373075
        outSlope: 0.000064373075
        tangentMode: 0
        weightedMode: 0
        inWeight: 0.33333334
        outWeight: 0.33333334
      - serializedVersion: 3
        time: 0.88333315
        value: 0.99999857
        inSlope: 0.000046491667
        outSlope: 0.000046491667
        tangentMode: 0
        weightedMode: 0
        inWeight: 0.33333334
        outWeight: 0.33333334
      - serializedVersion: 3
        time: 0.8999998
        value: 0.99999917
        inSlope: 0.000028610255
        outSlope: 0.000028610255
        tangentMode: 0
        weightedMode: 0
        inWeight: 0.33333334
        outWeight: 0.33333334
      - serializedVersion: 3
        time: 0.91666645
        value: 0.9999995
        inSlope: 0.00001788141
        outSlope: 0.00001788141
        tangentMode: 0
        weightedMode: 0
        inWeight: 0.33333334
        outWeight: 0.33333334
      - serializedVersion: 3
        time: 0.9333331
        value: 0.99999976
        inSlope: 0.000010728846
        outSlope: 0.000010728846
        tangentMode: 0
        weightedMode: 0
        inWeight: 0.33333334
        outWeight: 0.33333334
      - serializedVersion: 3
        time: 0.94999975
        value: 0.9999999
        inSlope: 0.000007152564
        outSlope: 0.000007152564
        tangentMode: 0
        weightedMode: 0
        inWeight: 0.33333334
        outWeight: 0.33333334
      - serializedVersion: 3
        time: 0.9666664
        value: 1
        inSlope: 0.000003576282
        outSlope: 0.000003576282
        tangentMode: 0
        weightedMode: 0
        inWeight: 0.33333334
        outWeight: 0.33333334
      - serializedVersion: 3
        time: 0.98333305
        value: 1
        inSlope: 0
        outSlope: 0
        tangentMode: 0
        weightedMode: 0
        inWeight: 0.33333334
        outWeight: 0.33333334
      - serializedVersion: 3
        time: 1
        value: 1
        inSlope: 0
        outSlope: 0
        tangentMode: 0
        weightedMode: 0
        inWeight: 0.33333334
        outWeight: 0.33333334
      m_PreInfinity: 2
      m_PostInfinity: 2
      m_RotationOrder: 4
    attribute: m_LocalRotation.w
    path: 
    classID: 4
    script: {fileID: 0}
  m_EulerEditorCurves:
  - curve:
      serializedVersion: 2
      m_Curve:
      - serializedVersion: 3
        time: 0
        value: 0
        inSlope: 0
        outSlope: 0
        tangentMode: 136
        weightedMode: 0
        inWeight: 0.33333334
        outWeight: 0.33333334
      - serializedVersion: 3
        time: 0.5
        value: 1
        inSlope: 0
        outSlope: 0
        tangentMode: 136
        weightedMode: 0
        inWeight: 0.33333334
        outWeight: 0.33333334
      - serializedVersion: 3
        time: 1
        value: 0
        inSlope: 0
        outSlope: 0
        tangentMode: 136
        weightedMode: 0
        inWeight: 0.33333334
        outWeight: 0.33333334
      m_PreInfinity: 2
      m_PostInfinity: 2
      m_RotationOrder: 4
    attribute: localEulerAnglesBaked.x
    path: 
    classID: 4
    script: {fileID: 0}
  - curve:
      serializedVersion: 2
      m_Curve:
      - serializedVersion: 3
        time: 0
        value: 0
        inSlope: 0
        outSlope: 0
        tangentMode: 136
        weightedMode: 0
        inWeight: 0.33333334
        outWeight: 0.33333334
      - serializedVersion: 3
        time: 0.5
        value: 0
        inSlope: 0
        outSlope: 0
        tangentMode: 136
        weightedMode: 0
        inWeight: 0.33333334
        outWeight: 0.33333334
      - serializedVersion: 3
        time: 1
        value: 0
        inSlope: 0
        outSlope: 0
        tangentMode: 136
        weightedMode: 0
        inWeight: 0.33333334
        outWeight: 0.33333334
      m_PreInfinity: 2
      m_PostInfinity: 2
      m_RotationOrder: 4
    attribute: localEulerAnglesBaked.y
    path: 
    classID: 4
    script: {fileID: 0}
  - curve:
      serializedVersion: 2
      m_Curve:
      - serializedVersion: 3
        time: 0
        value: 0
        inSlope: 0
        outSlope: 0
        tangentMode: 136
        weightedMode: 0
        inWeight: 0.33333334
        outWeight: 0.33333334
      - serializedVersion: 3
        time: 0.5
        value: 1
        inSlope: 0
        outSlope: 0
        tangentMode: 136
        weightedMode: 0
        inWeight: 0.33333334
        outWeight: 0.33333334
      - serializedVersion: 3
        time: 1
        value: 0
        inSlope: 0
        outSlope: 0
        tangentMode: 136
        weightedMode: 0
        inWeight: 0.33333334
        outWeight: 0.33333334
      m_PreInfinity: 2
      m_PostInfinity: 2
      m_RotationOrder: 4
    attribute: localEulerAnglesBaked.z
    path: 
    classID: 4
    script: {fileID: 0}
  m_HasGenericRootTransform: 0
  m_HasMotionFloatCurves: 0
  m_Events: []
